//.vmt file generated by MAYA. Remove this line if you edit this file! -- theo 
"VertexLitGeneric"
{

	"$color"				"[1 1 1]"
	"$baseTexture"				"models/player/commando/commando_head"
	"$selfIllum"				0
	"$translucency"				0
	"$alpha"				1
}
