version 1
nodes
  0 "Root" -1
  1 "Ab1" 0
  2 "Ab2" 1
  3 "Chest" 2
  4 "Neck" 3
  5 "Head" 4
  6 "RightClavicle" 3
  7 "RightBicep" 6
  8 "RightForearm" 7
  9 "RightHand" 8
  10 "RightKnuckles" 9
  11 "RightIndex1" 10
  12 "RightIndex2" 11
  13 "RightIndex3" 12
  14 "RightMiddleRingPinky1" 10
  15 "RightMiddleRingPinky2" 14
  16 "RightMiddleRingPinky3" 15
  17 "RightThumb1" 9
  18 "RightThumb2" 17
  19 "RightThumb3" 18
  20 "w_combat_plasmarifle" 9
  21 "RightWrist_helper" 8
  22 "RightShoulder_helper" 7
  23 "Grenade2" 3
  24 "Grenade3" 3
  25 "LeftClavicle" 3
  26 "LeftBicep" 25
  27 "LeftForearm" 26
  28 "LeftHand" 27
  29 "LeftKnuckles" 28
  30 "LeftIndex1" 29
  31 "LeftIndex2" 30
  32 "LeftIndex3" 31
  33 "LeftMiddleRingPinky1" 29
  34 "LeftMiddleRingPinky2" 33
  35 "LeftMiddleRingPinky3" 34
  36 "LeftThumb1" 28
  37 "LeftThumb2" 36
  38 "LeftThumb3" 37
  39 "LeftWrist_helper" 27
  40 "w_combat_shield" 27
  41 "LeftShoulder_helper" 26
  42 "Grenade1" 2
  43 "Hips" 0
  44 "RightThigh" 43
  45 "RightCalf" 44
  46 "RightFoot" 45
  47 "RightToe" 46
  48 "RightKnee_Helper" 44
  49 "RightHip_Helper" 44
  50 "RightThigh_helper" 44
  51 "SideArm" 43
  52 "Pouch" 43
  53 "LeftThigh" 43
  54 "LeftCalf" 53
  55 "LeftFoot" 54
  56 "LeftToe" 55
  57 "LeftKnee_Helper" 53
  58 "LeftHip_Helper" 53
  59 "LeftThigh_helper" 53
  60 "Front_Coat" 43
  61 "RightFrontCoat1" 60
  62 "RightFrontCoat2" 61
  63 "LeftFrontCoat1" 60
  64 "LeftFrontCoat2" 63
  65 "Rear_Coat" 43
  66 "LeftRearCoat1" 65
  67 "LeftRearCoat2" 66
  68 "RightRearCoat1" 65
  69 "RightRearCoat2" 68
  70 "Helmet" 5
  71 "Human_Commando_Mesh01" -1
  72 "Human_Commando_HeadHelmet01" -1
  73 "Human_Commando_HeadNoHelmet01" -1
end
skeleton
  time 0
    0 0.901462 1.945372 44.130253 1.570746 0.000000 -0.000015
    1 0.000000 0.845699 0.841800 -0.925466 -0.021087 1.573918
    2 3.172899 0.000000 0.000001 -2.727183 0.000000 1.570796
    3 0.000000 2.900199 0.000001 -0.150060 0.000000 0.000000
    4 0.000000 11.238500 -0.000001 3.141593 0.694830 1.570796
    5 2.735298 0.000000 -0.000001 0.696784 0.074162 -0.363155
    6 2.035800 7.890699 -1.483200 -1.764003 -0.407033 -0.363111
    7 8.130153 0.000000 0.000002 0.833137 0.236118 0.783137
    8 11.348107 0.000000 -0.000001 -3.141497 1.477124 3.141497
    9 9.822320 -0.000001 -0.000001 3.596569 -0.890789 1.587459
    10 0.000000 3.212601 0.000002 0.000000 0.000000 0.000000
    11 0.074002 1.577999 1.705098 -3.117188 0.084352 1.710288
    12 2.268901 0.000000 0.000000 0.004087 0.008749 -1.283781
    13 1.655882 0.000000 -0.000002 -3.130207 0.038423 0.287190
    14 -0.029398 1.282699 -0.908303 3.260766 0.035330 2.987303
    15 2.618276 -0.000001 -0.000002 0.016599 0.003775 -1.421043
    16 1.574230 0.000001 0.000002 -3.122710 0.051642 0.349700
    17 -1.330999 0.879601 2.090302 1.757656 -0.122147 2.046081
    18 2.530888 -0.000002 0.000000 -0.221164 0.117764 -0.453450
    19 2.216635 0.000002 0.000001 3.112564 -0.025503 0.848627
    20 -0.901000 3.304000 -1.985998 1.707120 -0.059210 -3.122480
    21 8.583692 -0.000001 -0.013618 3.131755 -0.894377 1.566463
    22 2.769698 -0.000002 -0.003614 -3.140289 -0.749294 1.570797
    23 1.727800 2.258301 -6.608100 3.064540 -0.383290 0.992430
    24 4.471199 6.217801 -5.291700 2.997040 -0.547870 0.970430
    25 -2.035700 7.890700 -1.483200 1.763999 -0.407033 -2.778468
    26 8.130191 0.000000 -0.000001 -1.680270 0.695755 -1.217917
    27 11.348108 0.000004 0.000000 0.000000 0.792756 0.000000
    28 9.822316 -0.000002 0.000002 -0.603990 1.419639 0.668924
    29 -0.000002 -3.212500 -0.000002 0.000000 0.000000 0.000000
    30 -0.074098 -1.578100 -1.705097 -0.061170 0.142480 -1.424650
    31 2.268900 0.000002 0.000000 -0.001558 0.005992 0.376655
    32 1.655882 -0.000001 0.000000 0.039814 -0.004506 1.683496
    33 0.029401 -1.282801 0.908303 -0.095558 -0.084239 -0.600982
    34 2.618175 0.000001 -0.000001 -0.007694 -0.008565 0.476081
    35 1.574231 0.000001 0.000001 0.043836 -0.033065 2.216847
    36 1.334400 -0.877501 -2.090500 1.032618 0.462856 -1.571407
    37 2.530889 0.000000 0.000000 0.087140 0.070875 -0.377498
    38 2.216537 -0.000001 0.000003 -0.038592 0.000000 1.570796
    39 8.583688 -0.000003 -0.013616 0.000006 1.416120 1.585513
    40 -2.371497 -3.379999 -0.244242 -1.490215 0.072044 -3.129191
    41 2.769597 0.000002 -0.003610 0.001304 0.438812 1.570795
    42 -0.926900 0.405500 -7.070302 2.925700 0.066660 0.626740
    43 0.000000 -0.813198 0.000000 0.000000 -0.431950 0.000000
    44 -6.238499 -6.566399 0.776399 2.030031 -0.282487 -1.714341
    45 17.545601 0.000000 0.000000 0.000000 0.000000 -0.795014
    46 16.647600 0.000002 -0.000001 -0.013798 -0.091265 1.673856
    47 7.325600 -0.000001 0.000000 -1.169096 -1.570796 0.000000
    48 17.546000 0.000000 0.000000 0.000000 -1.570796 -1.929125
    49 0.999999 0.000001 0.000000 3.119153 -0.890235 1.593232
    50 10.000000 0.000000 0.000000 3.119154 -1.220089 1.593228
    51 -7.233315 -0.461408 5.215592 0.040159 0.535271 -0.236478
    52 3.912000 -1.063801 7.252800 -0.048110 0.485870 -0.102740
    53 6.238500 -6.566399 0.776401 -1.881478 -0.506089 -1.359828
    54 17.545502 0.000002 0.000000 0.000000 0.000000 0.689380
    55 16.647600 -0.000001 0.000000 -0.068537 -0.164417 -1.328388
    56 7.325600 0.000000 0.000000 -1.169096 1.570796 0.000000
    57 17.545502 0.000002 0.000000 0.000000 1.570796 1.876333
    58 0.999998 0.000001 0.000000 -0.022440 1.058160 1.548361
    59 10.000000 0.000001 0.000000 -0.022427 1.262067 1.548365
    60 0.000000 -1.900200 4.992000 0.000000 0.000000 0.000000
    61 -5.791299 0.000198 0.030299 1.585065 -0.687634 -1.641746
    62 10.147000 0.000002 0.000000 -1.629360 -1.404163 -0.144141
    63 5.791300 0.000199 0.030301 -1.585027 -0.687657 -1.499823
    64 10.147000 -0.000001 0.000000 0.046683 1.014728 1.768519
    65 0.000000 -1.648800 -1.744700 0.000000 0.000000 0.000000
    66 5.626999 0.067100 0.087400 0.024827 0.162481 -1.450099
    67 12.354201 0.000001 -0.000001 -0.214390 0.000000 1.570796
    68 -5.626999 0.067001 0.087400 -1.595623 0.162493 -1.691494
    69 12.354102 -0.000001 0.000000 -1.785186 -1.570796 0.000000
    70 3.372662 0.000000 -0.000003 -0.447687 0.000002 -1.570797
    71 0.000000 0.000000 0.000000 0.000000 0.000000 -1.570796
    72 0.000000 0.000000 0.000000 0.000000 0.000000 -1.570796
    73 0.000000 0.000000 0.000000 0.000000 0.000000 -1.570796
  time 1
    0 0.901462 1.945372 44.130253 1.570746 0.000000 -0.000015
    1 0.000000 0.845699 0.841800 -0.925466 -0.021087 1.573918
    2 3.172899 0.000000 0.000001 -2.727183 0.000000 1.570796
    3 0.000000 2.900199 0.000001 -0.150060 0.000000 0.000000
    4 0.000000 11.238500 -0.000001 3.141593 0.694830 1.570796
    5 2.735298 0.000000 -0.000001 0.696784 0.074162 -0.363155
    6 2.035800 7.890699 -1.483200 -1.764003 -0.407033 -0.363111
    7 8.130153 0.000000 0.000002 0.833137 0.236118 0.783137
    8 11.348107 0.000000 -0.000001 -3.141497 1.477124 3.141497
    9 9.822320 -0.000001 -0.000001 3.596569 -0.890789 1.587459
    10 0.000000 3.212601 0.000002 0.000000 0.000000 0.000000
    11 0.074002 1.577999 1.705098 -3.117188 0.084352 1.710288
    12 2.268901 0.000000 0.000000 0.004087 0.008749 -1.283781
    13 1.655882 0.000000 -0.000002 -3.130207 0.038423 0.287190
    14 -0.029398 1.282699 -0.908303 3.260766 0.035330 2.987303
    15 2.618276 -0.000001 -0.000002 0.016599 0.003775 -1.421043
    16 1.574230 0.000001 0.000002 -3.122710 0.051642 0.349700
    17 -1.330999 0.879601 2.090302 1.757656 -0.122147 2.046081
    18 2.530888 -0.000002 0.000000 -0.221164 0.117764 -0.453450
    19 2.216635 0.000002 0.000001 3.112564 -0.025503 0.848627
    20 -0.901000 3.304000 -1.985998 1.707120 -0.059210 -3.122480
    21 8.583692 -0.000001 -0.013618 3.131755 -0.894377 1.566463
    22 2.769698 -0.000002 -0.003614 -3.140289 -0.749294 1.570797
    23 1.727800 2.258301 -6.608100 3.064540 -0.383290 0.992430
    24 4.471199 6.217801 -5.291700 2.997040 -0.547870 0.970430
    25 -2.035700 7.890700 -1.483200 1.763999 -0.407033 -2.778468
    26 8.130191 0.000000 -0.000001 -1.680270 0.695755 -1.217917
    27 11.348108 0.000004 0.000000 0.000000 0.792756 0.000000
    28 9.822316 -0.000002 0.000002 -0.603990 1.419639 0.668924
    29 -0.000002 -3.212500 -0.000002 0.000000 0.000000 0.000000
    30 -0.074098 -1.578100 -1.705097 -0.061170 0.142480 -1.424650
    31 2.268900 0.000002 0.000000 -0.001558 0.005992 0.376655
    32 1.655882 -0.000001 0.000000 0.039814 -0.004506 1.683496
    33 0.029401 -1.282801 0.908303 -0.095558 -0.084239 -0.600982
    34 2.618175 0.000001 -0.000001 -0.007694 -0.008565 0.476081
    35 1.574231 0.000001 0.000001 0.043836 -0.033065 2.216847
    36 1.334400 -0.877501 -2.090500 1.032618 0.462856 -1.571407
    37 2.530889 0.000000 0.000000 0.087140 0.070875 -0.377498
    38 2.216537 -0.000001 0.000003 -0.038592 0.000000 1.570796
    39 8.583688 -0.000003 -0.013616 0.000006 1.416120 1.585513
    40 -2.371497 -3.379999 -0.244242 -1.490215 0.072044 -3.129191
    41 2.769597 0.000002 -0.003610 0.001304 0.438812 1.570795
    42 -0.926900 0.405500 -7.070302 2.925700 0.066660 0.626740
    43 0.000000 -0.813198 0.000000 0.000000 -0.431950 0.000000
    44 -6.238499 -6.566399 0.776399 2.030031 -0.282487 -1.714341
    45 17.545601 0.000000 0.000000 0.000000 0.000000 -0.795014
    46 16.647600 0.000002 -0.000001 -0.013798 -0.091265 1.673856
    47 7.325600 -0.000001 0.000000 -1.169096 -1.570796 0.000000
    48 17.546000 0.000000 0.000000 0.000000 -1.570796 -1.929125
    49 0.999999 0.000001 0.000000 3.119153 -0.890235 1.593232
    50 10.000000 0.000000 0.000000 3.119154 -1.220089 1.593228
    51 -7.233315 -0.461408 5.215592 0.040159 0.535271 -0.236478
    52 3.912000 -1.063801 7.252800 -0.048110 0.485870 -0.102740
    53 6.238500 -6.566399 0.776401 -1.881478 -0.506089 -1.359828
    54 17.545502 0.000002 0.000000 0.000000 0.000000 0.689380
    55 16.647600 -0.000001 0.000000 -0.068537 -0.164417 -1.328388
    56 7.325600 0.000000 0.000000 -1.169096 1.570796 0.000000
    57 17.545502 0.000002 0.000000 0.000000 1.570796 1.876333
    58 0.999998 0.000001 0.000000 -0.022440 1.058160 1.548361
    59 10.000000 0.000001 0.000000 -0.022427 1.262067 1.548365
    60 0.000000 -1.900200 4.992000 0.000000 0.000000 0.000000
    61 -5.791299 0.000198 0.030299 1.585065 -0.687634 -1.641746
    62 10.147000 0.000002 0.000000 -1.629360 -1.404163 -0.144141
    63 5.791300 0.000199 0.030301 -1.585027 -0.687657 -1.499823
    64 10.147000 -0.000001 0.000000 0.046683 1.014728 1.768519
    65 0.000000 -1.648800 -1.744700 0.000000 0.000000 0.000000
    66 5.626999 0.067100 0.087400 0.024827 0.162481 -1.450099
    67 12.354201 0.000001 -0.000001 -0.214390 0.000000 1.570796
    68 -5.626999 0.067001 0.087400 -1.595623 0.162493 -1.691494
    69 12.354102 -0.000001 0.000000 -1.785186 -1.570796 0.000000
    70 3.372662 0.000000 -0.000003 -0.447687 0.000002 -1.570797
    71 0.000000 0.000000 0.000000 0.000000 0.000000 -1.570796
    72 0.000000 0.000000 0.000000 0.000000 0.000000 -1.570796
    73 0.000000 0.000000 0.000000 0.000000 0.000000 -1.570796
  time 2
    0 0.901462 1.945372 44.130253 1.570746 0.000000 -0.000015
    1 0.000000 0.845699 0.841800 -0.925466 -0.021087 1.573918
    2 3.172899 0.000000 0.000001 -2.727183 0.000000 1.570796
    3 0.000000 2.900199 0.000001 -0.150060 0.000000 0.000000
    4 0.000000 11.238500 -0.000001 3.141593 0.694830 1.570796
    5 2.735298 0.000000 -0.000001 0.696784 0.074162 -0.363155
    6 2.035800 7.890699 -1.483200 -1.764003 -0.407033 -0.363111
    7 8.130153 0.000000 0.000002 0.833137 0.236118 0.783137
    8 11.348107 0.000000 -0.000001 -3.141497 1.477124 3.141497
    9 9.822320 -0.000001 -0.000001 3.596569 -0.890789 1.587459
    10 0.000000 3.212601 0.000002 0.000000 0.000000 0.000000
    11 0.074002 1.577999 1.705098 -3.117188 0.084352 1.710288
    12 2.268901 0.000000 0.000000 0.004087 0.008749 -1.283781
    13 1.655882 0.000000 -0.000002 -3.130207 0.038423 0.287190
    14 -0.029398 1.282699 -0.908303 3.260766 0.035330 2.987303
    15 2.618276 -0.000001 -0.000002 0.016599 0.003775 -1.421043
    16 1.574230 0.000001 0.000002 -3.122710 0.051642 0.349700
    17 -1.330999 0.879601 2.090302 1.757656 -0.122147 2.046081
    18 2.530888 -0.000002 0.000000 -0.221164 0.117764 -0.453450
    19 2.216635 0.000002 0.000001 3.112564 -0.025503 0.848627
    20 -0.901000 3.304000 -1.985998 1.707120 -0.059210 -3.122480
    21 8.583692 -0.000001 -0.013618 3.131755 -0.894377 1.566463
    22 2.769698 -0.000002 -0.003614 -3.140289 -0.749294 1.570797
    23 1.727800 2.258301 -6.608100 3.064540 -0.383290 0.992430
    24 4.471199 6.217801 -5.291700 2.997040 -0.547870 0.970430
    25 -2.035700 7.890700 -1.483200 1.763999 -0.407033 -2.778468
    26 8.130191 0.000000 -0.000001 -1.680270 0.695755 -1.217917
    27 11.348108 0.000004 0.000000 0.000000 0.792756 0.000000
    28 9.822316 -0.000002 0.000002 -0.603990 1.419639 0.668924
    29 -0.000002 -3.212500 -0.000002 0.000000 0.000000 0.000000
    30 -0.074098 -1.578100 -1.705097 -0.061170 0.142480 -1.424650
    31 2.268900 0.000002 0.000000 -0.001558 0.005992 0.376655
    32 1.655882 -0.000001 0.000000 0.039814 -0.004506 1.683496
    33 0.029401 -1.282801 0.908303 -0.095558 -0.084239 -0.600982
    34 2.618175 0.000001 -0.000001 -0.007694 -0.008565 0.476081
    35 1.574231 0.000001 0.000001 0.043836 -0.033065 2.216847
    36 1.334400 -0.877501 -2.090500 1.032618 0.462856 -1.571407
    37 2.530889 0.000000 0.000000 0.087140 0.070875 -0.377498
    38 2.216537 -0.000001 0.000003 -0.038592 0.000000 1.570796
    39 8.583688 -0.000003 -0.013616 0.000006 1.416120 1.585513
    40 -2.371497 -3.379999 -0.244242 -1.490215 0.072044 -3.129191
    41 2.769597 0.000002 -0.003610 0.001304 0.438812 1.570795
    42 -0.926900 0.405500 -7.070302 2.925700 0.066660 0.626740
    43 0.000000 -0.813198 0.000000 0.000000 -0.431950 0.000000
    44 -6.238499 -6.566399 0.776399 2.030031 -0.282487 -1.714341
    45 17.545601 0.000000 0.000000 0.000000 0.000000 -0.795014
    46 16.647600 0.000002 -0.000001 -0.013798 -0.091265 1.673856
    47 7.325600 -0.000001 0.000000 -1.169096 -1.570796 0.000000
    48 17.546000 0.000000 0.000000 0.000000 -1.570796 -1.929125
    49 0.999999 0.000001 0.000000 3.119153 -0.890235 1.593232
    50 10.000000 0.000000 0.000000 3.119154 -1.220089 1.593228
    51 -7.233315 -0.461408 5.215592 0.040159 0.535271 -0.236478
    52 3.912000 -1.063801 7.252800 -0.048110 0.485870 -0.102740
    53 6.238500 -6.566399 0.776401 -1.881478 -0.506089 -1.359828
    54 17.545502 0.000002 0.000000 0.000000 0.000000 0.689380
    55 16.647600 -0.000001 0.000000 -0.068537 -0.164417 -1.328388
    56 7.325600 0.000000 0.000000 -1.169096 1.570796 0.000000
    57 17.545502 0.000002 0.000000 0.000000 1.570796 1.876333
    58 0.999998 0.000001 0.000000 -0.022440 1.058160 1.548361
    59 10.000000 0.000001 0.000000 -0.022427 1.262067 1.548365
    60 0.000000 -1.900200 4.992000 0.000000 0.000000 0.000000
    61 -5.791299 0.000198 0.030299 1.585065 -0.687634 -1.641746
    62 10.147000 0.000002 0.000000 -1.629360 -1.404163 -0.144141
    63 5.791300 0.000199 0.030301 -1.585027 -0.687657 -1.499823
    64 10.147000 -0.000001 0.000000 0.046683 1.014728 1.768519
    65 0.000000 -1.648800 -1.744700 0.000000 0.000000 0.000000
    66 5.626999 0.067100 0.087400 0.024827 0.162481 -1.450099
    67 12.354201 0.000001 -0.000001 -0.214390 0.000000 1.570796
    68 -5.626999 0.067001 0.087400 -1.595623 0.162493 -1.691494
    69 12.354102 -0.000001 0.000000 -1.785186 -1.570796 0.000000
    70 3.372662 0.000000 -0.000003 -0.447687 0.000002 -1.570797
    71 0.000000 0.000000 0.000000 0.000000 0.000000 -1.570796
    72 0.000000 0.000000 0.000000 0.000000 0.000000 -1.570796
    73 0.000000 0.000000 0.000000 0.000000 0.000000 -1.570796
  time 3
    0 0.901462 1.945372 44.130253 1.570746 0.000000 -0.000015
    1 0.000000 0.845699 0.841800 -0.925466 -0.021087 1.573918
    2 3.172899 0.000000 0.000001 -2.727183 0.000000 1.570796
    3 0.000000 2.900199 0.000001 -0.150060 0.000000 0.000000
    4 0.000000 11.238500 -0.000001 3.141593 0.694830 1.570796
    5 2.735298 0.000000 -0.000001 0.696784 0.074162 -0.363155
    6 2.035800 7.890699 -1.483200 -1.764003 -0.407033 -0.363111
    7 8.130153 0.000000 0.000002 0.833137 0.236118 0.783137
    8 11.348107 0.000000 -0.000001 -3.141497 1.477124 3.141497
    9 9.822320 -0.000001 -0.000001 3.596569 -0.890789 1.587459
    10 0.000000 3.212601 0.000002 0.000000 0.000000 0.000000
    11 0.074002 1.577999 1.705098 -3.117188 0.084352 1.710288
    12 2.268901 0.000000 0.000000 0.004087 0.008749 -1.283781
    13 1.655882 0.000000 -0.000002 -3.130207 0.038423 0.287190
    14 -0.029398 1.282699 -0.908303 3.260766 0.035330 2.987303
    15 2.618276 -0.000001 -0.000002 0.016599 0.003775 -1.421043
    16 1.574230 0.000001 0.000002 -3.122710 0.051642 0.349700
    17 -1.330999 0.879601 2.090302 1.757656 -0.122147 2.046081
    18 2.530888 -0.000002 0.000000 -0.221164 0.117764 -0.453450
    19 2.216635 0.000002 0.000001 3.112564 -0.025503 0.848627
    20 -0.901000 3.304000 -1.985998 1.707120 -0.059210 -3.122480
    21 8.583692 -0.000001 -0.013618 3.131755 -0.894377 1.566463
    22 2.769698 -0.000002 -0.003614 -3.140289 -0.749294 1.570797
    23 1.727800 2.258301 -6.608100 3.064540 -0.383290 0.992430
    24 4.471199 6.217801 -5.291700 2.997040 -0.547870 0.970430
    25 -2.035700 7.890700 -1.483200 1.763999 -0.407033 -2.778468
    26 8.130191 0.000000 -0.000001 -1.680270 0.695755 -1.217917
    27 11.348108 0.000004 0.000000 0.000000 0.792756 0.000000
    28 9.822316 -0.000002 0.000002 -0.603990 1.419639 0.668924
    29 -0.000002 -3.212500 -0.000002 0.000000 0.000000 0.000000
    30 -0.074098 -1.578100 -1.705097 -0.061170 0.142480 -1.424650
    31 2.268900 0.000002 0.000000 -0.001558 0.005992 0.376655
    32 1.655882 -0.000001 0.000000 0.039814 -0.004506 1.683496
    33 0.029401 -1.282801 0.908303 -0.095558 -0.084239 -0.600982
    34 2.618175 0.000001 -0.000001 -0.007694 -0.008565 0.476081
    35 1.574231 0.000001 0.000001 0.043836 -0.033065 2.216847
    36 1.334400 -0.877501 -2.090500 1.032618 0.462856 -1.571407
    37 2.530889 0.000000 0.000000 0.087140 0.070875 -0.377498
    38 2.216537 -0.000001 0.000003 -0.038592 0.000000 1.570796
    39 8.583688 -0.000003 -0.013616 0.000006 1.416120 1.585513
    40 -2.371497 -3.379999 -0.244242 -1.490215 0.072044 -3.129191
    41 2.769597 0.000002 -0.003610 0.001304 0.438812 1.570795
    42 -0.926900 0.405500 -7.070302 2.925700 0.066660 0.626740
    43 0.000000 -0.813198 0.000000 0.000000 -0.431950 0.000000
    44 -6.238499 -6.566399 0.776399 2.030031 -0.282487 -1.714341
    45 17.545601 0.000000 0.000000 0.000000 0.000000 -0.795014
    46 16.647600 0.000002 -0.000001 -0.013798 -0.091265 1.673856
    47 7.325600 -0.000001 0.000000 -1.169096 -1.570796 0.000000
    48 17.546000 0.000000 0.000000 0.000000 -1.570796 -1.929125
    49 0.999999 0.000001 0.000000 3.119153 -0.890235 1.593232
    50 10.000000 0.000000 0.000000 3.119154 -1.220089 1.593228
    51 -7.233315 -0.461408 5.215592 0.040159 0.535271 -0.236478
    52 3.912000 -1.063801 7.252800 -0.048110 0.485870 -0.102740
    53 6.238500 -6.566399 0.776401 -1.881478 -0.506089 -1.359828
    54 17.545502 0.000002 0.000000 0.000000 0.000000 0.689380
    55 16.647600 -0.000001 0.000000 -0.068537 -0.164417 -1.328388
    56 7.325600 0.000000 0.000000 -1.169096 1.570796 0.000000
    57 17.545502 0.000002 0.000000 0.000000 1.570796 1.876333
    58 0.999998 0.000001 0.000000 -0.022440 1.058160 1.548361
    59 10.000000 0.000001 0.000000 -0.022427 1.262067 1.548365
    60 0.000000 -1.900200 4.992000 0.000000 0.000000 0.000000
    61 -5.791299 0.000198 0.030299 1.585065 -0.687634 -1.641746
    62 10.147000 0.000002 0.000000 -1.629360 -1.404163 -0.144141
    63 5.791300 0.000199 0.030301 -1.585027 -0.687657 -1.499823
    64 10.147000 -0.000001 0.000000 0.046683 1.014728 1.768519
    65 0.000000 -1.648800 -1.744700 0.000000 0.000000 0.000000
    66 5.626999 0.067100 0.087400 0.024827 0.162481 -1.450099
    67 12.354201 0.000001 -0.000001 -0.214390 0.000000 1.570796
    68 -5.626999 0.067001 0.087400 -1.595623 0.162493 -1.691494
    69 12.354102 -0.000001 0.000000 -1.785186 -1.570796 0.000000
    70 3.372662 0.000000 -0.000003 -0.447687 0.000002 -1.570797
    71 0.000000 0.000000 0.000000 0.000000 0.000000 -1.570796
    72 0.000000 0.000000 0.000000 0.000000 0.000000 -1.570796
    73 0.000000 0.000000 0.000000 0.000000 0.000000 -1.570796
  time 4
    0 0.901462 1.945372 44.130253 1.570746 0.000000 -0.000015
    1 0.000000 0.845699 0.841800 -0.925466 -0.021087 1.573918
    2 3.172899 0.000000 0.000001 -2.727183 0.000000 1.570796
    3 0.000000 2.900199 0.000001 -0.150060 0.000000 0.000000
    4 0.000000 11.238500 -0.000001 3.141593 0.694830 1.570796
    5 2.735298 0.000000 -0.000001 0.696784 0.074162 -0.363155
    6 2.035800 7.890699 -1.483200 -1.764003 -0.407033 -0.363111
    7 8.130153 0.000000 0.000002 0.833137 0.236118 0.783137
    8 11.348107 0.000000 -0.000001 -3.141497 1.477124 3.141497
    9 9.822320 -0.000001 -0.000001 3.596569 -0.890789 1.587459
    10 0.000000 3.212601 0.000002 0.000000 0.000000 0.000000
    11 0.074002 1.577999 1.705098 -3.117188 0.084352 1.710288
    12 2.268901 0.000000 0.000000 0.004087 0.008749 -1.283781
    13 1.655882 0.000000 -0.000002 -3.130207 0.038423 0.287190
    14 -0.029398 1.282699 -0.908303 3.260766 0.035330 2.987303
    15 2.618276 -0.000001 -0.000002 0.016599 0.003775 -1.421043
    16 1.574230 0.000001 0.000002 -3.122710 0.051642 0.349700
    17 -1.330999 0.879601 2.090302 1.757656 -0.122147 2.046081
    18 2.530888 -0.000002 0.000000 -0.221164 0.117764 -0.453450
    19 2.216635 0.000002 0.000001 3.112564 -0.025503 0.848627
    20 -0.901000 3.304000 -1.985998 1.707120 -0.059210 -3.122480
    21 8.583692 -0.000001 -0.013618 3.131755 -0.894377 1.566463
    22 2.769698 -0.000002 -0.003614 -3.140289 -0.749294 1.570797
    23 1.727800 2.258301 -6.608100 3.064540 -0.383290 0.992430
    24 4.471199 6.217801 -5.291700 2.997040 -0.547870 0.970430
    25 -2.035700 7.890700 -1.483200 1.763999 -0.407033 -2.778468
    26 8.130191 0.000000 -0.000001 -1.680270 0.695755 -1.217917
    27 11.348108 0.000004 0.000000 0.000000 0.792756 0.000000
    28 9.822316 -0.000002 0.000002 -0.603990 1.419639 0.668924
    29 -0.000002 -3.212500 -0.000002 0.000000 0.000000 0.000000
    30 -0.074098 -1.578100 -1.705097 -0.061170 0.142480 -1.424650
    31 2.268900 0.000002 0.000000 -0.001558 0.005992 0.376655
    32 1.655882 -0.000001 0.000000 0.039814 -0.004506 1.683496
    33 0.029401 -1.282801 0.908303 -0.095558 -0.084239 -0.600982
    34 2.618175 0.000001 -0.000001 -0.007694 -0.008565 0.476081
    35 1.574231 0.000001 0.000001 0.043836 -0.033065 2.216847
    36 1.334400 -0.877501 -2.090500 1.032618 0.462856 -1.571407
    37 2.530889 0.000000 0.000000 0.087140 0.070875 -0.377498
    38 2.216537 -0.000001 0.000003 -0.038592 0.000000 1.570796
    39 8.583688 -0.000003 -0.013616 0.000006 1.416120 1.585513
    40 -2.371497 -3.379999 -0.244242 -1.490215 0.072044 -3.129191
    41 2.769597 0.000002 -0.003610 0.001304 0.438812 1.570795
    42 -0.926900 0.405500 -7.070302 2.925700 0.066660 0.626740
    43 0.000000 -0.813198 0.000000 0.000000 -0.431950 0.000000
    44 -6.238499 -6.566399 0.776399 2.030031 -0.282487 -1.714341
    45 17.545601 0.000000 0.000000 0.000000 0.000000 -0.795014
    46 16.647600 0.000002 -0.000001 -0.013798 -0.091265 1.673856
    47 7.325600 -0.000001 0.000000 -1.169096 -1.570796 0.000000
    48 17.546000 0.000000 0.000000 0.000000 -1.570796 -1.929125
    49 0.999999 0.000001 0.000000 3.119153 -0.890235 1.593232
    50 10.000000 0.000000 0.000000 3.119154 -1.220089 1.593228
    51 -7.233315 -0.461408 5.215592 0.040159 0.535271 -0.236478
    52 3.912000 -1.063801 7.252800 -0.048110 0.485870 -0.102740
    53 6.238500 -6.566399 0.776401 -1.881478 -0.506089 -1.359828
    54 17.545502 0.000002 0.000000 0.000000 0.000000 0.689380
    55 16.647600 -0.000001 0.000000 -0.068537 -0.164417 -1.328388
    56 7.325600 0.000000 0.000000 -1.169096 1.570796 0.000000
    57 17.545502 0.000002 0.000000 0.000000 1.570796 1.876333
    58 0.999998 0.000001 0.000000 -0.022440 1.058160 1.548361
    59 10.000000 0.000001 0.000000 -0.022427 1.262067 1.548365
    60 0.000000 -1.900200 4.992000 0.000000 0.000000 0.000000
    61 -5.791299 0.000198 0.030299 1.585065 -0.687634 -1.641746
    62 10.147000 0.000002 0.000000 -1.629360 -1.404163 -0.144141
    63 5.791300 0.000199 0.030301 -1.585027 -0.687657 -1.499823
    64 10.147000 -0.000001 0.000000 0.046683 1.014728 1.768519
    65 0.000000 -1.648800 -1.744700 0.000000 0.000000 0.000000
    66 5.626999 0.067100 0.087400 0.024827 0.162481 -1.450099
    67 12.354201 0.000001 -0.000001 -0.214390 0.000000 1.570796
    68 -5.626999 0.067001 0.087400 -1.595623 0.162493 -1.691494
    69 12.354102 -0.000001 0.000000 -1.785186 -1.570796 0.000000
    70 3.372662 0.000000 -0.000003 -0.447687 0.000002 -1.570797
    71 0.000000 0.000000 0.000000 0.000000 0.000000 -1.570796
    72 0.000000 0.000000 0.000000 0.000000 0.000000 -1.570796
    73 0.000000 0.000000 0.000000 0.000000 0.000000 -1.570796
  time 5
    0 0.901462 1.945372 44.130253 1.570746 0.000000 -0.000015
    1 0.000000 0.845699 0.841800 -0.925466 -0.021087 1.573918
    2 3.172899 0.000000 0.000001 -2.727183 0.000000 1.570796
    3 0.000000 2.900199 0.000001 -0.150060 0.000000 0.000000
    4 0.000000 11.238500 -0.000001 3.141593 0.694830 1.570796
    5 2.735298 0.000000 -0.000001 0.696784 0.074162 -0.363155
    6 2.035800 7.890699 -1.483200 -1.764003 -0.407033 -0.363111
    7 8.130153 0.000000 0.000002 0.833137 0.236118 0.783137
    8 11.348107 0.000000 -0.000001 -3.141497 1.477124 3.141497
    9 9.822320 -0.000001 -0.000001 3.596569 -0.890789 1.587459
    10 0.000000 3.212601 0.000002 0.000000 0.000000 0.000000
    11 0.074002 1.577999 1.705098 -3.117188 0.084352 1.710288
    12 2.268901 0.000000 0.000000 0.004087 0.008749 -1.283781
    13 1.655882 0.000000 -0.000002 -3.130207 0.038423 0.287190
    14 -0.029398 1.282699 -0.908303 3.260766 0.035330 2.987303
    15 2.618276 -0.000001 -0.000002 0.016599 0.003775 -1.421043
    16 1.574230 0.000001 0.000002 -3.122710 0.051642 0.349700
    17 -1.330999 0.879601 2.090302 1.757656 -0.122147 2.046081
    18 2.530888 -0.000002 0.000000 -0.221164 0.117764 -0.453450
    19 2.216635 0.000002 0.000001 3.112564 -0.025503 0.848627
    20 -0.901000 3.304000 -1.985998 1.707120 -0.059210 -3.122480
    21 8.583692 -0.000001 -0.013618 3.131755 -0.894377 1.566463
    22 2.769698 -0.000002 -0.003614 -3.140289 -0.749294 1.570797
    23 1.727800 2.258301 -6.608100 3.064540 -0.383290 0.992430
    24 4.471199 6.217801 -5.291700 2.997040 -0.547870 0.970430
    25 -2.035700 7.890700 -1.483200 1.763999 -0.407033 -2.778468
    26 8.130191 0.000000 -0.000001 -1.680270 0.695755 -1.217917
    27 11.348108 0.000004 0.000000 0.000000 0.792756 0.000000
    28 9.822316 -0.000002 0.000002 -0.603990 1.419639 0.668924
    29 -0.000002 -3.212500 -0.000002 0.000000 0.000000 0.000000
    30 -0.074098 -1.578100 -1.705097 -0.061170 0.142480 -1.424650
    31 2.268900 0.000002 0.000000 -0.001558 0.005992 0.376655
    32 1.655882 -0.000001 0.000000 0.039814 -0.004506 1.683496
    33 0.029401 -1.282801 0.908303 -0.095558 -0.084239 -0.600982
    34 2.618175 0.000001 -0.000001 -0.007694 -0.008565 0.476081
    35 1.574231 0.000001 0.000001 0.043836 -0.033065 2.216847
    36 1.334400 -0.877501 -2.090500 1.032618 0.462856 -1.571407
    37 2.530889 0.000000 0.000000 0.087140 0.070875 -0.377498
    38 2.216537 -0.000001 0.000003 -0.038592 0.000000 1.570796
    39 8.583688 -0.000003 -0.013616 0.000006 1.416120 1.585513
    40 -2.371497 -3.379999 -0.244242 -1.490215 0.072044 -3.129191
    41 2.769597 0.000002 -0.003610 0.001304 0.438812 1.570795
    42 -0.926900 0.405500 -7.070302 2.925700 0.066660 0.626740
    43 0.000000 -0.813198 0.000000 0.000000 -0.431950 0.000000
    44 -6.238499 -6.566399 0.776399 2.030031 -0.282487 -1.714341
    45 17.545601 0.000000 0.000000 0.000000 0.000000 -0.795014
    46 16.647600 0.000002 -0.000001 -0.013798 -0.091265 1.673856
    47 7.325600 -0.000001 0.000000 -1.169096 -1.570796 0.000000
    48 17.546000 0.000000 0.000000 0.000000 -1.570796 -1.929125
    49 0.999999 0.000001 0.000000 3.119153 -0.890235 1.593232
    50 10.000000 0.000000 0.000000 3.119154 -1.220089 1.593228
    51 -7.233315 -0.461408 5.215592 0.040159 0.535271 -0.236478
    52 3.912000 -1.063801 7.252800 -0.048110 0.485870 -0.102740
    53 6.238500 -6.566399 0.776401 -1.881478 -0.506089 -1.359828
    54 17.545502 0.000002 0.000000 0.000000 0.000000 0.689380
    55 16.647600 -0.000001 0.000000 -0.068537 -0.164417 -1.328388
    56 7.325600 0.000000 0.000000 -1.169096 1.570796 0.000000
    57 17.545502 0.000002 0.000000 0.000000 1.570796 1.876333
    58 0.999998 0.000001 0.000000 -0.022440 1.058160 1.548361
    59 10.000000 0.000001 0.000000 -0.022427 1.262067 1.548365
    60 0.000000 -1.900200 4.992000 0.000000 0.000000 0.000000
    61 -5.791299 0.000198 0.030299 1.585065 -0.687634 -1.641746
    62 10.147000 0.000002 0.000000 -1.629360 -1.404163 -0.144141
    63 5.791300 0.000199 0.030301 -1.585027 -0.687657 -1.499823
    64 10.147000 -0.000001 0.000000 0.046683 1.014728 1.768519
    65 0.000000 -1.648800 -1.744700 0.000000 0.000000 0.000000
    66 5.626999 0.067100 0.087400 0.024827 0.162481 -1.450099
    67 12.354201 0.000001 -0.000001 -0.214390 0.000000 1.570796
    68 -5.626999 0.067001 0.087400 -1.595623 0.162493 -1.691494
    69 12.354102 -0.000001 0.000000 -1.785186 -1.570796 0.000000
    70 3.372662 0.000000 -0.000003 -0.447687 0.000002 -1.570797
    71 0.000000 0.000000 0.000000 0.000000 0.000000 -1.570796
    72 0.000000 0.000000 0.000000 0.000000 0.000000 -1.570796
    73 0.000000 0.000000 0.000000 0.000000 0.000000 -1.570796
  time 6
    0 0.901462 1.945372 44.130253 1.570746 0.000000 -0.000015
    1 0.000000 0.845699 0.841800 -0.925466 -0.021087 1.573918
    2 3.172899 0.000000 0.000001 -2.727183 0.000000 1.570796
    3 0.000000 2.900199 0.000001 -0.150060 0.000000 0.000000
    4 0.000000 11.238500 -0.000001 3.141593 0.694830 1.570796
    5 2.735298 0.000000 -0.000001 0.696784 0.074162 -0.363155
    6 2.035800 7.890699 -1.483200 -1.764003 -0.407033 -0.363111
    7 8.130153 0.000000 0.000002 0.833137 0.236118 0.783137
    8 11.348107 0.000000 -0.000001 -3.141497 1.477124 3.141497
    9 9.822320 -0.000001 -0.000001 3.596569 -0.890789 1.587459
    10 0.000000 3.212601 0.000002 0.000000 0.000000 0.000000
    11 0.074002 1.577999 1.705098 -3.117188 0.084352 1.710288
    12 2.268901 0.000000 0.000000 0.004087 0.008749 -1.283781
    13 1.655882 0.000000 -0.000002 -3.130207 0.038423 0.287190
    14 -0.029398 1.282699 -0.908303 3.260766 0.035330 2.987303
    15 2.618276 -0.000001 -0.000002 0.016599 0.003775 -1.421043
    16 1.574230 0.000001 0.000002 -3.122710 0.051642 0.349700
    17 -1.330999 0.879601 2.090302 1.757656 -0.122147 2.046081
    18 2.530888 -0.000002 0.000000 -0.221164 0.117764 -0.453450
    19 2.216635 0.000002 0.000001 3.112564 -0.025503 0.848627
    20 -0.901000 3.304000 -1.985998 1.707120 -0.059210 -3.122480
    21 8.583692 -0.000001 -0.013618 3.131755 -0.894377 1.566463
    22 2.769698 -0.000002 -0.003614 -3.140289 -0.749294 1.570797
    23 1.727800 2.258301 -6.608100 3.064540 -0.383290 0.992430
    24 4.471199 6.217801 -5.291700 2.997040 -0.547870 0.970430
    25 -2.035700 7.890700 -1.483200 1.763999 -0.407033 -2.778468
    26 8.130191 0.000000 -0.000001 -1.680270 0.695755 -1.217917
    27 11.348108 0.000004 0.000000 0.000000 0.792756 0.000000
    28 9.822316 -0.000002 0.000002 -0.603990 1.419639 0.668924
    29 -0.000002 -3.212500 -0.000002 0.000000 0.000000 0.000000
    30 -0.074098 -1.578100 -1.705097 -0.061170 0.142480 -1.424650
    31 2.268900 0.000002 0.000000 -0.001558 0.005992 0.376655
    32 1.655882 -0.000001 0.000000 0.039814 -0.004506 1.683496
    33 0.029401 -1.282801 0.908303 -0.095558 -0.084239 -0.600982
    34 2.618175 0.000001 -0.000001 -0.007694 -0.008565 0.476081
    35 1.574231 0.000001 0.000001 0.043836 -0.033065 2.216847
    36 1.334400 -0.877501 -2.090500 1.032618 0.462856 -1.571407
    37 2.530889 0.000000 0.000000 0.087140 0.070875 -0.377498
    38 2.216537 -0.000001 0.000003 -0.038592 0.000000 1.570796
    39 8.583688 -0.000003 -0.013616 0.000006 1.416120 1.585513
    40 -2.371497 -3.379999 -0.244242 -1.490215 0.072044 -3.129191
    41 2.769597 0.000002 -0.003610 0.001304 0.438812 1.570795
    42 -0.926900 0.405500 -7.070302 2.925700 0.066660 0.626740
    43 0.000000 -0.813198 0.000000 0.000000 -0.431950 0.000000
    44 -6.238499 -6.566399 0.776399 2.030031 -0.282487 -1.714341
    45 17.545601 0.000000 0.000000 0.000000 0.000000 -0.795014
    46 16.647600 0.000002 -0.000001 -0.013798 -0.091265 1.673856
    47 7.325600 -0.000001 0.000000 -1.169096 -1.570796 0.000000
    48 17.546000 0.000000 0.000000 0.000000 -1.570796 -1.929125
    49 0.999999 0.000001 0.000000 3.119153 -0.890235 1.593232
    50 10.000000 0.000000 0.000000 3.119154 -1.220089 1.593228
    51 -7.233315 -0.461408 5.215592 0.040159 0.535271 -0.236478
    52 3.912000 -1.063801 7.252800 -0.048110 0.485870 -0.102740
    53 6.238500 -6.566399 0.776401 -1.881478 -0.506089 -1.359828
    54 17.545502 0.000002 0.000000 0.000000 0.000000 0.689380
    55 16.647600 -0.000001 0.000000 -0.068537 -0.164417 -1.328388
    56 7.325600 0.000000 0.000000 -1.169096 1.570796 0.000000
    57 17.545502 0.000002 0.000000 0.000000 1.570796 1.876333
    58 0.999998 0.000001 0.000000 -0.022440 1.058160 1.548361
    59 10.000000 0.000001 0.000000 -0.022427 1.262067 1.548365
    60 0.000000 -1.900200 4.992000 0.000000 0.000000 0.000000
    61 -5.791299 0.000198 0.030299 1.585065 -0.687634 -1.641746
    62 10.147000 0.000002 0.000000 -1.629360 -1.404163 -0.144141
    63 5.791300 0.000199 0.030301 -1.585027 -0.687657 -1.499823
    64 10.147000 -0.000001 0.000000 0.046683 1.014728 1.768519
    65 0.000000 -1.648800 -1.744700 0.000000 0.000000 0.000000
    66 5.626999 0.067100 0.087400 0.024827 0.162481 -1.450099
    67 12.354201 0.000001 -0.000001 -0.214390 0.000000 1.570796
    68 -5.626999 0.067001 0.087400 -1.595623 0.162493 -1.691494
    69 12.354102 -0.000001 0.000000 -1.785186 -1.570796 0.000000
    70 3.372662 0.000000 -0.000003 -0.447687 0.000002 -1.570797
    71 0.000000 0.000000 0.000000 0.000000 0.000000 -1.570796
    72 0.000000 0.000000 0.000000 0.000000 0.000000 -1.570796
    73 0.000000 0.000000 0.000000 0.000000 0.000000 -1.570796
  time 7
    0 0.901462 1.945372 44.130253 1.570746 0.000000 -0.000015
    1 0.000000 0.845699 0.841800 -0.925466 -0.021087 1.573918
    2 3.172899 0.000000 0.000001 -2.727183 0.000000 1.570796
    3 0.000000 2.900199 0.000001 -0.150060 0.000000 0.000000
    4 0.000000 11.238500 -0.000001 3.141593 0.694830 1.570796
    5 2.735298 0.000000 -0.000001 0.696784 0.074162 -0.363155
    6 2.035800 7.890699 -1.483200 -1.764003 -0.407033 -0.363111
    7 8.130153 0.000000 0.000002 0.833137 0.236118 0.783137
    8 11.348107 0.000000 -0.000001 -3.141497 1.477124 3.141497
    9 9.822320 -0.000001 -0.000001 3.596569 -0.890789 1.587459
    10 0.000000 3.212601 0.000002 0.000000 0.000000 0.000000
    11 0.074002 1.577999 1.705098 -3.117188 0.084352 1.710288
    12 2.268901 0.000000 0.000000 0.004087 0.008749 -1.283781
    13 1.655882 0.000000 -0.000002 -3.130207 0.038423 0.287190
    14 -0.029398 1.282699 -0.908303 3.260766 0.035330 2.987303
    15 2.618276 -0.000001 -0.000002 0.016599 0.003775 -1.421043
    16 1.574230 0.000001 0.000002 -3.122710 0.051642 0.349700
    17 -1.330999 0.879601 2.090302 1.757656 -0.122147 2.046081
    18 2.530888 -0.000002 0.000000 -0.221164 0.117764 -0.453450
    19 2.216635 0.000002 0.000001 3.112564 -0.025503 0.848627
    20 -0.901000 3.304000 -1.985998 1.707120 -0.059210 -3.122480
    21 8.583692 -0.000001 -0.013618 3.131755 -0.894377 1.566463
    22 2.769698 -0.000002 -0.003614 -3.140289 -0.749294 1.570797
    23 1.727800 2.258301 -6.608100 3.064540 -0.383290 0.992430
    24 4.471199 6.217801 -5.291700 2.997040 -0.547870 0.970430
    25 -2.035700 7.890700 -1.483200 1.763999 -0.407033 -2.778468
    26 8.130191 0.000000 -0.000001 -1.680270 0.695755 -1.217917
    27 11.348108 0.000004 0.000000 0.000000 0.792756 0.000000
    28 9.822316 -0.000002 0.000002 -0.603990 1.419639 0.668924
    29 -0.000002 -3.212500 -0.000002 0.000000 0.000000 0.000000
    30 -0.074098 -1.578100 -1.705097 -0.061170 0.142480 -1.424650
    31 2.268900 0.000002 0.000000 -0.001558 0.005992 0.376655
    32 1.655882 -0.000001 0.000000 0.039814 -0.004506 1.683496
    33 0.029401 -1.282801 0.908303 -0.095558 -0.084239 -0.600982
    34 2.618175 0.000001 -0.000001 -0.007694 -0.008565 0.476081
    35 1.574231 0.000001 0.000001 0.043836 -0.033065 2.216847
    36 1.334400 -0.877501 -2.090500 1.032618 0.462856 -1.571407
    37 2.530889 0.000000 0.000000 0.087140 0.070875 -0.377498
    38 2.216537 -0.000001 0.000003 -0.038592 0.000000 1.570796
    39 8.583688 -0.000003 -0.013616 0.000006 1.416120 1.585513
    40 -2.371497 -3.379999 -0.244242 -1.490215 0.072044 -3.129191
    41 2.769597 0.000002 -0.003610 0.001304 0.438812 1.570795
    42 -0.926900 0.405500 -7.070302 2.925700 0.066660 0.626740
    43 0.000000 -0.813198 0.000000 0.000000 -0.431950 0.000000
    44 -6.238499 -6.566399 0.776399 2.030031 -0.282487 -1.714341
    45 17.545601 0.000000 0.000000 0.000000 0.000000 -0.795014
    46 16.647600 0.000002 -0.000001 -0.013798 -0.091265 1.673856
    47 7.325600 -0.000001 0.000000 -1.169096 -1.570796 0.000000
    48 17.546000 0.000000 0.000000 0.000000 -1.570796 -1.929125
    49 0.999999 0.000001 0.000000 3.119153 -0.890235 1.593232
    50 10.000000 0.000000 0.000000 3.119154 -1.220089 1.593228
    51 -7.233315 -0.461408 5.215592 0.040159 0.535271 -0.236478
    52 3.912000 -1.063801 7.252800 -0.048110 0.485870 -0.102740
    53 6.238500 -6.566399 0.776401 -1.881478 -0.506089 -1.359828
    54 17.545502 0.000002 0.000000 0.000000 0.000000 0.689380
    55 16.647600 -0.000001 0.000000 -0.068537 -0.164417 -1.328388
    56 7.325600 0.000000 0.000000 -1.169096 1.570796 0.000000
    57 17.545502 0.000002 0.000000 0.000000 1.570796 1.876333
    58 0.999998 0.000001 0.000000 -0.022440 1.058160 1.548361
    59 10.000000 0.000001 0.000000 -0.022427 1.262067 1.548365
    60 0.000000 -1.900200 4.992000 0.000000 0.000000 0.000000
    61 -5.791299 0.000198 0.030299 1.585065 -0.687634 -1.641746
    62 10.147000 0.000002 0.000000 -1.629360 -1.404163 -0.144141
    63 5.791300 0.000199 0.030301 -1.585027 -0.687657 -1.499823
    64 10.147000 -0.000001 0.000000 0.046683 1.014728 1.768519
    65 0.000000 -1.648800 -1.744700 0.000000 0.000000 0.000000
    66 5.626999 0.067100 0.087400 0.024827 0.162481 -1.450099
    67 12.354201 0.000001 -0.000001 -0.214390 0.000000 1.570796
    68 -5.626999 0.067001 0.087400 -1.595623 0.162493 -1.691494
    69 12.354102 -0.000001 0.000000 -1.785186 -1.570796 0.000000
    70 3.372662 0.000000 -0.000003 -0.447687 0.000002 -1.570797
    71 0.000000 0.000000 0.000000 0.000000 0.000000 -1.570796
    72 0.000000 0.000000 0.000000 0.000000 0.000000 -1.570796
    73 0.000000 0.000000 0.000000 0.000000 0.000000 -1.570796
  time 8
    0 0.901462 1.945372 44.130253 1.570746 0.000000 -0.000015
    1 0.000000 0.845699 0.841800 -0.925466 -0.021087 1.573918
    2 3.172899 0.000000 0.000001 -2.727183 0.000000 1.570796
    3 0.000000 2.900199 0.000001 -0.150060 0.000000 0.000000
    4 0.000000 11.238500 -0.000001 3.141593 0.694830 1.570796
    5 2.735298 0.000000 -0.000001 0.696784 0.074162 -0.363155
    6 2.035800 7.890699 -1.483200 -1.764003 -0.407033 -0.363111
    7 8.130153 0.000000 0.000002 0.833137 0.236118 0.783137
    8 11.348107 0.000000 -0.000001 -3.141497 1.477124 3.141497
    9 9.822320 -0.000001 -0.000001 3.596569 -0.890789 1.587459
    10 0.000000 3.212601 0.000002 0.000000 0.000000 0.000000
    11 0.074002 1.577999 1.705098 -3.117188 0.084352 1.710288
    12 2.268901 0.000000 0.000000 0.004087 0.008749 -1.283781
    13 1.655882 0.000000 -0.000002 -3.130207 0.038423 0.287190
    14 -0.029398 1.282699 -0.908303 3.260766 0.035330 2.987303
    15 2.618276 -0.000001 -0.000002 0.016599 0.003775 -1.421043
    16 1.574230 0.000001 0.000002 -3.122710 0.051642 0.349700
    17 -1.330999 0.879601 2.090302 1.757656 -0.122147 2.046081
    18 2.530888 -0.000002 0.000000 -0.221164 0.117764 -0.453450
    19 2.216635 0.000002 0.000001 3.112564 -0.025503 0.848627
    20 -0.901000 3.304000 -1.985998 1.707120 -0.059210 -3.122480
    21 8.583692 -0.000001 -0.013618 3.131755 -0.894377 1.566463
    22 2.769698 -0.000002 -0.003614 -3.140289 -0.749294 1.570797
    23 1.727800 2.258301 -6.608100 3.064540 -0.383290 0.992430
    24 4.471199 6.217801 -5.291700 2.997040 -0.547870 0.970430
    25 -2.035700 7.890700 -1.483200 1.763999 -0.407033 -2.778468
    26 8.130191 0.000000 -0.000001 -1.680270 0.695755 -1.217917
    27 11.348108 0.000004 0.000000 0.000000 0.792756 0.000000
    28 9.822316 -0.000002 0.000002 -0.603990 1.419639 0.668924
    29 -0.000002 -3.212500 -0.000002 0.000000 0.000000 0.000000
    30 -0.074098 -1.578100 -1.705097 -0.061170 0.142480 -1.424650
    31 2.268900 0.000002 0.000000 -0.001558 0.005992 0.376655
    32 1.655882 -0.000001 0.000000 0.039814 -0.004506 1.683496
    33 0.029401 -1.282801 0.908303 -0.095558 -0.084239 -0.600982
    34 2.618175 0.000001 -0.000001 -0.007694 -0.008565 0.476081
    35 1.574231 0.000001 0.000001 0.043836 -0.033065 2.216847
    36 1.334400 -0.877501 -2.090500 1.032618 0.462856 -1.571407
    37 2.530889 0.000000 0.000000 0.087140 0.070875 -0.377498
    38 2.216537 -0.000001 0.000003 -0.038592 0.000000 1.570796
    39 8.583688 -0.000003 -0.013616 0.000006 1.416120 1.585513
    40 -2.371497 -3.379999 -0.244242 -1.490215 0.072044 -3.129191
    41 2.769597 0.000002 -0.003610 0.001304 0.438812 1.570795
    42 -0.926900 0.405500 -7.070302 2.925700 0.066660 0.626740
    43 0.000000 -0.813198 0.000000 0.000000 -0.431950 0.000000
    44 -6.238499 -6.566399 0.776399 2.030031 -0.282487 -1.714341
    45 17.545601 0.000000 0.000000 0.000000 0.000000 -0.795014
    46 16.647600 0.000002 -0.000001 -0.013798 -0.091265 1.673856
    47 7.325600 -0.000001 0.000000 -1.169096 -1.570796 0.000000
    48 17.546000 0.000000 0.000000 0.000000 -1.570796 -1.929125
    49 0.999999 0.000001 0.000000 3.119153 -0.890235 1.593232
    50 10.000000 0.000000 0.000000 3.119154 -1.220089 1.593228
    51 -7.233315 -0.461408 5.215592 0.040159 0.535271 -0.236478
    52 3.912000 -1.063801 7.252800 -0.048110 0.485870 -0.102740
    53 6.238500 -6.566399 0.776401 -1.881478 -0.506089 -1.359828
    54 17.545502 0.000002 0.000000 0.000000 0.000000 0.689380
    55 16.647600 -0.000001 0.000000 -0.068537 -0.164417 -1.328388
    56 7.325600 0.000000 0.000000 -1.169096 1.570796 0.000000
    57 17.545502 0.000002 0.000000 0.000000 1.570796 1.876333
    58 0.999998 0.000001 0.000000 -0.022440 1.058160 1.548361
    59 10.000000 0.000001 0.000000 -0.022427 1.262067 1.548365
    60 0.000000 -1.900200 4.992000 0.000000 0.000000 0.000000
    61 -5.791299 0.000198 0.030299 1.585065 -0.687634 -1.641746
    62 10.147000 0.000002 0.000000 -1.629360 -1.404163 -0.144141
    63 5.791300 0.000199 0.030301 -1.585027 -0.687657 -1.499823
    64 10.147000 -0.000001 0.000000 0.046683 1.014728 1.768519
    65 0.000000 -1.648800 -1.744700 0.000000 0.000000 0.000000
    66 5.626999 0.067100 0.087400 0.024827 0.162481 -1.450099
    67 12.354201 0.000001 -0.000001 -0.214390 0.000000 1.570796
    68 -5.626999 0.067001 0.087400 -1.595623 0.162493 -1.691494
    69 12.354102 -0.000001 0.000000 -1.785186 -1.570796 0.000000
    70 3.372662 0.000000 -0.000003 -0.447687 0.000002 -1.570797
    71 0.000000 0.000000 0.000000 0.000000 0.000000 -1.570796
    72 0.000000 0.000000 0.000000 0.000000 0.000000 -1.570796
    73 0.000000 0.000000 0.000000 0.000000 0.000000 -1.570796
end
