version 1
nodes
  0 "Root" -1
  1 "Ab1" 0
  2 "Ab2" 1
  3 "Chest" 2
  4 "Neck" 3
  5 "Head" 4
  6 "RightClavicle" 3
  7 "RightBicep" 6
  8 "RightForearm" 7
  9 "RightHand" 8
  10 "RightKnuckles" 9
  11 "RightIndex1" 10
  12 "RightIndex2" 11
  13 "RightIndex3" 12
  14 "RightMiddleRingPinky1" 10
  15 "RightMiddleRingPinky2" 14
  16 "RightMiddleRingPinky3" 15
  17 "RightThumb1" 9
  18 "RightThumb2" 17
  19 "RightThumb3" 18
  20 "w_combat_plasmarifle" 9
  21 "RightWrist_helper" 8
  22 "RightShoulder_helper" 7
  23 "Grenade2" 3
  24 "Grenade3" 3
  25 "LeftClavicle" 3
  26 "LeftBicep" 25
  27 "LeftForearm" 26
  28 "LeftHand" 27
  29 "LeftKnuckles" 28
  30 "LeftIndex1" 29
  31 "LeftIndex2" 30
  32 "LeftIndex3" 31
  33 "LeftMiddleRingPinky1" 29
  34 "LeftMiddleRingPinky2" 33
  35 "LeftMiddleRingPinky3" 34
  36 "LeftThumb1" 28
  37 "LeftThumb2" 36
  38 "LeftThumb3" 37
  39 "LeftWrist_helper" 27
  40 "w_combat_shield" 27
  41 "LeftShoulder_helper" 26
  42 "Grenade1" 2
  43 "Hips" 0
  44 "RightThigh" 43
  45 "RightCalf" 44
  46 "RightFoot" 45
  47 "RightToe" 46
  48 "RightKnee_Helper" 44
  49 "RightHip_Helper" 44
  50 "RightThigh_helper" 44
  51 "SideArm" 43
  52 "Pouch" 43
  53 "LeftThigh" 43
  54 "LeftCalf" 53
  55 "LeftFoot" 54
  56 "LeftToe" 55
  57 "LeftKnee_Helper" 53
  58 "LeftHip_Helper" 53
  59 "LeftThigh_helper" 53
  60 "Front_Coat" 43
  61 "RightFrontCoat1" 60
  62 "RightFrontCoat2" 61
  63 "LeftFrontCoat1" 60
  64 "LeftFrontCoat2" 63
  65 "Rear_Coat" 43
  66 "LeftRearCoat1" 65
  67 "LeftRearCoat2" 66
  68 "RightRearCoat1" 65
  69 "RightRearCoat2" 68
  70 "Helmet" 5
  71 "Human_Commando_Mesh01" -1
  72 "Human_Commando_HeadHelmet01" -1
  73 "Human_Commando_HeadNoHelmet01" -1
end
skeleton
time 0
  0 0.000000 46.801300 0.000000 0.000000 0.000000 0.000000
  1 0.000000 0.845699 0.841800 -0.000000 -0.068862 1.570799
  2 3.172900 -0.000000 0.000000 -2.727183 0.000000 1.570796
  3 -0.000000 2.900200 -0.000001 -0.150060 -0.000000 -0.000000
  4 0.000000 11.238498 0.000000 -3.141593 0.694830 1.570796
  5 2.735302 -0.000000 0.000000 -0.000000 0.051676 0.000000
  6 2.035800 7.890696 -1.483199 -1.764002 -0.407033 -0.363111
  7 8.130150 -0.000000 0.000001 1.571607 0.592041 0.331018
  8 11.348110 0.000002 0.000000 -0.000000 0.119709 -0.000000
  9 9.822318 -0.000000 0.000000 3.130608 0.000000 1.570796
  10 -0.000001 3.212601 -0.000000 -0.000000 0.000000 0.000000
  11 0.074000 1.578002 1.705100 -3.132388 0.087325 1.532939
  12 2.268902 -0.000000 0.000000 -0.000000 0.005693 0.000000
  13 1.655882 0.000001 -0.000000 -3.101527 -0.000000 1.570796
  14 -0.029400 1.282700 -0.908300 3.139656 0.129972 1.627965
  15 2.618275 0.000001 -0.000000 0.000000 -0.010499 -0.000001
  16 1.574231 -0.000001 0.000000 -3.086632 0.000000 1.570797
  17 -1.331001 0.879601 2.090300 2.187756 -0.343107 1.653701
  18 2.530889 0.000001 -0.000001 0.000000 -0.170046 -0.000001
  19 2.216637 -0.000000 0.000001 3.102999 -0.000000 1.570797
  20 -0.901001 3.304000 -1.986000 1.707120 -0.059210 -3.122480
  21 8.583691 -0.000000 -0.013615 3.130608 0.000000 1.570796
  22 2.769701 0.000001 -0.003612 -3.140289 0.000800 1.570797
  23 1.727800 2.258297 -6.608099 3.064540 -0.383290 0.992430
  24 4.471200 6.217797 -5.291699 2.997040 -0.547870 0.970430
  25 -2.035700 7.890697 -1.483200 1.763999 -0.407033 -2.778468
  26 8.130191 0.000000 0.000001 -1.571607 0.592029 -0.331016
  27 11.348108 0.000001 -0.000000 0.000000 0.119709 0.000000
  28 9.822319 0.000002 -0.000000 -0.010984 0.000000 1.570796
  29 -0.000002 -3.212499 0.000000 0.000000 0.000000 0.000000
  30 -0.074101 -1.578098 -1.705100 -0.009205 -0.087324 -1.608653
  31 2.268899 0.000001 -0.000000 0.000000 0.005693 -0.000000
  32 1.655882 -0.000000 0.000000 0.040065 0.000000 1.570796
  33 0.029398 -1.282799 0.908300 0.001936 -0.129972 -1.513627
  34 2.618173 -0.000001 -0.000000 0.000000 -0.010435 -0.000000
  35 1.574233 -0.000002 0.000000 0.054898 -0.000000 1.570796
  36 1.334398 -0.877497 -2.090500 0.953848 0.343130 -1.487858
  37 2.530890 -0.000000 0.000001 0.000000 -0.170087 0.000000
  38 2.216537 0.000000 0.000000 -0.038592 0.000000 1.570796
  39 8.583689 0.000000 -0.013616 -0.010984 0.000000 1.570796
  40 -2.371497 -3.379999 -0.244244 -1.490215 0.072044 -3.129191
  41 2.769597 0.000000 -0.003612 0.001304 -0.000800 1.570795
  42 -0.926900 0.405499 -7.070301 2.925700 0.066660 0.626740
  43 0.000000 -0.813202 0.000000 0.000000 -0.000000 0.000000
  44 -6.238500 -6.566399 0.776400 1.811635 0.021793 -1.627007
  45 17.545603 0.000000 0.000000 0.000000 0.000000 -0.033410
  46 16.647600 -0.000000 -0.000000 -0.000000 -0.000000 1.251350
  47 7.325600 0.000000 0.000000 0.000000 -1.570796 -1.169096
  48 17.546000 0.000000 0.000000 0.000000 -1.570796 -1.548356
  49 1.000001 0.000000 0.000000 3.119153 -1.087945 1.593232
  50 10.000002 -0.000000 0.000000 3.119154 -1.269498 1.593228
  51 -6.733300 1.444901 5.282000 0.095000 0.528970 -0.128450
  52 3.912000 -1.063801 7.252800 -0.048110 0.485870 -0.102740
  53 6.238500 -6.566399 0.776400 -1.811635 0.021805 -1.514589
  54 17.545502 -0.000000 0.000000 0.000000 -0.000000 0.033410
  55 16.647600 0.000000 -0.000000 -0.000000 -0.000000 -1.251350
  56 7.325600 0.000000 -0.000000 0.000000 1.570796 1.169096
  57 17.545502 -0.000000 0.000000 0.000000 1.570796 1.548356
  58 1.000002 0.000000 0.000000 -0.022440 1.087945 1.548361
  59 10.000002 -0.000000 0.000000 -0.022439 1.269498 1.548365
  60 0.000000 -1.900200 4.992000 0.000000 -0.000000 0.000000
  61 -5.791300 0.000198 0.030200 1.582000 -0.176129 -1.634682
  62 10.146999 0.000000 0.000000 0.000000 -1.570796 -1.709416
  63 5.791300 0.000099 0.030200 -1.582000 -0.176142 -1.506910
  64 10.146998 0.000001 -0.000000 0.000000 1.570796 1.709416
  65 0.000000 -1.648800 -1.744700 0.000000 -0.000000 0.000000
  66 5.627000 0.067001 0.087400 0.024827 0.162481 -1.450099
  67 12.354199 0.000000 -0.000000 -0.214390 -0.000000 1.570796
  68 -5.627000 0.067001 0.087400 -1.595623 0.162493 -1.691494
  69 12.354100 -0.000000 -0.000000 0.000000 -1.570796 -1.785186
  70 3.372657 -0.000000 0.000000 -0.447687 0.000002 -1.570797
  71 0.000000 0.000000 0.000000 0.000000 0.000000 0.000000
  72 0.000000 0.000000 0.000000 0.000000 0.000000 0.000000
  73 0.000000 0.000000 0.000000 0.000000 0.000000 0.000000
end
triangles
human_commando_headarmslegs.bmp
5 2.473459 67.778053 2.170791 0.960331 0.218450 0.173330 0.929000 0.456840 1 5 1.000000 
5 2.682619 69.356712 -0.977578 0.932969 0.266202 -0.242292 0.841190 0.500770 1 5 1.000000 
5 1.994609 69.409912 2.767211 0.960331 0.218450 0.173330 0.948950 0.502250 1 5 1.000000 
human_commando_headarmslegs.bmp
5 1.172859 69.384361 -2.772208 0.134500 0.273780 -0.952341 0.770110 0.501540 1 5 1.000000 
5 2.682619 69.356712 -0.977578 0.932969 0.266202 -0.242292 0.841190 0.500770 1 5 1.000000 
3 2.768549 66.374580 -2.535579 0.407502 0.145161 -0.901593 0.796360 0.417780 2 3 0.500000 5 0.500000 
human_commando_headarmslegs.bmp
3 -2.768550 66.374580 -2.535579 -0.500724 -0.285103 -0.817307 0.796360 0.417780 2 3 0.500000 5 0.500000 
5 1.172859 69.384361 -2.772208 0.134500 0.273780 -0.952341 0.770110 0.501540 1 5 1.000000 
3 2.768549 66.374580 -2.535579 0.407502 0.145161 -0.901593 0.796360 0.417780 2 3 0.500000 5 0.500000 
human_commando_headarmslegs.bmp
5 1.172859 69.384361 -2.772208 0.134500 0.273780 -0.952341 0.770110 0.501540 1 5 1.000000 
3 -2.768550 66.374580 -2.535579 -0.500724 -0.285103 -0.817307 0.796360 0.417780 2 3 0.500000 5 0.500000 
5 -2.682621 69.356712 -0.977579 -0.382234 0.436525 -0.814459 0.841190 0.500770 1 5 1.000000 
human_commando_headarmslegs.bmp
5 -0.855801 63.724640 3.536000 -0.618565 -0.772726 -0.142381 0.972880 0.344050 1 5 1.000000 
3 -2.768550 66.374580 -2.535579 -0.500724 -0.285103 -0.817307 0.796360 0.417780 2 3 0.500000 5 0.500000 
5 1.953039 64.760582 2.098411 0.112370 -0.897242 -0.427001 0.929710 0.366750 1 5 1.000000 
human_commando_headarmslegs.bmp
5 -1.994611 69.409912 2.767211 -0.959326 -0.160781 0.232041 0.948950 0.502250 1 5 1.000000 
3 -2.768550 66.374580 -2.535579 -0.500724 -0.285103 -0.817307 0.796360 0.417780 2 3 0.500000 5 0.500000 
5 -0.855801 63.724640 3.536000 -0.618565 -0.772726 -0.142381 0.972880 0.344050 1 5 1.000000 
human_commando_headarmslegs.bmp
3 -2.768550 66.374580 -2.535579 -0.981200 -0.066391 0.181212 0.863310 0.511450 2 3 0.500000 5 0.500000 
5 -1.994611 69.409912 2.767211 -0.600435 0.716426 0.355263 0.794810 0.558790 1 5 1.000000 
5 -2.682621 69.356712 -0.977579 -0.454445 0.887600 0.075141 0.905330 0.637580 1 5 1.000000 
human_commando_headarmslegs.bmp
5 2.473459 67.778053 2.170791 0.822226 -0.076891 0.563944 0.794810 0.558790 1 5 1.000000 
5 1.953039 64.760582 2.098411 0.812047 -0.309193 0.494954 0.863310 0.511450 1 5 1.000000 
3 2.768549 66.374580 -2.535579 0.992138 -0.088411 0.088571 0.931810 0.558790 2 3 0.500000 5 0.500000 
human_commando_headarmslegs.bmp
5 2.473459 67.778053 2.170791 0.822226 -0.076891 0.563944 0.794810 0.558790 1 5 1.000000 
3 2.768549 66.374580 -2.535579 0.992138 -0.088411 0.088571 0.931810 0.558790 2 3 0.500000 5 0.500000 
5 2.682619 69.356712 -0.977578 0.717655 0.695335 0.038480 0.905330 0.637580 1 5 1.000000 
human_commando_headarmslegs.bmp
5 -3.425690 71.110832 -3.288678 -0.169771 -0.974595 -0.146091 0.611210 0.442710 1 5 1.000000 
5 4.745580 69.374832 -1.400227 -0.174081 -0.974376 -0.142431 0.727620 0.415930 1 5 1.000000 
5 3.231199 68.751411 4.715172 -0.169771 -0.974595 -0.146091 0.705900 0.338890 1 5 1.000000 
human_commando_headarmslegs.bmp
5 -3.071141 69.787300 4.935172 -0.165441 -0.974786 -0.149741 0.616210 0.338170 1 5 1.000000 
5 -3.425690 71.110832 -3.288678 -0.169771 -0.974595 -0.146091 0.611210 0.442710 1 5 1.000000 
5 3.231199 68.751411 4.715172 -0.169771 -0.974595 -0.146091 0.705900 0.338890 1 5 1.000000 
human_commando_headarmslegs.bmp
5 -1.994611 69.409912 2.767211 -0.600435 0.716426 0.355263 0.773290 0.299480 1 5 1.000000 
5 -0.855801 63.724640 3.536000 -0.298053 -0.248373 0.921670 0.824690 0.017380 1 5 1.000000 
5 -0.615951 69.409363 3.866251 -0.131532 0.238873 0.962101 0.835510 0.299450 1 5 1.000000 
human_commando_headarmslegs.bmp
5 -0.855801 63.724640 3.536000 -0.298053 -0.248373 0.921670 0.824690 0.017380 1 5 1.000000 
5 -0.572541 65.634987 3.979520 -0.323082 -0.072020 0.943626 0.837720 0.119710 1 5 1.000000 
5 -0.615951 69.409363 3.866251 -0.131532 0.238873 0.962101 0.835510 0.299450 1 5 1.000000 
human_commando_headarmslegs.bmp
5 -0.615951 69.409363 3.866251 -0.131532 0.238873 0.962101 0.835510 0.299450 1 5 1.000000 
5 -0.572541 65.634987 3.979520 -0.323082 -0.072020 0.943626 0.837720 0.119710 1 5 1.000000 
5 0.572539 65.634979 3.979521 0.408994 -0.153642 0.899510 0.889640 0.118210 1 5 1.000000 
human_commando_headarmslegs.bmp
5 -0.855801 63.724640 3.536000 -0.298053 -0.248373 0.921670 0.824690 0.017380 1 5 1.000000 
5 0.572539 65.634979 3.979521 0.408994 -0.153642 0.899510 0.889640 0.118210 1 5 1.000000 
5 -0.572541 65.634987 3.979520 -0.323082 -0.072020 0.943626 0.837720 0.119710 1 5 1.000000 
human_commando_headarmslegs.bmp
5 1.953039 64.760582 2.098411 0.812047 -0.309193 0.494954 0.967650 0.075650 1 5 1.000000 
5 0.572539 65.634979 3.979521 0.408994 -0.153642 0.899510 0.889640 0.118210 1 5 1.000000 
5 -0.855801 63.724640 3.536000 -0.298053 -0.248373 0.921670 0.824690 0.017380 1 5 1.000000 
human_commando_headarmslegs.bmp
5 0.572539 65.634979 3.979521 0.408994 -0.153642 0.899510 0.889640 0.118210 1 5 1.000000 
5 1.953039 64.760582 2.098411 0.812047 -0.309193 0.494954 0.967650 0.075650 1 5 1.000000 
5 2.473459 67.778053 2.170791 0.809335 -0.145561 0.569024 0.993610 0.224470 1 5 1.000000 
human_commando_headarmslegs.bmp
5 -0.615951 69.409363 3.866251 -0.131532 0.238873 0.962101 0.835510 0.299450 1 5 1.000000 
5 0.572539 65.634979 3.979521 0.408994 -0.153642 0.899510 0.889640 0.118210 1 5 1.000000 
5 2.473459 67.778053 2.170791 0.809335 -0.145561 0.569024 0.993610 0.224470 1 5 1.000000 
human_commando_headarmslegs.bmp
5 1.994609 69.409912 2.767211 0.102231 0.969235 0.223901 0.953320 0.299480 1 5 1.000000 
5 -0.615951 69.409363 3.866251 -0.131532 0.238873 0.962101 0.835510 0.299450 1 5 1.000000 
5 2.473459 67.778053 2.170791 0.809335 -0.145561 0.569024 0.993610 0.224470 1 5 1.000000 
human_commando_body.bmp
5 -0.615951 69.409363 3.866251 -0.131532 0.238873 0.962101 0.371830 -0.081760 1 5 1.000000 
5 1.994609 69.409912 2.767211 0.102231 0.969235 0.223901 0.447750 -0.081740 1 5 1.000000 
5 -1.994611 69.409912 2.767211 -0.600435 0.716426 0.355263 0.326350 -0.081740 1 5 1.000000 
human_commando_body.bmp
5 -2.682621 69.356712 -0.977579 -0.454445 0.887600 0.075141 0.213800 -0.083330 1 5 1.000000 
5 -1.994611 69.409912 2.767211 -0.600435 0.716426 0.355263 0.326350 -0.081740 1 5 1.000000 
5 1.994609 69.409912 2.767211 0.102231 0.969235 0.223901 0.021640 -0.024390 1 5 1.000000 
human_commando_body.bmp
5 1.994609 69.409912 2.767211 0.102231 0.969235 0.223901 0.021640 -0.024390 1 5 1.000000 
5 1.172859 69.384361 -2.772208 0.010080 0.999930 -0.006100 0.097960 -0.082500 1 5 1.000000 
5 -2.682621 69.356712 -0.977579 -0.454445 0.887600 0.075141 0.213800 -0.083330 1 5 1.000000 
human_commando_body.bmp
5 1.172859 69.384361 -2.772208 0.010080 0.999930 -0.006100 0.097960 -0.082500 1 5 1.000000 
5 1.994609 69.409912 2.767211 0.102231 0.969235 0.223901 0.021640 -0.024390 1 5 1.000000 
5 2.682619 69.356712 -0.977578 0.717655 0.695335 0.038480 0.038590 -0.083330 1 5 1.000000 
human_commando_body.bmp
5 -3.425690 71.110832 -3.288678 -0.067151 0.996909 -0.040770 0.828210 -0.616200 1 5 1.000000 
5 0.277409 71.451622 2.954182 0.172861 0.946456 0.272652 0.898020 -0.721080 1 5 1.000000 
5 4.745580 69.374832 -1.400227 0.487282 0.873244 -0.000690 0.990150 -0.649560 1 5 1.000000 
human_commando_body.bmp
5 -3.071141 69.787300 4.935172 -0.125301 0.853714 0.505442 0.839230 -0.760610 1 5 1.000000 
5 0.277409 71.451622 2.954182 0.172861 0.946456 0.272652 0.898020 -0.721080 1 5 1.000000 
5 -3.425690 71.110832 -3.288678 -0.067151 0.996909 -0.040770 0.828210 -0.616200 1 5 1.000000 
human_commando_body.bmp
5 3.231199 68.751411 4.715172 0.381603 0.760286 0.525684 0.963160 -0.756780 1 5 1.000000 
5 0.277409 71.451622 2.954182 0.172861 0.946456 0.272652 0.898020 -0.721080 1 5 1.000000 
5 -3.071141 69.787300 4.935172 -0.125301 0.853714 0.505442 0.839230 -0.760610 1 5 1.000000 
human_commando_body.bmp
5 4.745580 69.374832 -1.400227 0.487282 0.873244 -0.000690 0.990150 -0.649560 1 5 1.000000 
5 0.277409 71.451622 2.954182 0.172861 0.946456 0.272652 0.898020 -0.721080 1 5 1.000000 
5 3.231199 68.751411 4.715172 0.381603 0.760286 0.525684 0.963160 -0.756780 1 5 1.000000 
end
