version 1
nodes
  0 "Root" -1
  1 "Ab1" 0
  2 "Ab2" 1
  3 "Chest" 2
  4 "Neck" 3
  5 "Head" 4
  6 "RightClavicle" 3
  7 "RightBicep" 6
  8 "RightForearm" 7
  9 "RightHand" 8
  10 "RightKnuckles" 9
  11 "RightIndex1" 10
  12 "RightIndex2" 11
  13 "RightIndex3" 12
  14 "RightMiddleRingPinky1" 10
  15 "RightMiddleRingPinky2" 14
  16 "RightMiddleRingPinky3" 15
  17 "RightThumb1" 9
  18 "RightThumb2" 17
  19 "RightThumb3" 18
  20 "w_combat_plasmarifle" 9
  21 "RightWrist_helper" 8
  22 "RightShoulder_helper" 7
  23 "Grenade2" 3
  24 "Grenade3" 3
  25 "LeftClavicle" 3
  26 "LeftBicep" 25
  27 "LeftForearm" 26
  28 "LeftHand" 27
  29 "LeftKnuckles" 28
  30 "LeftIndex1" 29
  31 "LeftIndex2" 30
  32 "LeftIndex3" 31
  33 "LeftMiddleRingPinky1" 29
  34 "LeftMiddleRingPinky2" 33
  35 "LeftMiddleRingPinky3" 34
  36 "LeftThumb1" 28
  37 "LeftThumb2" 36
  38 "LeftThumb3" 37
  39 "LeftWrist_helper" 27
  40 "w_combat_shield" 27
  41 "LeftShoulder_helper" 26
  42 "Grenade1" 2
  43 "Hips" 0
  44 "RightThigh" 43
  45 "RightCalf" 44
  46 "RightFoot" 45
  47 "RightToe" 46
  48 "RightKnee_Helper" 44
  49 "RightHip_Helper" 44
  50 "RightThigh_helper" 44
  51 "SideArm" 43
  52 "Pouch" 43
  53 "LeftThigh" 43
  54 "LeftCalf" 53
  55 "LeftFoot" 54
  56 "LeftToe" 55
  57 "LeftKnee_Helper" 53
  58 "LeftHip_Helper" 53
  59 "LeftThigh_helper" 53
  60 "Front_Coat" 43
  61 "RightFrontCoat1" 60
  62 "RightFrontCoat2" 61
  63 "LeftFrontCoat1" 60
  64 "LeftFrontCoat2" 63
  65 "Rear_Coat" 43
  66 "LeftRearCoat1" 65
  67 "LeftRearCoat2" 66
  68 "RightRearCoat1" 65
  69 "RightRearCoat2" 68
  70 "Helmet" 5
  71 "Human_Commando_Mesh01" -1
  72 "Human_Commando_HeadHelmet01" -1
  73 "Human_Commando_HeadNoHelmet01" -1
end
skeleton
time 0
  0   -23.805414 0.002998 53.927425 1.570745 -0.000000 1.570781
  1   -0.000000 0.845698 0.841800 0.000000 -0.068862 1.570799
  2   3.172898 -0.000000 -0.000000 -2.924804 -0.000000 1.570796
  3   0.000000 2.900203 0.000002 -0.767610 -0.000000 -0.000000
  4   -0.000000 11.238503 -0.000002 3.141592 0.694830 1.570796
  5   2.735298 -0.000000 -0.000001 -0.000000 0.866879 0.000000
  6   2.035800 7.890699 -1.483204 -1.764002 -0.407033 -0.363111
  7   8.130150 0.000000 -0.000002 2.479610 0.364121 1.431049
  8   11.348111 -0.000000 -0.000001 -0.000000 1.514014 -0.000000
  9   9.822320 0.000001 0.000002 3.130608 0.028057 1.569013
  10   0.000002 3.212600 0.000001 -0.000000 -0.000000 0.000000
  11   0.074001 1.578000 1.705100 -3.053903 -0.000139 3.000993
  12   2.268899 0.000000 0.000003 0.004231 0.009528 -1.468459
  13   1.655883 0.000001 -0.000001 -3.137495 0.039849 0.102393
  14   -0.029398 1.282699 -0.908299 -3.020024 0.021883 3.098390
  15   2.618276 -0.000001 -0.000001 0.016695 0.004578 -1.468365
  16   1.574229 0.000001 0.000002 -3.135897 0.054674 0.102490
  17   -1.330998 0.879600 2.090300 2.098825 -0.282405 2.098971
  18   2.530888 0.000001 0.000000 0.070529 -0.151326 -0.525155
  19   2.216635 0.000002 0.000000 3.117298 -0.029985 0.680656
  20   1.149843 0.467976 1.424260 0.093462 -0.055675 -2.598461
  21   8.583691 0.000002 -0.013614 3.130608 0.028059 1.569015
  22   2.769699 0.000002 -0.003612 -3.140289 0.163857 1.570797
  23   1.727800 2.258301 -6.608100 3.064540 -0.383290 0.992430
  24   4.471199 6.217802 -5.291701 2.997040 -0.547870 0.970430
  25   -2.035700 7.890702 -1.483199 1.763999 -0.407033 -2.778467
  26   8.130191 -0.000001 -0.000002 -2.486614 0.348412 -1.448681
  27   11.348109 0.000004 -0.000002 0.000000 1.488742 0.000000
  28   9.822317 -0.000003 0.000001 -0.010984 -0.028048 1.572530
  29   -0.000001 -3.212500 -0.000000 -0.000000 -0.000000 0.000000
  30   -0.074099 -1.578100 -1.705102 -0.087560 0.005113 -0.083803
  31   2.268898 -0.000001 -0.000003 -0.004255 0.009768 1.525407
  32   1.655881 -0.000001 -0.000001 0.001811 -0.040017 3.096244
  33   0.029403 -1.282800 0.908300 -0.122200 -0.014956 0.013385
  34   2.618173 -0.000000 0.000001 -0.016754 0.005588 1.525384
  35   1.574232 -0.000000 -0.000003 0.002489 -0.054829 3.096204
  36   1.334401 -0.877500 -2.090502 1.168062 0.224159 -0.965221
  37   2.530889 -0.000003 0.000000 -0.073489 -0.149630 0.549454
  38   2.216536 -0.000000 0.000001 -0.020471 0.032706 2.582265
  39   8.583688 -0.000000 -0.013614 -0.010996 -0.028049 1.572570
  40   -2.371495 -3.379902 -0.244442 -1.490215 0.072055 -3.129191
  41   2.769595 0.000000 -0.003612 0.001304 -0.161394 1.570795
  42   -0.926900 0.405502 -7.070302 2.925700 0.066660 0.626740
  43   0.000000 -0.813199 -0.000000 -0.499617 -0.000000 0.000000
  44   -6.238499 -6.566400 0.776400 -2.832720 -0.906654 3.139953
  45   17.545601 0.000000 -0.000002 0.000000 0.000000 -1.647451
  46   16.647596 0.000001 -0.000002 -0.647757 0.094169 0.995182
  47   7.325600 0.000002 -0.000001 0.000000 -1.570796 -1.169096
  48   17.401464 0.808618 0.000000 0.000000 -1.570796 -2.355352
  49   1.000001 0.000000 -0.000001 3.119152 -0.710784 1.593231
  50   9.894530 0.472671 0.000000 3.119154 -1.175212 1.593227
  51   -6.733300 1.444899 5.282001 0.095000 0.528970 -0.128450
  52   3.912000 -1.063802 7.252800 -0.048110 0.485870 -0.102740
  53   6.238501 -6.566401 0.776402 2.797277 -0.948108 -0.249898
  54   17.545498 -0.000001 0.000000 0.000000 -0.000000 1.274522
  55   16.647600 0.000001 0.000000 0.813978 0.235354 -1.103977
  56   7.325601 -0.000001 0.000001 0.000000 1.570796 1.169096
  57   17.498625 -0.277352 0.000000 0.000000 1.570796 2.168871
  58   0.999997 -0.000003 -0.000002 -0.022440 0.762488 1.548361
  59   9.964845 -0.160161 0.000000 -0.022439 1.188157 1.548365
  60   -0.000000 -1.900202 4.992000 -0.000000 -0.000000 0.000000
  61   -5.791300 0.000202 0.030300 1.599779 -1.180757 -1.659544
  62   10.147000 -0.000001 0.000000 0.000000 -1.570796 -1.709416
  63   5.791300 0.000201 0.030300 -1.599742 -1.180797 -1.482063
  64   10.147001 0.000002 0.000000 0.000000 1.570796 1.709416
  65   0.000000 -1.648800 -1.744700 -0.000000 -0.000000 0.000000
  66   5.627000 -3.522952 -2.943943 0.046711 -1.018477 -1.493867
  67   12.354201 0.000001 0.000001 -0.897138 -0.000000 1.570796
  68   -5.627000 -3.522952 -2.943943 -1.617488 -1.018489 -1.647718
  69   12.354101 0.000001 0.000000 0.000000 -1.570796 -2.467918
  70   3.372658 0.000000 -0.000001 -0.447687 0.000002 -1.570797
  71   0.000000 0.000000 0.000000 0.000000 -0.000000 0.000000
  72   0.000000 0.000000 0.000000 0.000000 -0.000000 0.000000
  73   0.000000 0.000000 0.000000 0.000000 -0.000000 0.000000
time 1
  0   -23.805414 0.002997 53.927425 1.570746 -0.000000 1.570782
  1   -0.000000 0.845698 0.841800 0.000000 -0.068862 1.570799
  2   3.172898 -0.000000 -0.000000 -2.924804 -0.000000 1.570796
  3   0.000000 2.900203 0.000002 -0.767610 -0.000000 -0.000000
  4   -0.000000 11.238503 -0.000002 3.141592 0.694830 1.570796
  5   2.735298 -0.000000 -0.000001 -0.000000 0.866879 0.000000
  6   2.035800 7.890699 -1.483204 -1.764002 -0.407033 -0.363111
  7   8.130150 0.000000 -0.000002 2.479610 0.364121 1.431049
  8   11.348111 -0.000000 -0.000001 -0.000000 1.514014 -0.000000
  9   9.822320 0.000001 0.000002 3.130608 0.028057 1.569013
  10   0.000002 3.212600 0.000001 -0.000000 -0.000000 0.000000
  11   0.074001 1.578000 1.705100 -3.053903 -0.000139 3.000993
  12   2.268899 0.000000 0.000003 0.004231 0.009528 -1.468459
  13   1.655883 0.000001 -0.000001 -3.137495 0.039849 0.102393
  14   -0.029398 1.282699 -0.908299 -3.020024 0.021883 3.098390
  15   2.618276 -0.000001 -0.000001 0.016695 0.004578 -1.468365
  16   1.574229 0.000001 0.000002 -3.135897 0.054674 0.102490
  17   -1.330998 0.879600 2.090300 2.098825 -0.282405 2.098971
  18   2.530888 0.000001 0.000000 0.070529 -0.151326 -0.525155
  19   2.216635 0.000002 0.000000 3.117298 -0.029985 0.680656
  20   1.149843 0.467976 1.424260 0.093462 -0.055675 -2.598461
  21   8.583691 0.000002 -0.013614 3.130608 0.028059 1.569015
  22   2.769699 0.000002 -0.003612 -3.140289 0.163857 1.570797
  23   1.727800 2.258301 -6.608100 3.064540 -0.383290 0.992430
  24   4.471199 6.217802 -5.291701 2.997040 -0.547870 0.970430
  25   -2.035700 7.890702 -1.483199 1.763999 -0.407033 -2.778467
  26   8.130191 -0.000001 -0.000002 -2.486614 0.348412 -1.448681
  27   11.348109 0.000004 -0.000002 0.000000 1.488742 0.000000
  28   9.822317 -0.000003 0.000001 -0.010984 -0.028048 1.572530
  29   -0.000001 -3.212500 -0.000000 -0.000000 -0.000000 0.000000
  30   -0.074099 -1.578100 -1.705102 -0.087560 0.005113 -0.083803
  31   2.268898 -0.000001 -0.000003 -0.004255 0.009768 1.525407
  32   1.655881 -0.000001 -0.000001 0.001811 -0.040017 3.096244
  33   0.029403 -1.282800 0.908300 -0.122200 -0.014956 0.013385
  34   2.618173 -0.000000 0.000001 -0.016754 0.005588 1.525384
  35   1.574232 -0.000000 -0.000003 0.002489 -0.054829 3.096204
  36   1.334401 -0.877500 -2.090502 1.168063 0.224159 -0.965221
  37   2.530889 -0.000003 0.000000 -0.073489 -0.149630 0.549454
  38   2.216536 -0.000000 0.000001 -0.020471 0.032706 2.582265
  39   8.583688 -0.000000 -0.013614 -0.010996 -0.028049 1.572570
  40   -2.371495 -3.379902 -0.244442 -1.490215 0.072055 -3.129191
  41   2.769595 0.000000 -0.003612 0.001304 -0.161394 1.570796
  42   -0.926900 0.405502 -7.070302 2.925700 0.066660 0.626740
  43   0.000000 -0.813199 -0.000000 -0.499617 0.000000 0.000000
  44   -6.238499 -6.566400 0.776400 -2.832720 -0.906654 3.139953
  45   17.545601 0.000000 -0.000002 0.000000 0.000000 -1.647451
  46   16.647596 0.000001 -0.000002 -0.647757 0.094169 0.995182
  47   7.325600 0.000002 -0.000001 0.000000 -1.570796 -1.169096
  48   17.401464 0.808618 0.000000 0.000000 -1.570796 -2.355352
  49   1.000001 0.000000 -0.000001 3.119152 -0.710784 1.593232
  50   9.894530 0.472671 0.000000 3.119154 -1.175212 1.593228
  51   -6.733300 1.444899 5.282001 0.095000 0.528970 -0.128450
  52   3.912000 -1.063802 7.252800 -0.048110 0.485870 -0.102740
  53   6.238501 -6.566401 0.776402 2.797277 -0.948108 -0.249898
  54   17.545498 -0.000001 0.000000 0.000000 -0.000000 1.274522
  55   16.647600 0.000001 0.000000 0.813978 0.235354 -1.103977
  56   7.325601 -0.000001 0.000001 0.000000 1.570796 1.169096
  57   17.498625 -0.277352 0.000000 0.000000 1.570796 2.168871
  58   0.999997 -0.000003 -0.000002 -0.022440 0.762488 1.548361
  59   9.964845 -0.160161 0.000000 -0.022439 1.188157 1.548365
  60   -0.000000 -1.900202 4.992000 -0.000000 -0.000000 0.000000
  61   -5.791300 0.000202 0.030300 1.599779 -1.180757 -1.659544
  62   10.147000 -0.000001 0.000000 0.000000 -1.570796 -1.709416
  63   5.791300 0.000201 0.030300 -1.599743 -1.180797 -1.482063
  64   10.147001 0.000002 0.000000 0.000000 1.570796 1.709416
  65   0.000000 -1.648800 -1.744700 -0.000000 -0.000000 0.000000
  66   5.627000 -3.522952 -2.943943 0.046711 -1.018477 -1.493867
  67   12.354201 0.000001 0.000001 -0.897138 -0.000000 1.570796
  68   -5.627000 -3.522952 -2.943943 -1.617488 -1.018489 -1.647718
  69   12.354101 0.000001 0.000000 0.000000 -1.570796 -2.467918
  70   3.372658 0.000000 -0.000001 -0.447687 0.000002 -1.570797
  71   0.000000 0.000000 0.000000 0.000000 -0.000000 0.000000
  72   0.000000 0.000000 0.000000 0.000000 -0.000000 0.000000
  73   0.000000 0.000000 0.000000 0.000000 -0.000000 0.000000
end
