version 1
nodes
  0 "Root" -1
  1 "Ab1" 0
  2 "Ab2" 1
  3 "Chest" 2
  4 "Neck" 3
  5 "Head" 4
  6 "RightClavicle" 3
  7 "RightBicep" 6
  8 "RightForearm" 7
  9 "RightHand" 8
  10 "RightKnuckles" 9
  11 "RightIndex1" 10
  12 "RightIndex2" 11
  13 "RightIndex3" 12
  14 "RightMiddleRingPinky1" 10
  15 "RightMiddleRingPinky2" 14
  16 "RightMiddleRingPinky3" 15
  17 "RightThumb1" 9
  18 "RightThumb2" 17
  19 "RightThumb3" 18
  20 "w_combat_plasmarifle" 9
  21 "RightWrist_helper" 8
  22 "RightShoulder_helper" 7
  23 "Grenade2" 3
  24 "Grenade3" 3
  25 "LeftClavicle" 3
  26 "LeftBicep" 25
  27 "LeftForearm" 26
  28 "LeftHand" 27
  29 "LeftKnuckles" 28
  30 "LeftIndex1" 29
  31 "LeftIndex2" 30
  32 "LeftIndex3" 31
  33 "LeftMiddleRingPinky1" 29
  34 "LeftMiddleRingPinky2" 33
  35 "LeftMiddleRingPinky3" 34
  36 "LeftThumb1" 28
  37 "LeftThumb2" 36
  38 "LeftThumb3" 37
  39 "LeftWrist_helper" 27
  40 "w_combat_shield" 27
  41 "LeftShoulder_helper" 26
  42 "Grenade1" 2
  43 "Hips" 0
  44 "RightThigh" 43
  45 "RightCalf" 44
  46 "RightFoot" 45
  47 "RightToe" 46
  48 "RightKnee_Helper" 44
  49 "RightHip_Helper" 44
  50 "RightThigh_helper" 44
  51 "SideArm" 43
  52 "Pouch" 43
  53 "LeftThigh" 43
  54 "LeftCalf" 53
  55 "LeftFoot" 54
  56 "LeftToe" 55
  57 "LeftKnee_Helper" 53
  58 "LeftHip_Helper" 53
  59 "LeftThigh_helper" 53
  60 "Front_Coat" 43
  61 "RightFrontCoat1" 60
  62 "RightFrontCoat2" 61
  63 "LeftFrontCoat1" 60
  64 "LeftFrontCoat2" 63
  65 "Rear_Coat" 43
  66 "LeftRearCoat1" 65
  67 "LeftRearCoat2" 66
  68 "RightRearCoat1" 65
  69 "RightRearCoat2" 68
  70 "Helmet" 5
  71 "Human_Commando_Mesh01" -1
  72 "Human_Commando_HeadHelmet01" -1
  73 "Human_Commando_HeadNoHelmet01" -1
end
skeleton
time 0
  0   0.000000 0.002998 46.798302 1.570745 -0.000000 1.570781
  1   -0.000000 0.845699 0.841800 0.000000 -0.068862 1.570799
  2   3.172899 -0.000000 0.000001 -2.727182 -0.000000 1.570796
  3   0.000000 2.900202 -0.000001 -0.150060 0.000000 0.000000
  4   0.000000 11.238497 -0.000001 3.141592 0.694830 1.570796
  5   2.735299 0.000000 0.000001 -0.000000 0.051676 0.000000
  6   2.035800 7.890696 -1.483200 -1.764002 -0.407033 -0.363111
  7   8.130150 0.000000 0.000001 1.571607 0.592041 0.331018
  8   11.348110 0.000003 -0.000000 -0.000000 0.119709 0.000000
  9   9.822318 0.000002 0.000000 3.130608 0.000000 1.570796
  10   0.000001 3.212601 -0.000000 -0.000000 -0.000000 0.000000
  11   0.074003 1.578002 1.705100 -3.099025 0.076790 1.935308
  12   2.268900 -0.000001 0.000000 0.001654 0.006028 -0.401128
  13   1.655884 -0.000000 0.000000 -3.104650 0.015640 1.169948
  14   -0.029399 1.282699 -0.908300 -3.095430 0.120960 2.032224
  15   2.618274 -0.000001 0.000000 0.009240 -0.007718 -0.584084
  16   1.574230 0.000001 0.000000 -3.090964 0.021440 1.170188
  17   -1.330999 0.879600 2.090300 2.184684 -0.188542 1.963215
  18   2.530888 -0.000001 0.000001 0.003464 -0.261237 -0.170046
  19   2.216635 0.000003 0.000000 3.104325 -0.010307 1.300145
  20   -0.900999 3.303999 -1.986000 1.707120 -0.059210 -3.122480
  21   8.583690 0.000001 -0.013616 3.130608 0.000000 1.570796
  22   2.769701 0.000003 -0.003612 -3.140289 0.000800 1.570797
  23   1.727800 2.258297 -6.608099 3.064540 -0.383290 0.992430
  24   4.471199 6.217797 -5.291699 2.997040 -0.547870 0.970430
  25   -2.035700 7.890697 -1.483200 1.763999 -0.407033 -2.778467
  26   8.130192 0.000000 0.000001 -1.571607 0.592029 -0.331016
  27   11.348110 0.000003 -0.000000 0.000000 0.119709 0.000000
  28   9.822317 -0.000002 -0.000000 -0.010984 0.000000 1.570796
  29   -0.000001 -3.212501 0.000000 0.000000 0.000000 0.000000
  30   -0.074100 -1.578100 -1.705101 -0.040257 -0.078048 -1.236621
  31   2.268897 0.000002 -0.000000 -0.001546 0.005980 0.370834
  32   1.655882 -0.000002 -0.000000 0.037345 -0.014501 1.941396
  33   0.029401 -1.282799 0.908300 -0.042778 -0.122302 -1.139828
  34   2.618173 0.000001 -0.000000 -0.009108 -0.007750 0.574167
  35   1.574230 0.000002 0.000000 0.051170 -0.019870 1.941141
  36   1.334401 -0.877498 -2.090500 1.015356 0.207009 -1.287839
  37   2.530891 0.000000 -0.000000 -0.020554 -0.168589 0.146727
  38   2.216536 -0.000000 0.000001 -0.037932 0.007143 1.756935
  39   8.583686 -0.000003 -0.013616 -0.010984 0.000000 1.570796
  40   -2.371497 -3.379997 -0.244244 -1.490215 0.072044 -3.129191
  41   2.769597 -0.000000 -0.003612 0.001304 -0.000800 1.570795
  42   -0.926900 0.405501 -7.070302 2.925700 0.066660 0.626740
  43   -0.000000 -0.813202 0.000000 0.000000 0.000000 -0.000000
  44   -6.238500 -6.566399 0.776400 1.811635 -0.007548 -1.634182
  45   17.545601 -0.000000 0.000000 0.000000 0.000000 -0.095463
  46   16.647602 0.000000 0.000000 -0.000000 -0.000000 1.283203
  47   7.325598 -0.000001 0.000000 0.000000 -1.570796 -1.169096
  48   17.546000 -0.000000 -0.000000 0.000000 -1.570796 -1.548356
  49   0.999999 0.000000 0.000000 3.119152 -1.087945 1.593231
  50   10.000000 0.000000 -0.000000 3.119154 -1.269498 1.593228
  51   -6.733300 1.444901 5.282000 0.095000 0.528970 -0.128450
  52   3.912000 -1.063800 7.252800 -0.048110 0.485870 -0.102740
  53   6.238500 -6.566399 0.776400 -1.811635 -0.007523 -1.507385
  54   17.545502 0.000000 0.000000 0.000000 -0.000000 0.095462
  55   16.647602 0.000000 0.000000 -0.000000 -0.000000 -1.283214
  56   7.325598 0.000000 0.000000 0.000000 1.570796 1.169096
  57   17.545502 0.000000 -0.000000 0.000000 1.570796 1.548356
  58   1.000002 0.000000 -0.000001 -0.022440 1.087945 1.548361
  59   10.000002 -0.000000 0.000000 -0.022439 1.269498 1.548365
  60   -0.000000 -1.900200 4.992000 0.000000 0.000000 -0.000000
  61   -5.791300 0.000199 0.030200 1.582000 -0.176129 -1.634682
  62   10.146999 0.000001 -0.000000 0.000000 -1.570796 -1.709416
  63   5.791300 0.000099 0.030200 -1.582000 -0.176142 -1.506910
  64   10.147000 -0.000000 0.000001 0.000000 1.570796 1.709416
  65   0.000000 -1.648800 -1.744700 0.000000 0.000000 -0.000000
  66   5.626999 0.067001 0.087401 0.024827 0.162481 -1.450099
  67   12.354203 0.000001 -0.000000 -0.214390 -0.000000 1.570796
  68   -5.626999 0.067001 0.087400 -1.595623 0.162493 -1.691494
  69   12.354097 -0.000000 -0.000001 0.000000 -1.570796 -1.785186
  70   3.372657 0.000000 0.000001 -0.447687 0.000002 -1.570797
  71   0.000000 0.000000 0.000000 0.000000 -0.000000 0.000000
  72   0.000000 0.000000 0.000000 0.000000 -0.000000 0.000000
  73   0.000000 0.000000 0.000000 0.000000 -0.000000 0.000000
time 1
  0   0.000000 0.002997 46.798302 1.570746 -0.000000 1.570782
  1   -0.000000 0.845699 0.841800 0.000000 -0.068862 1.570799
  2   3.172899 -0.000000 0.000001 -2.727182 -0.000000 1.570796
  3   0.000000 2.900202 -0.000001 -0.150060 0.000000 0.000000
  4   0.000000 11.238497 -0.000001 3.141592 0.694830 1.570796
  5   2.735299 0.000000 0.000001 -0.000000 0.051676 0.000000
  6   2.035800 7.890696 -1.483200 -1.764002 -0.407033 -0.363111
  7   8.130150 0.000000 0.000001 1.571607 0.592041 0.331018
  8   11.348110 0.000003 -0.000000 -0.000000 0.119709 0.000000
  9   9.822318 0.000002 0.000000 3.130608 0.000000 1.570796
  10   0.000001 3.212601 -0.000000 -0.000000 -0.000000 0.000000
  11   0.074003 1.578002 1.705100 -3.099025 0.076790 1.935308
  12   2.268900 -0.000001 0.000000 0.001654 0.006028 -0.401128
  13   1.655884 -0.000000 0.000000 -3.104650 0.015640 1.169948
  14   -0.029399 1.282699 -0.908300 -3.095430 0.120960 2.032224
  15   2.618274 -0.000001 0.000000 0.009240 -0.007718 -0.584084
  16   1.574230 0.000001 0.000000 -3.090964 0.021440 1.170188
  17   -1.330999 0.879600 2.090300 2.184684 -0.188542 1.963215
  18   2.530888 -0.000001 0.000001 0.003464 -0.261237 -0.170046
  19   2.216635 0.000003 0.000000 3.104325 -0.010307 1.300145
  20   -0.900999 3.303999 -1.986000 1.707120 -0.059210 -3.122480
  21   8.583690 0.000001 -0.013616 3.130608 0.000000 1.570796
  22   2.769701 0.000003 -0.003612 -3.140289 0.000800 1.570797
  23   1.727800 2.258297 -6.608099 3.064540 -0.383290 0.992430
  24   4.471199 6.217797 -5.291699 2.997040 -0.547870 0.970430
  25   -2.035700 7.890697 -1.483200 1.763999 -0.407033 -2.778467
  26   8.130192 0.000000 0.000001 -1.571607 0.592029 -0.331016
  27   11.348110 0.000003 -0.000000 0.000000 0.119709 0.000000
  28   9.822317 -0.000002 -0.000000 -0.010984 0.000000 1.570796
  29   -0.000001 -3.212501 0.000000 0.000000 0.000000 0.000000
  30   -0.074100 -1.578100 -1.705101 -0.040257 -0.078048 -1.236621
  31   2.268897 0.000002 -0.000000 -0.001546 0.005980 0.370834
  32   1.655882 -0.000002 -0.000000 0.037345 -0.014501 1.941396
  33   0.029401 -1.282799 0.908300 -0.042778 -0.122302 -1.139828
  34   2.618173 0.000001 -0.000000 -0.009108 -0.007750 0.574167
  35   1.574230 0.000002 0.000000 0.051170 -0.019870 1.941141
  36   1.334401 -0.877498 -2.090500 1.015356 0.207009 -1.287839
  37   2.530891 0.000000 -0.000000 -0.020554 -0.168589 0.146727
  38   2.216536 -0.000000 0.000001 -0.037932 0.007143 1.756935
  39   8.583686 -0.000003 -0.013616 -0.010984 0.000000 1.570796
  40   -2.371497 -3.379997 -0.244244 -1.490215 0.072044 -3.129191
  41   2.769597 -0.000000 -0.003612 0.001304 -0.000800 1.570795
  42   -0.926900 0.405501 -7.070302 2.925700 0.066660 0.626740
  43   -0.000000 -0.813202 0.000000 0.000000 0.000000 -0.000000
  44   -6.238500 -6.566399 0.776400 1.811635 -0.007548 -1.634182
  45   17.545601 -0.000000 0.000000 0.000000 0.000000 -0.095463
  46   16.647602 0.000000 0.000000 -0.000000 -0.000000 1.283203
  47   7.325598 -0.000001 0.000000 0.000000 -1.570796 -1.169096
  48   17.546000 -0.000000 -0.000000 0.000000 -1.570796 -1.548356
  49   0.999999 0.000000 0.000000 3.119152 -1.087945 1.593231
  50   10.000000 0.000000 -0.000000 3.119154 -1.269498 1.593228
  51   -6.733300 1.444901 5.282000 0.095000 0.528970 -0.128450
  52   3.912000 -1.063800 7.252800 -0.048110 0.485870 -0.102740
  53   6.238500 -6.566399 0.776400 -1.811635 -0.007523 -1.507385
  54   17.545502 0.000000 0.000000 0.000000 -0.000000 0.095462
  55   16.647602 0.000000 0.000000 -0.000000 -0.000000 -1.283214
  56   7.325598 0.000000 0.000000 0.000000 1.570796 1.169096
  57   17.545502 0.000000 -0.000000 0.000000 1.570796 1.548356
  58   1.000002 0.000000 -0.000001 -0.022440 1.087945 1.548361
  59   10.000002 -0.000000 0.000000 -0.022439 1.269498 1.548365
  60   -0.000000 -1.900200 4.992000 0.000000 0.000000 -0.000000
  61   -5.791300 0.000199 0.030200 1.582000 -0.176129 -1.634682
  62   10.146999 0.000001 -0.000000 0.000000 -1.570796 -1.709416
  63   5.791300 0.000099 0.030200 -1.582000 -0.176142 -1.506910
  64   10.147000 -0.000000 0.000001 0.000000 1.570796 1.709416
  65   0.000000 -1.648800 -1.744700 0.000000 0.000000 -0.000000
  66   5.626999 0.067001 0.087401 0.024827 0.162481 -1.450099
  67   12.354203 0.000001 -0.000000 -0.214390 -0.000000 1.570796
  68   -5.626999 0.067001 0.087400 -1.595623 0.162493 -1.691494
  69   12.354097 -0.000000 -0.000001 0.000000 -1.570796 -1.785186
  70   3.372657 0.000000 0.000001 -0.447687 0.000002 -1.570797
  71   0.000000 0.000000 0.000000 0.000000 -0.000000 0.000000
  72   0.000000 0.000000 0.000000 0.000000 -0.000000 0.000000
  73   0.000000 0.000000 0.000000 0.000000 -0.000000 0.000000
end
