version 1
nodes
  0 "Root" -1
  1 "Ab1" 0
  2 "Ab2" 1
  3 "Chest" 2
  4 "Neck" 3
  5 "Head" 4
  6 "RightClavicle" 3
  7 "RightBicep" 6
  8 "RightForearm" 7
  9 "RightHand" 8
  10 "RightKnuckles" 9
  11 "RightIndex1" 10
  12 "RightIndex2" 11
  13 "RightIndex3" 12
  14 "RightMiddleRingPinky1" 10
  15 "RightMiddleRingPinky2" 14
  16 "RightMiddleRingPinky3" 15
  17 "RightThumb1" 9
  18 "RightThumb2" 17
  19 "RightThumb3" 18
  20 "w_combat_plasmarifle" 9
  21 "RightWrist_helper" 8
  22 "RightShoulder_helper" 7
  23 "Grenade2" 3
  24 "Grenade3" 3
  25 "LeftClavicle" 3
  26 "LeftBicep" 25
  27 "LeftForearm" 26
  28 "LeftHand" 27
  29 "LeftKnuckles" 28
  30 "LeftIndex1" 29
  31 "LeftIndex2" 30
  32 "LeftIndex3" 31
  33 "LeftMiddleRingPinky1" 29
  34 "LeftMiddleRingPinky2" 33
  35 "LeftMiddleRingPinky3" 34
  36 "LeftThumb1" 28
  37 "LeftThumb2" 36
  38 "LeftThumb3" 37
  39 "LeftWrist_helper" 27
  40 "w_combat_shield" 27
  41 "LeftShoulder_helper" 26
  42 "Grenade1" 2
  43 "Hips" 0
  44 "RightThigh" 43
  45 "RightCalf" 44
  46 "RightFoot" 45
  47 "RightToe" 46
  48 "RightKnee_Helper" 44
  49 "RightHip_Helper" 44
  50 "RightThigh_helper" 44
  51 "SideArm" 43
  52 "Pouch" 43
  53 "LeftThigh" 43
  54 "LeftCalf" 53
  55 "LeftFoot" 54
  56 "LeftToe" 55
  57 "LeftKnee_Helper" 53
  58 "LeftHip_Helper" 53
  59 "LeftThigh_helper" 53
  60 "Front_Coat" 43
  61 "RightFrontCoat1" 60
  62 "RightFrontCoat2" 61
  63 "LeftFrontCoat1" 60
  64 "LeftFrontCoat2" 63
  65 "Rear_Coat" 43
  66 "LeftRearCoat1" 65
  67 "LeftRearCoat2" 66
  68 "RightRearCoat1" 65
  69 "RightRearCoat2" 68
  70 "Helmet" 5
  71 "Human_Commando_Mesh01" -1
  72 "Human_Commando_HeadHelmet01" -1
  73 "Human_Commando_HeadNoHelmet01" -1
end
skeleton
time 0
  0 0.000000 46.801300 0.000000 0.000000 0.000000 0.000000
  1 0.000000 0.845699 0.841800 -0.000000 -0.068862 1.570799
  2 3.172900 -0.000000 0.000000 -2.727183 0.000000 1.570796
  3 -0.000000 2.900200 -0.000001 -0.150060 -0.000000 -0.000000
  4 0.000000 11.238498 0.000000 -3.141593 0.694830 1.570796
  5 2.735302 -0.000000 0.000000 -0.000000 0.051676 0.000000
  6 2.035800 7.890696 -1.483199 -1.764002 -0.407033 -0.363111
  7 8.130150 -0.000000 0.000001 1.571607 0.592041 0.331018
  8 11.348110 0.000002 0.000000 -0.000000 0.119709 -0.000000
  9 9.822318 -0.000000 0.000000 3.130608 0.000000 1.570796
  10 -0.000001 3.212601 -0.000000 -0.000000 0.000000 0.000000
  11 0.074000 1.578002 1.705100 -3.132388 0.087325 1.532939
  12 2.268902 -0.000000 0.000000 -0.000000 0.005693 0.000000
  13 1.655882 0.000001 -0.000000 -3.101527 -0.000000 1.570796
  14 -0.029400 1.282700 -0.908300 3.139656 0.129972 1.627965
  15 2.618275 0.000001 -0.000000 0.000000 -0.010499 -0.000001
  16 1.574231 -0.000001 0.000000 -3.086632 0.000000 1.570797
  17 -1.331001 0.879601 2.090300 2.187756 -0.343107 1.653701
  18 2.530889 0.000001 -0.000001 0.000000 -0.170046 -0.000001
  19 2.216637 -0.000000 0.000001 3.102999 -0.000000 1.570797
  20 -0.901001 3.304000 -1.986000 1.707120 -0.059210 -3.122480
  21 8.583691 -0.000000 -0.013615 3.130608 0.000000 1.570796
  22 2.769701 0.000001 -0.003612 -3.140289 0.000800 1.570797
  23 1.727800 2.258297 -6.608099 3.064540 -0.383290 0.992430
  24 4.471200 6.217797 -5.291699 2.997040 -0.547870 0.970430
  25 -2.035700 7.890697 -1.483200 1.763999 -0.407033 -2.778468
  26 8.130191 0.000000 0.000001 -1.571607 0.592029 -0.331016
  27 11.348108 0.000001 -0.000000 0.000000 0.119709 0.000000
  28 9.822319 0.000002 -0.000000 -0.010984 0.000000 1.570796
  29 -0.000002 -3.212499 0.000000 0.000000 0.000000 0.000000
  30 -0.074101 -1.578098 -1.705100 -0.009205 -0.087324 -1.608653
  31 2.268899 0.000001 -0.000000 0.000000 0.005693 -0.000000
  32 1.655882 -0.000000 0.000000 0.040065 0.000000 1.570796
  33 0.029398 -1.282799 0.908300 0.001936 -0.129972 -1.513627
  34 2.618173 -0.000001 -0.000000 0.000000 -0.010435 -0.000000
  35 1.574233 -0.000002 0.000000 0.054898 -0.000000 1.570796
  36 1.334398 -0.877497 -2.090500 0.953848 0.343130 -1.487858
  37 2.530890 -0.000000 0.000001 0.000000 -0.170087 0.000000
  38 2.216537 0.000000 0.000000 -0.038592 0.000000 1.570796
  39 8.583689 0.000000 -0.013616 -0.010984 0.000000 1.570796
  40 -2.371497 -3.379999 -0.244244 -1.490215 0.072044 -3.129191
  41 2.769597 0.000000 -0.003612 0.001304 -0.000800 1.570795
  42 -0.926900 0.405499 -7.070301 2.925700 0.066660 0.626740
  43 0.000000 -0.813202 0.000000 0.000000 -0.000000 0.000000
  44 -6.238500 -6.566399 0.776400 1.811635 0.021793 -1.627007
  45 17.545603 0.000000 0.000000 0.000000 0.000000 -0.033410
  46 16.647600 -0.000000 -0.000000 -0.000000 -0.000000 1.251350
  47 7.325600 0.000000 0.000000 0.000000 -1.570796 -1.169096
  48 17.546000 0.000000 0.000000 0.000000 -1.570796 -1.548356
  49 1.000001 0.000000 0.000000 3.119153 -1.087945 1.593232
  50 10.000002 -0.000000 0.000000 3.119154 -1.269498 1.593228
  51 -6.733300 1.444901 5.282000 0.095000 0.528970 -0.128450
  52 3.912000 -1.063801 7.252800 -0.048110 0.485870 -0.102740
  53 6.238500 -6.566399 0.776400 -1.811635 0.021805 -1.514589
  54 17.545502 -0.000000 0.000000 0.000000 -0.000000 0.033410
  55 16.647600 0.000000 -0.000000 -0.000000 -0.000000 -1.251350
  56 7.325600 0.000000 -0.000000 0.000000 1.570796 1.169096
  57 17.545502 -0.000000 0.000000 0.000000 1.570796 1.548356
  58 1.000002 0.000000 0.000000 -0.022440 1.087945 1.548361
  59 10.000002 -0.000000 0.000000 -0.022439 1.269498 1.548365
  60 0.000000 -1.900200 4.992000 0.000000 -0.000000 0.000000
  61 -5.791300 0.000198 0.030200 1.582000 -0.176129 -1.634682
  62 10.146999 0.000000 0.000000 0.000000 -1.570796 -1.709416
  63 5.791300 0.000099 0.030200 -1.582000 -0.176142 -1.506910
  64 10.146998 0.000001 -0.000000 0.000000 1.570796 1.709416
  65 0.000000 -1.648800 -1.744700 0.000000 -0.000000 0.000000
  66 5.627000 0.067001 0.087400 0.024827 0.162481 -1.450099
  67 12.354199 0.000000 -0.000000 -0.214390 -0.000000 1.570796
  68 -5.627000 0.067001 0.087400 -1.595623 0.162493 -1.691494
  69 12.354100 -0.000000 -0.000000 0.000000 -1.570796 -1.785186
  70 3.372657 -0.000000 0.000000 -0.447687 0.000002 -1.570797
  71 0.000000 0.000000 0.000000 0.000000 0.000000 0.000000
  72 0.000000 0.000000 0.000000 0.000000 0.000000 0.000000
  73 0.000000 0.000000 0.000000 0.000000 0.000000 0.000000
end
triangles
human_commando_headarmslegs.bmp
5 -0.862191 65.373970 3.546380 0.021810 -0.915790 0.401064 0.595830 -0.193220 1 5 1.000000 
5 0.602629 65.542252 3.850981 0.021810 -0.915790 0.401064 0.628470 -0.189080 1 5 1.000000 
5 -0.286091 65.593323 4.015911 0.021810 -0.915790 0.401064 0.608670 -0.187830 1 5 1.000000 
human_commando_headarmslegs.bmp
5 -2.742440 67.393562 -1.583869 -0.902214 0.305491 -0.304441 0.823740 0.446140 1 5 1.000000 
3 -2.768550 66.374580 -2.535579 -0.499314 0.692685 -0.520454 0.796360 0.417780 2 3 0.500000 5 0.500000 
3 -2.971611 65.690620 -1.187510 -0.988373 0.036250 0.147661 0.835150 0.398750 2 3 0.500000 5 0.500000 
human_commando_headarmslegs.bmp
5 -2.721461 66.540138 -0.984769 -0.928228 0.198192 0.314823 0.840980 0.422390 1 5 1.000000 
5 -2.742440 67.393562 -1.583869 -0.902214 0.305491 -0.304441 0.823740 0.446140 1 5 1.000000 
3 -2.971611 65.690620 -1.187510 -0.988373 0.036250 0.147661 0.835150 0.398750 2 3 0.500000 5 0.500000 
human_commando_headarmslegs.bmp
3 -2.768550 66.374580 -2.535579 -0.499314 0.692685 -0.520454 0.796360 0.417780 2 3 0.500000 5 0.500000 
3 -0.000001 66.661697 -3.209099 0.002630 0.915946 0.401293 0.741500 0.425770 2 3 0.500000 5 0.500000 
3 -1.095561 66.660721 -3.160469 0.019570 0.888167 0.459104 0.762180 0.425750 2 3 0.500000 5 0.500000 
human_commando_headarmslegs.bmp
3 -0.000001 66.661697 -3.209099 0.002630 0.915946 0.401293 0.741500 0.425770 2 3 0.500000 5 0.500000 
3 -2.768550 66.374580 -2.535579 -0.499314 0.692685 -0.520454 0.796360 0.417780 2 3 0.500000 5 0.500000 
3 1.095559 66.660721 -3.160469 0.296321 0.632573 -0.715573 0.762180 0.425750 2 3 0.500000 5 0.500000 
human_commando_headarmslegs.bmp
5 -2.742441 67.393547 1.553041 -0.938267 -0.124051 0.322902 0.914010 0.446140 1 5 1.000000 
3 -2.971611 65.690620 -1.187510 -0.988373 0.036250 0.147661 0.835150 0.398750 2 3 0.500000 5 0.500000 
3 -2.586511 65.192810 0.100730 -0.838690 -0.533506 0.109411 0.872220 0.384900 2 3 0.500000 5 0.500000 
human_commando_headarmslegs.bmp
5 2.742439 67.393562 -1.583868 0.858430 0.291043 -0.422365 0.823740 0.446140 1 5 1.000000 
5 2.721459 66.540138 -0.984768 0.928228 0.198192 0.314823 0.840980 0.422390 1 5 1.000000 
3 2.971609 65.690620 -1.187509 0.988373 0.036250 0.147661 0.835150 0.398750 2 3 0.500000 5 0.500000 
human_commando_headarmslegs.bmp
3 2.768549 66.374580 -2.535579 0.782385 0.435693 -0.445023 0.796360 0.417780 2 3 0.500000 5 0.500000 
5 2.742439 67.393562 -1.583868 0.858430 0.291043 -0.422365 0.823740 0.446140 1 5 1.000000 
3 2.971609 65.690620 -1.187509 0.988373 0.036250 0.147661 0.835150 0.398750 2 3 0.500000 5 0.500000 
human_commando_headarmslegs.bmp
3 1.095559 66.660721 -3.160469 0.296321 0.632573 -0.715573 0.762180 0.425750 2 3 0.500000 5 0.500000 
5 2.742439 67.393562 -1.583868 0.858430 0.291043 -0.422365 0.823740 0.446140 1 5 1.000000 
3 2.768549 66.374580 -2.535579 0.782385 0.435693 -0.445023 0.796360 0.417780 2 3 0.500000 5 0.500000 
human_commando_headarmslegs.bmp
3 1.095559 66.660721 -3.160469 0.296321 0.632573 -0.715573 0.762180 0.425750 2 3 0.500000 5 0.500000 
5 1.172859 69.384361 -2.772208 0.335832 -0.007160 -0.941895 0.770110 0.501540 1 5 1.000000 
5 2.742439 67.393562 -1.583868 0.858430 0.291043 -0.422365 0.823740 0.446140 1 5 1.000000 
human_commando_headarmslegs.bmp
3 -2.768550 66.374580 -2.535579 -0.499314 0.692685 -0.520454 0.796360 0.417780 2 3 0.500000 5 0.500000 
5 1.172859 69.384361 -2.772208 0.335832 -0.007160 -0.941895 0.770110 0.501540 1 5 1.000000 
3 1.095559 66.660721 -3.160469 0.296321 0.632573 -0.715573 0.762180 0.425750 2 3 0.500000 5 0.500000 
human_commando_headarmslegs.bmp
5 1.172859 69.384361 -2.772208 0.335832 -0.007160 -0.941895 0.770110 0.501540 1 5 1.000000 
3 -2.768550 66.374580 -2.535579 -0.499314 0.692685 -0.520454 0.796360 0.417780 2 3 0.500000 5 0.500000 
5 -0.000001 69.531570 -2.993908 -0.436751 0.195631 -0.878053 0.770110 0.501540 1 5 1.000000 
human_commando_headarmslegs.bmp
5 -0.000001 69.531570 -2.993908 -0.436751 0.195631 -0.878053 0.770110 0.501540 1 5 1.000000 
3 -2.768550 66.374580 -2.535579 -0.499314 0.692685 -0.520454 0.796360 0.417780 2 3 0.500000 5 0.500000 
5 -2.742440 67.393562 -1.583869 -0.902214 0.305491 -0.304441 0.823740 0.446140 1 5 1.000000 
human_commando_headarmslegs.bmp
5 -2.682621 69.356712 -0.977579 -0.478896 0.752159 -0.452676 0.841190 0.500770 1 5 1.000000 
5 -0.000001 69.531570 -2.993908 -0.436751 0.195631 -0.878053 0.770110 0.501540 1 5 1.000000 
5 -2.742440 67.393562 -1.583869 -0.902214 0.305491 -0.304441 0.823740 0.446140 1 5 1.000000 
human_commando_headarmslegs.bmp
5 1.172859 69.384361 -2.772208 0.335832 -0.007160 -0.941895 0.770110 0.501540 1 5 1.000000 
5 2.682619 69.356712 -0.977578 0.573626 0.760878 -0.303343 0.841190 0.500770 1 5 1.000000 
5 2.742439 67.393562 -1.583868 0.858430 0.291043 -0.422365 0.823740 0.446140 1 5 1.000000 
human_commando_headarmslegs.bmp
5 2.742439 69.301842 0.953941 0.820895 0.489663 0.293872 0.896770 0.499240 1 5 1.000000 
5 2.682619 69.356712 -0.977578 0.573626 0.760878 -0.303343 0.841190 0.500770 1 5 1.000000 
5 1.994609 69.409912 2.767211 0.685766 0.686446 0.241902 0.943840 0.502280 1 5 1.000000 
human_commando_headarmslegs.bmp
5 2.473469 67.778053 2.170791 0.915992 0.027080 0.400281 0.929000 0.456840 1 5 1.000000 
5 2.742439 69.301842 0.953941 0.820895 0.489663 0.293872 0.896770 0.499240 1 5 1.000000 
5 1.994609 69.409912 2.767211 0.685766 0.686446 0.241902 0.943840 0.502280 1 5 1.000000 
human_commando_headarmslegs.bmp
5 2.742439 67.393562 1.553041 0.938267 -0.124051 0.322902 0.914010 0.446140 1 5 1.000000 
5 2.742439 69.301842 0.953941 0.820895 0.489663 0.293872 0.896770 0.499240 1 5 1.000000 
5 2.473469 67.778053 2.170791 0.915992 0.027080 0.400281 0.929000 0.456840 1 5 1.000000 
human_commando_headarmslegs.bmp
5 1.953029 64.760582 2.098411 0.806707 -0.570595 0.153771 0.929710 0.366750 1 5 1.000000 
5 2.742439 67.393562 1.553041 0.938267 -0.124051 0.322902 0.914010 0.446140 1 5 1.000000 
5 2.473469 67.778053 2.170791 0.915992 0.027080 0.400281 0.929000 0.456840 1 5 1.000000 
human_commando_headarmslegs.bmp
3 2.971609 65.690620 -1.187509 0.988373 0.036250 0.147661 0.835150 0.398750 2 3 0.500000 5 0.500000 
5 2.742439 67.393562 1.553041 0.938267 -0.124051 0.322902 0.914010 0.446140 1 5 1.000000 
3 2.586509 65.192810 0.100731 0.835205 -0.549933 0.002410 0.872220 0.384900 2 3 0.500000 5 0.500000 
human_commando_headarmslegs.bmp
3 2.586509 65.192810 0.100731 0.835205 -0.549933 0.002410 0.872220 0.384900 2 3 0.500000 5 0.500000 
5 2.742439 67.393562 1.553041 0.938267 -0.124051 0.322902 0.914010 0.446140 1 5 1.000000 
5 1.953029 64.760582 2.098411 0.806707 -0.570595 0.153771 0.929710 0.366750 1 5 1.000000 
human_commando_headarmslegs.bmp
5 1.953029 64.760582 2.098411 0.806707 -0.570595 0.153771 0.929710 0.366750 1 5 1.000000 
3 -0.006811 63.536961 1.444450 0.212592 -0.969147 -0.124731 0.910890 0.318160 2 3 0.500000 5 0.500000 
3 2.586509 65.192810 0.100731 0.835205 -0.549933 0.002410 0.872220 0.384900 2 3 0.500000 5 0.500000 
human_commando_headarmslegs.bmp
5 1.953029 64.760582 2.098411 0.806707 -0.570595 0.153771 0.929710 0.366750 1 5 1.000000 
5 0.855799 63.724640 3.536000 0.295700 -0.954591 -0.036290 0.972880 0.344050 1 5 1.000000 
3 -0.006811 63.536961 1.444450 0.212592 -0.969147 -0.124731 0.910890 0.318160 2 3 0.500000 5 0.500000 
human_commando_headarmslegs.bmp
5 -0.855801 63.724640 3.536000 -0.380721 -0.923463 -0.047610 0.972880 0.344050 1 5 1.000000 
3 -0.006811 63.536961 1.444450 0.212592 -0.969147 -0.124731 0.910890 0.318160 2 3 0.500000 5 0.500000 
5 0.855799 63.724640 3.536000 0.295700 -0.954591 -0.036290 0.972880 0.344050 1 5 1.000000 
human_commando_headarmslegs.bmp
5 -0.855801 63.724640 3.536000 -0.380721 -0.923463 -0.047610 0.972880 0.344050 1 5 1.000000 
3 -1.699671 64.673988 0.444780 -0.479073 -0.867245 -0.135551 0.882120 0.370460 2 3 0.500000 5 0.500000 
3 -0.006811 63.536961 1.444450 0.212592 -0.969147 -0.124731 0.910890 0.318160 2 3 0.500000 5 0.500000 
human_commando_headarmslegs.bmp
5 -0.855801 63.724640 3.536000 -0.380721 -0.923463 -0.047610 0.972880 0.344050 1 5 1.000000 
3 -2.586511 65.192810 0.100730 -0.838690 -0.533506 0.109411 0.872220 0.384900 2 3 0.500000 5 0.500000 
3 -1.699671 64.673988 0.444780 -0.479073 -0.867245 -0.135551 0.882120 0.370460 2 3 0.500000 5 0.500000 
human_commando_headarmslegs.bmp
5 -0.855801 63.724640 3.536000 -0.380721 -0.923463 -0.047610 0.972880 0.344050 1 5 1.000000 
5 -1.953041 64.760582 2.098410 -0.886435 -0.365162 0.284412 0.929710 0.366750 1 5 1.000000 
3 -2.586511 65.192810 0.100730 -0.838690 -0.533506 0.109411 0.872220 0.384900 2 3 0.500000 5 0.500000 
human_commando_headarmslegs.bmp
5 -2.742441 67.393547 1.553041 -0.938267 -0.124051 0.322902 0.914010 0.446140 1 5 1.000000 
3 -2.586511 65.192810 0.100730 -0.838690 -0.533506 0.109411 0.872220 0.384900 2 3 0.500000 5 0.500000 
5 -1.953041 64.760582 2.098410 -0.886435 -0.365162 0.284412 0.929710 0.366750 1 5 1.000000 
human_commando_headarmslegs.bmp
5 -2.742441 67.393547 1.553041 -0.938267 -0.124051 0.322902 0.914010 0.446140 1 5 1.000000 
5 -1.953041 64.760582 2.098410 -0.886435 -0.365162 0.284412 0.929710 0.366750 1 5 1.000000 
5 -2.473471 67.778061 2.170791 -0.915992 0.027080 0.400281 0.929000 0.456840 1 5 1.000000 
human_commando_headarmslegs.bmp
5 -2.742440 69.301842 0.953941 -0.820895 0.489663 0.293872 0.896770 0.499240 1 5 1.000000 
5 -2.742441 67.393547 1.553041 -0.938267 -0.124051 0.322902 0.914010 0.446140 1 5 1.000000 
5 -2.473471 67.778061 2.170791 -0.915992 0.027080 0.400281 0.929000 0.456840 1 5 1.000000 
human_commando_headarmslegs.bmp
5 -2.742440 69.301842 0.953941 -0.820895 0.489663 0.293872 0.896770 0.499240 1 5 1.000000 
5 -2.473471 67.778061 2.170791 -0.915992 0.027080 0.400281 0.929000 0.456840 1 5 1.000000 
5 -1.994611 69.409912 2.767211 -0.685766 0.686446 0.241902 0.943840 0.502280 1 5 1.000000 
human_commando_headarmslegs.bmp
5 -2.682621 69.356712 -0.977579 -0.478896 0.752159 -0.452676 0.841190 0.500770 1 5 1.000000 
5 -2.742440 69.301842 0.953941 -0.820895 0.489663 0.293872 0.896770 0.499240 1 5 1.000000 
5 -1.994611 69.409912 2.767211 -0.685766 0.686446 0.241902 0.943840 0.502280 1 5 1.000000 
human_commando_headarmslegs.bmp
5 1.953029 64.760582 2.098411 0.869857 -0.044260 0.491314 0.967650 0.075650 1 5 1.000000 
5 2.473469 67.778053 2.170791 0.520005 -0.104731 0.847718 0.993610 0.224470 1 5 1.000000 
5 0.742789 66.836021 3.433110 0.699676 0.005770 0.714436 0.901730 0.181170 1 5 1.000000 
human_commando_headarmslegs.bmp
5 1.564199 65.034630 3.279551 0.738702 0.055520 0.671742 0.935560 0.086730 1 5 1.000000 
5 1.953029 64.760582 2.098411 0.869857 -0.044260 0.491314 0.967650 0.075650 1 5 1.000000 
5 0.742789 66.836021 3.433110 0.699676 0.005770 0.714436 0.901730 0.181170 1 5 1.000000 
human_commando_headarmslegs.bmp
5 0.855799 63.724640 3.536000 0.465124 -0.328553 0.822017 0.901920 0.017380 1 5 1.000000 
5 1.953029 64.760582 2.098411 0.869857 -0.044260 0.491314 0.967650 0.075650 1 5 1.000000 
5 1.564199 65.034630 3.279551 0.738702 0.055520 0.671742 0.935560 0.086730 1 5 1.000000 
human_commando_headarmslegs.bmp
5 0.855799 63.724640 3.536000 0.465124 -0.328553 0.822017 0.901920 0.017380 1 5 1.000000 
5 1.564199 65.034630 3.279551 0.738702 0.055520 0.671742 0.935560 0.086730 1 5 1.000000 
5 -0.278231 64.712349 4.043020 -0.065861 -0.355853 0.932218 0.850750 0.062780 1 5 1.000000 
human_commando_headarmslegs.bmp
5 -0.855801 63.724640 3.536000 -0.511815 -0.358743 0.780608 0.824690 0.017380 1 5 1.000000 
5 0.855799 63.724640 3.536000 0.465124 -0.328553 0.822017 0.901920 0.017380 1 5 1.000000 
5 -0.278231 64.712349 4.043020 -0.065861 -0.355853 0.932218 0.850750 0.062780 1 5 1.000000 
human_commando_headarmslegs.bmp
5 -1.564201 65.034630 3.279550 -0.794486 0.063590 0.603944 0.792720 0.089230 1 5 1.000000 
5 -0.855801 63.724640 3.536000 -0.511815 -0.358743 0.780608 0.824690 0.017380 1 5 1.000000 
5 -0.278231 64.712349 4.043020 -0.065861 -0.355853 0.932218 0.850750 0.062780 1 5 1.000000 
human_commando_headarmslegs.bmp
5 -1.953041 64.760582 2.098410 -0.852696 -0.054250 0.519583 0.758960 0.075650 1 5 1.000000 
5 -0.855801 63.724640 3.536000 -0.511815 -0.358743 0.780608 0.824690 0.017380 1 5 1.000000 
5 -1.564201 65.034630 3.279550 -0.794486 0.063590 0.603944 0.792720 0.089230 1 5 1.000000 
human_commando_headarmslegs.bmp
5 -1.953041 64.760582 2.098410 -0.852696 -0.054250 0.519583 0.758960 0.075650 1 5 1.000000 
5 -1.564201 65.034630 3.279550 -0.794486 0.063590 0.603944 0.792720 0.089230 1 5 1.000000 
5 -0.752801 67.141701 3.243081 -0.730497 0.056121 0.680606 0.822380 0.197150 1 5 1.000000 
human_commando_headarmslegs.bmp
5 -2.473471 67.778061 2.170791 -0.499303 -0.149251 0.853475 0.733000 0.224470 1 5 1.000000 
5 -1.953041 64.760582 2.098410 -0.852696 -0.054250 0.519583 0.758960 0.075650 1 5 1.000000 
5 -0.752801 67.141701 3.243081 -0.730497 0.056121 0.680606 0.822380 0.197150 1 5 1.000000 
human_commando_headarmslegs.bmp
5 -2.473471 67.778061 2.170791 -0.499303 -0.149251 0.853475 0.733000 0.224470 1 5 1.000000 
5 -0.752801 67.141701 3.243081 -0.730497 0.056121 0.680606 0.822380 0.197150 1 5 1.000000 
5 -0.627461 67.806847 3.528171 -0.812150 0.107461 0.573467 0.834990 0.225790 1 5 1.000000 
human_commando_headarmslegs.bmp
5 -2.473471 67.778061 2.170791 -0.499303 -0.149251 0.853475 0.733000 0.224470 1 5 1.000000 
5 -0.627461 67.806847 3.528171 -0.812150 0.107461 0.573467 0.834990 0.225790 1 5 1.000000 
5 -0.875011 68.495132 2.974661 -0.532145 -0.359823 0.766387 0.823820 0.251470 1 5 1.000000 
human_commando_headarmslegs.bmp
5 -0.286091 65.593323 4.015911 0.035540 -0.077651 0.996347 0.850390 0.124050 1 5 1.000000 
5 -0.752801 67.141701 3.243081 -0.730497 0.056121 0.680606 0.822380 0.197150 1 5 1.000000 
5 -1.564201 65.034630 3.279550 -0.794486 0.063590 0.603944 0.792720 0.089230 1 5 1.000000 
human_commando_headarmslegs.bmp
5 -0.862191 65.373970 3.546380 0.138240 0.640572 -0.755352 0.824400 0.113970 1 5 1.000000 
5 -0.286091 65.593323 4.015911 0.035540 -0.077651 0.996347 0.850390 0.124050 1 5 1.000000 
5 -1.564201 65.034630 3.279550 -0.794486 0.063590 0.603944 0.792720 0.089230 1 5 1.000000 
human_commando_headarmslegs.bmp
5 -1.564201 65.034630 3.279550 -0.794486 0.063590 0.603944 0.792720 0.089230 1 5 1.000000 
5 -0.572541 65.634987 3.979520 -0.270091 0.958273 -0.093610 0.837720 0.119710 1 5 1.000000 
5 -0.862191 65.373970 3.546380 0.138240 0.640572 -0.755352 0.824400 0.113970 1 5 1.000000 
human_commando_headarmslegs.bmp
5 -0.000001 65.616173 4.667670 -0.058630 0.448064 0.892077 0.863300 0.101080 1 5 1.000000 
5 -0.572541 65.634987 3.979520 -0.270091 0.958273 -0.093610 0.837720 0.119710 1 5 1.000000 
5 -1.564201 65.034630 3.279550 -0.794486 0.063590 0.603944 0.792720 0.089230 1 5 1.000000 
human_commando_headarmslegs.bmp
5 0.602629 65.542252 3.850981 0.390893 0.819126 0.419803 0.890500 0.121700 1 5 1.000000 
5 -0.572541 65.634987 3.979520 -0.270091 0.958273 -0.093610 0.837720 0.119710 1 5 1.000000 
5 -0.000001 65.616173 4.667670 -0.058630 0.448064 0.892077 0.863300 0.101080 1 5 1.000000 
human_commando_headarmslegs.bmp
5 -0.278231 64.712349 4.043020 -0.065861 -0.355853 0.932218 0.850750 0.062780 1 5 1.000000 
5 -0.000001 65.616173 4.667670 -0.058630 0.448064 0.892077 0.863300 0.101080 1 5 1.000000 
5 -1.564201 65.034630 3.279550 -0.794486 0.063590 0.603944 0.792720 0.089230 1 5 1.000000 
human_commando_headarmslegs.bmp
5 1.564199 65.034630 3.279551 0.738702 0.055520 0.671742 0.935560 0.086730 1 5 1.000000 
5 -0.000001 65.616173 4.667670 -0.058630 0.448064 0.892077 0.863300 0.101080 1 5 1.000000 
5 -0.278231 64.712349 4.043020 -0.065861 -0.355853 0.932218 0.850750 0.062780 1 5 1.000000 
human_commando_headarmslegs.bmp
5 0.602629 65.542252 3.850981 0.390893 0.819126 0.419803 0.890500 0.121700 1 5 1.000000 
5 -0.000001 65.616173 4.667670 -0.058630 0.448064 0.892077 0.863300 0.101080 1 5 1.000000 
5 1.564199 65.034630 3.279551 0.738702 0.055520 0.671742 0.935560 0.086730 1 5 1.000000 
human_commando_headarmslegs.bmp
5 1.564199 65.034630 3.279551 0.738702 0.055520 0.671742 0.935560 0.086730 1 5 1.000000 
5 0.742789 66.836021 3.433110 0.699676 0.005770 0.714436 0.901730 0.181170 1 5 1.000000 
5 0.602629 65.542252 3.850981 0.390893 0.819126 0.419803 0.890500 0.121700 1 5 1.000000 
human_commando_headarmslegs.bmp
5 0.742789 66.836021 3.433110 0.699676 0.005770 0.714436 0.901730 0.181170 1 5 1.000000 
5 -0.286091 65.593323 4.015911 0.035540 -0.077651 0.996347 0.850390 0.124050 1 5 1.000000 
5 0.602629 65.542252 3.850981 0.390893 0.819126 0.419803 0.890500 0.121700 1 5 1.000000 
human_commando_headarmslegs.bmp
5 0.742789 66.836021 3.433110 0.699676 0.005770 0.714436 0.901730 0.181170 1 5 1.000000 
5 -0.000001 66.650101 3.953351 -0.018160 -0.402422 0.915274 0.863300 0.166520 1 5 1.000000 
5 -0.286091 65.593323 4.015911 0.035540 -0.077651 0.996347 0.850390 0.124050 1 5 1.000000 
human_commando_headarmslegs.bmp
5 -0.752801 67.141701 3.243081 -0.730497 0.056121 0.680606 0.822380 0.197150 1 5 1.000000 
5 -0.286091 65.593323 4.015911 0.035540 -0.077651 0.996347 0.850390 0.124050 1 5 1.000000 
5 -0.000001 66.650101 3.953351 -0.018160 -0.402422 0.915274 0.863300 0.166520 1 5 1.000000 
human_commando_headarmslegs.bmp
5 -0.752801 67.141701 3.243081 -0.730497 0.056121 0.680606 0.822380 0.197150 1 5 1.000000 
5 -0.000001 66.650101 3.953351 -0.018160 -0.402422 0.915274 0.863300 0.166520 1 5 1.000000 
5 -0.343771 67.394249 4.301870 -0.595457 0.086851 0.798679 0.847790 0.206830 1 5 1.000000 
human_commando_headarmslegs.bmp
5 -0.627461 67.806847 3.528171 -0.812150 0.107461 0.573467 0.834990 0.225790 1 5 1.000000 
5 -0.752801 67.141701 3.243081 -0.730497 0.056121 0.680606 0.822380 0.197150 1 5 1.000000 
5 -0.343771 67.394249 4.301870 -0.595457 0.086851 0.798679 0.847790 0.206830 1 5 1.000000 
human_commando_headarmslegs.bmp
5 -0.343771 67.394249 4.301870 -0.595457 0.086851 0.798679 0.847790 0.206830 1 5 1.000000 
5 -0.334941 68.560478 3.740340 -0.512474 -0.102311 0.852586 0.848190 0.260430 1 5 1.000000 
5 -0.627461 67.806847 3.528171 -0.812150 0.107461 0.573467 0.834990 0.225790 1 5 1.000000 
human_commando_headarmslegs.bmp
5 0.334939 68.560478 3.740340 0.418213 -0.074641 0.905277 0.878420 0.260430 1 5 1.000000 
5 -0.334941 68.560478 3.740340 -0.512474 -0.102311 0.852586 0.848190 0.260430 1 5 1.000000 
5 -0.343771 67.394249 4.301870 -0.595457 0.086851 0.798679 0.847790 0.206830 1 5 1.000000 
human_commando_headarmslegs.bmp
5 1.994609 69.409912 2.767211 0.528655 -0.761208 0.375614 0.953320 0.299480 1 5 1.000000 
5 1.561229 68.505119 2.866361 0.477372 -0.600523 0.641473 0.939670 0.254270 1 5 1.000000 
5 2.473469 67.778053 2.170791 0.520005 -0.104731 0.847718 0.993610 0.224470 1 5 1.000000 
human_commando_headarmslegs.bmp
5 2.473469 67.778053 2.170791 0.520005 -0.104731 0.847718 0.993610 0.224470 1 5 1.000000 
5 1.561229 68.505119 2.866361 0.477372 -0.600523 0.641473 0.939670 0.254270 1 5 1.000000 
5 0.875009 68.495132 2.974661 0.532145 -0.359823 0.766387 0.902790 0.251470 1 5 1.000000 
human_commando_headarmslegs.bmp
5 0.627459 67.806847 3.528171 0.812150 0.107461 0.573467 0.891620 0.225790 1 5 1.000000 
5 2.473469 67.778053 2.170791 0.520005 -0.104731 0.847718 0.993610 0.224470 1 5 1.000000 
5 0.875009 68.495132 2.974661 0.532145 -0.359823 0.766387 0.902790 0.251470 1 5 1.000000 
human_commando_headarmslegs.bmp
5 0.875009 68.495132 2.974661 0.532145 -0.359823 0.766387 0.902790 0.251470 1 5 1.000000 
5 0.334939 68.560478 3.740340 0.418213 -0.074641 0.905277 0.878420 0.260430 1 5 1.000000 
5 0.627459 67.806847 3.528171 0.812150 0.107461 0.573467 0.891620 0.225790 1 5 1.000000 
human_commando_headarmslegs.bmp
5 0.334939 68.560478 3.740340 0.418213 -0.074641 0.905277 0.878420 0.260430 1 5 1.000000 
5 0.343769 67.394249 4.301870 0.589084 -0.062430 0.805656 0.878820 0.206830 1 5 1.000000 
5 0.627459 67.806847 3.528171 0.812150 0.107461 0.573467 0.891620 0.225790 1 5 1.000000 
human_commando_headarmslegs.bmp
5 0.343769 67.394249 4.301870 0.589084 -0.062430 0.805656 0.878820 0.206830 1 5 1.000000 
5 0.334939 68.560478 3.740340 0.418213 -0.074641 0.905277 0.878420 0.260430 1 5 1.000000 
5 -0.343771 67.394249 4.301870 -0.595457 0.086851 0.798679 0.847790 0.206830 1 5 1.000000 
human_commando_headarmslegs.bmp
5 -0.343771 67.394249 4.301870 -0.595457 0.086851 0.798679 0.847790 0.206830 1 5 1.000000 
5 -0.000001 66.650101 3.953351 -0.018160 -0.402422 0.915274 0.863300 0.166520 1 5 1.000000 
5 0.343769 67.394249 4.301870 0.589084 -0.062430 0.805656 0.878820 0.206830 1 5 1.000000 
human_commando_headarmslegs.bmp
5 0.742789 66.836021 3.433110 0.699676 0.005770 0.714436 0.901730 0.181170 1 5 1.000000 
5 0.343769 67.394249 4.301870 0.589084 -0.062430 0.805656 0.878820 0.206830 1 5 1.000000 
5 -0.000001 66.650101 3.953351 -0.018160 -0.402422 0.915274 0.863300 0.166520 1 5 1.000000 
human_commando_headarmslegs.bmp
5 0.742789 66.836021 3.433110 0.699676 0.005770 0.714436 0.901730 0.181170 1 5 1.000000 
5 0.627459 67.806847 3.528171 0.812150 0.107461 0.573467 0.891620 0.225790 1 5 1.000000 
5 0.343769 67.394249 4.301870 0.589084 -0.062430 0.805656 0.878820 0.206830 1 5 1.000000 
human_commando_headarmslegs.bmp
5 0.742789 66.836021 3.433110 0.699676 0.005770 0.714436 0.901730 0.181170 1 5 1.000000 
5 2.473469 67.778053 2.170791 0.520005 -0.104731 0.847718 0.993610 0.224470 1 5 1.000000 
5 0.627459 67.806847 3.528171 0.812150 0.107461 0.573467 0.891620 0.225790 1 5 1.000000 
human_commando_headarmslegs.bmp
5 0.334939 68.560478 3.740340 0.418213 -0.074641 0.905277 0.878420 0.260430 1 5 1.000000 
5 0.875009 68.495132 2.974661 0.532145 -0.359823 0.766387 0.902790 0.251470 1 5 1.000000 
5 1.561229 68.505119 2.866361 0.477372 -0.600523 0.641473 0.939670 0.254270 1 5 1.000000 
human_commando_headarmslegs.bmp
5 -0.334941 68.560478 3.740340 -0.512474 -0.102311 0.852586 0.848190 0.260430 1 5 1.000000 
5 -0.875011 68.495132 2.974661 -0.532145 -0.359823 0.766387 0.823820 0.251470 1 5 1.000000 
5 -0.627461 67.806847 3.528171 -0.812150 0.107461 0.573467 0.834990 0.225790 1 5 1.000000 
human_commando_headarmslegs.bmp
5 -0.875011 68.495132 2.974661 -0.532145 -0.359823 0.766387 0.823820 0.251470 1 5 1.000000 
5 -0.334941 68.560478 3.740340 -0.512474 -0.102311 0.852586 0.848190 0.260430 1 5 1.000000 
5 -1.561231 68.505119 2.866361 -0.364091 -0.561312 0.743213 0.786940 0.254270 1 5 1.000000 
human_commando_headarmslegs.bmp
5 -1.561231 68.505119 2.866361 -0.364091 -0.561312 0.743213 0.786940 0.254270 1 5 1.000000 
5 -2.473471 67.778061 2.170791 -0.499303 -0.149251 0.853475 0.733000 0.224470 1 5 1.000000 
5 -0.875011 68.495132 2.974661 -0.532145 -0.359823 0.766387 0.823820 0.251470 1 5 1.000000 
human_commando_headarmslegs.bmp
5 -1.561231 68.505119 2.866361 -0.364091 -0.561312 0.743213 0.786940 0.254270 1 5 1.000000 
5 -1.994611 69.409912 2.767211 -0.644092 -0.303941 0.701972 0.773290 0.299480 1 5 1.000000 
5 -2.473471 67.778061 2.170791 -0.499303 -0.149251 0.853475 0.733000 0.224470 1 5 1.000000 
human_commando_headarmslegs.bmp
5 -0.334941 68.560478 3.740340 -0.512474 -0.102311 0.852586 0.848190 0.260430 1 5 1.000000 
5 -1.994611 69.409912 2.767211 -0.644092 -0.303941 0.701972 0.773290 0.299480 1 5 1.000000 
5 -1.561231 68.505119 2.866361 -0.364091 -0.561312 0.743213 0.786940 0.254270 1 5 1.000000 
human_commando_headarmslegs.bmp
5 -0.000641 69.870750 3.968501 -0.069940 0.104001 0.992115 0.863300 0.299530 1 5 1.000000 
5 -1.994611 69.409912 2.767211 -0.644092 -0.303941 0.701972 0.773290 0.299480 1 5 1.000000 
5 -0.334941 68.560478 3.740340 -0.512474 -0.102311 0.852586 0.848190 0.260430 1 5 1.000000 
human_commando_headarmslegs.bmp
5 -0.334941 68.560478 3.740340 -0.512474 -0.102311 0.852586 0.848190 0.260430 1 5 1.000000 
5 0.334939 68.560478 3.740340 0.418213 -0.074641 0.905277 0.878420 0.260430 1 5 1.000000 
5 -0.000641 69.870750 3.968501 -0.069940 0.104001 0.992115 0.863300 0.299530 1 5 1.000000 
human_commando_headarmslegs.bmp
5 1.833809 69.409233 3.249351 0.711036 0.068031 0.699856 0.946060 0.299450 1 5 1.000000 
5 -0.000641 69.870750 3.968501 -0.069940 0.104001 0.992115 0.863300 0.299530 1 5 1.000000 
5 0.334939 68.560478 3.740340 0.418213 -0.074641 0.905277 0.878420 0.260430 1 5 1.000000 
human_commando_headarmslegs.bmp
5 1.833809 69.409233 3.249351 0.711036 0.068031 0.699856 0.946060 0.299450 1 5 1.000000 
5 0.334939 68.560478 3.740340 0.418213 -0.074641 0.905277 0.878420 0.260430 1 5 1.000000 
5 1.561229 68.505119 2.866361 0.477372 -0.600523 0.641473 0.939670 0.254270 1 5 1.000000 
human_commando_headarmslegs.bmp
5 1.994609 69.409912 2.767211 0.528655 -0.761208 0.375614 0.953320 0.299480 1 5 1.000000 
5 1.833809 69.409233 3.249351 0.711036 0.068031 0.699856 0.946060 0.299450 1 5 1.000000 
5 1.561229 68.505119 2.866361 0.477372 -0.600523 0.641473 0.939670 0.254270 1 5 1.000000 
human_commando_headarmslegs.bmp
3 2.586509 65.192810 0.100731 0.835205 -0.549933 0.002410 0.872220 0.384900 2 3 0.500000 5 0.500000 
3 -0.006811 63.536961 1.444450 0.212592 -0.969147 -0.124731 0.910890 0.318160 2 3 0.500000 5 0.500000 
3 1.699669 64.673981 0.444780 0.339253 -0.852387 -0.397923 0.882120 0.370460 2 3 0.500000 5 0.500000 
human_commando_headarmslegs.bmp
5 3.536699 68.433502 1.508661 0.980028 0.183612 0.076361 0.824680 0.591000 1 5 1.000000 
5 2.742439 69.301842 0.953941 0.303253 0.694317 0.652657 0.820970 0.635370 1 5 1.000000 
5 2.742439 67.393562 1.553041 0.298143 -0.187772 0.935870 0.794810 0.558790 1 5 1.000000 
human_commando_headarmslegs.bmp
5 3.536699 68.433502 1.508661 0.980028 0.183612 0.076361 0.824680 0.591000 1 5 1.000000 
5 2.682619 69.356712 -0.977578 0.743224 -0.643834 -0.181921 0.905330 0.637580 1 5 1.000000 
5 2.742439 69.301842 0.953941 0.303253 0.694317 0.652657 0.820970 0.635370 1 5 1.000000 
human_commando_headarmslegs.bmp
5 3.536699 68.433502 1.508661 0.980028 0.183612 0.076361 0.824680 0.591000 1 5 1.000000 
5 2.742439 67.393562 -1.583868 0.970096 -0.022120 -0.241711 0.931810 0.558790 1 5 1.000000 
5 2.682619 69.356712 -0.977578 0.743224 -0.643834 -0.181921 0.905330 0.637580 1 5 1.000000 
human_commando_headarmslegs.bmp
5 3.536699 68.433502 1.508661 0.980028 0.183612 0.076361 0.824680 0.591000 1 5 1.000000 
5 2.721459 66.540138 -0.984768 0.920163 0.101720 -0.378091 0.905650 0.524530 1 5 1.000000 
5 2.742439 67.393562 -1.583868 0.970096 -0.022120 -0.241711 0.931810 0.558790 1 5 1.000000 
human_commando_headarmslegs.bmp
5 2.721459 66.540138 -0.984768 0.920163 0.101720 -0.378091 0.905650 0.524530 1 5 1.000000 
5 3.536699 68.433502 1.508661 0.980028 0.183612 0.076361 0.824680 0.591000 1 5 1.000000 
3 2.971609 65.690620 -1.187509 0.988892 -0.125600 -0.079480 0.863310 0.511450 2 3 0.500000 5 0.500000 
human_commando_headarmslegs.bmp
5 3.536699 68.433502 1.508661 0.980028 0.183612 0.076361 0.824680 0.591000 1 5 1.000000 
5 2.742439 67.393562 1.553041 0.298143 -0.187772 0.935870 0.794810 0.558790 1 5 1.000000 
3 2.971609 65.690620 -1.187509 0.988892 -0.125600 -0.079480 0.863310 0.511450 2 3 0.500000 5 0.500000 
human_commando_headarmslegs.bmp
5 0.602629 65.542252 3.850981 0.390893 0.819126 0.419803 0.628470 -0.189080 1 5 1.000000 
5 -0.862191 65.373970 3.546380 0.138240 0.640572 -0.755352 0.595830 -0.193220 1 5 1.000000 
5 -0.572541 65.634987 3.979520 -0.270091 0.958273 -0.093610 0.602290 -0.186800 1 5 1.000000 
human_commando_headarmslegs.bmp
5 -2.721461 66.540138 -0.984769 -0.920163 0.101720 -0.378091 0.905650 0.524530 1 5 1.000000 
5 -3.536700 68.433502 1.508661 -0.980028 0.183612 0.076361 0.824680 0.591000 1 5 1.000000 
5 -2.742440 67.393562 -1.583869 -0.970096 -0.022120 -0.241711 0.931810 0.558790 1 5 1.000000 
human_commando_headarmslegs.bmp
5 -3.536700 68.433502 1.508661 -0.980028 0.183612 0.076361 0.824680 0.591000 1 5 1.000000 
5 -2.721461 66.540138 -0.984769 -0.920163 0.101720 -0.378091 0.905650 0.524530 1 5 1.000000 
3 -2.971611 65.690620 -1.187510 -0.988892 -0.125600 -0.079480 0.863310 0.511450 2 3 0.500000 5 0.500000 
human_commando_headarmslegs.bmp
5 -2.742441 67.393547 1.553041 -0.298143 -0.187772 0.935870 0.794810 0.558790 1 5 1.000000 
5 -3.536700 68.433502 1.508661 -0.980028 0.183612 0.076361 0.824680 0.591000 1 5 1.000000 
3 -2.971611 65.690620 -1.187510 -0.988892 -0.125600 -0.079480 0.863310 0.511450 2 3 0.500000 5 0.500000 
human_commando_headarmslegs.bmp
5 -2.742440 69.301842 0.953941 -0.303253 0.694317 0.652657 0.820970 0.635370 1 5 1.000000 
5 -3.536700 68.433502 1.508661 -0.980028 0.183612 0.076361 0.824680 0.591000 1 5 1.000000 
5 -2.742441 67.393547 1.553041 -0.298143 -0.187772 0.935870 0.794810 0.558790 1 5 1.000000 
human_commando_headarmslegs.bmp
5 -2.682621 69.356712 -0.977579 -0.723094 -0.665034 -0.186721 0.905330 0.637580 1 5 1.000000 
5 -3.536700 68.433502 1.508661 -0.980028 0.183612 0.076361 0.824680 0.591000 1 5 1.000000 
5 -2.742440 69.301842 0.953941 -0.303253 0.694317 0.652657 0.820970 0.635370 1 5 1.000000 
human_commando_headarmslegs.bmp
5 -2.742440 67.393562 -1.583869 -0.970096 -0.022120 -0.241711 0.931810 0.558790 1 5 1.000000 
5 -3.536700 68.433502 1.508661 -0.980028 0.183612 0.076361 0.824680 0.591000 1 5 1.000000 
5 -2.682621 69.356712 -0.977579 -0.723094 -0.665034 -0.186721 0.905330 0.637580 1 5 1.000000 
human_commando_body.bmp
5 -3.683460 69.563789 0.027081 -0.866129 -0.494635 0.071811 0.245070 -0.073100 1 5 1.000000 
5 -2.682621 69.356712 -0.977579 -0.723094 -0.665034 -0.186721 0.213800 -0.083330 1 5 1.000000 
5 -1.994611 69.409912 2.767211 -0.644092 -0.303941 0.701972 0.326350 -0.081740 1 5 1.000000 
human_commando_body.bmp
5 2.682619 69.356712 -0.977578 0.743224 -0.643834 -0.181921 0.534160 -0.080520 1 5 1.000000 
5 3.683459 69.563789 0.027082 0.927587 -0.370893 -0.044940 0.529040 -0.073100 1 5 1.000000 
5 1.994609 69.409912 2.767211 0.528655 -0.761208 0.375614 0.447750 -0.081740 1 5 1.000000 
human_commando_body.bmp
5 3.683459 69.563789 0.027082 0.927587 -0.370893 -0.044940 0.529040 -0.073100 1 5 1.000000 
5 1.833809 69.409233 3.249351 0.711036 0.068031 0.699856 0.436500 -0.081760 1 5 1.000000 
5 1.994609 69.409912 2.767211 0.528655 -0.761208 0.375614 0.447750 -0.081740 1 5 1.000000 
human_commando_body.bmp
5 3.683459 69.563789 0.027082 0.927587 -0.370893 -0.044940 0.529040 -0.073100 1 5 1.000000 
5 2.191379 71.259071 -0.162688 0.250183 0.966070 0.064171 0.543350 -0.024390 1 5 1.000000 
5 1.833809 69.409233 3.249351 0.711036 0.068031 0.699856 0.436500 -0.081760 1 5 1.000000 
human_commando_body.bmp
5 2.191379 71.259071 -0.162688 0.250183 0.966070 0.064171 0.543350 -0.024390 1 5 1.000000 
5 -0.000001 70.824623 3.033561 -0.000020 0.835870 0.548927 0.387050 -0.041390 1 5 1.000000 
5 1.833809 69.409233 3.249351 0.711036 0.068031 0.699856 0.436500 -0.081760 1 5 1.000000 
human_commando_body.bmp
5 -0.000641 69.870750 3.968501 -0.069940 0.104001 0.992115 0.387040 -0.063960 1 5 1.000000 
5 1.833809 69.409233 3.249351 0.711036 0.068031 0.699856 0.436500 -0.081760 1 5 1.000000 
5 -0.000001 70.824623 3.033561 -0.000020 0.835870 0.548927 0.387050 -0.041390 1 5 1.000000 
human_commando_body.bmp
5 -2.000921 69.958366 3.146411 -0.638416 0.265453 0.722467 0.332640 -0.061340 1 5 1.000000 
5 -0.000641 69.870750 3.968501 -0.069940 0.104001 0.992115 0.387040 -0.063960 1 5 1.000000 
5 -0.000001 70.824623 3.033561 -0.000020 0.835870 0.548927 0.387050 -0.041390 1 5 1.000000 
human_commando_body.bmp
5 -2.000921 69.958366 3.146411 -0.638416 0.265453 0.722467 0.332640 -0.061340 1 5 1.000000 
5 -1.994611 69.409912 2.767211 -0.644092 -0.303941 0.701972 0.326350 -0.081740 1 5 1.000000 
5 -0.000641 69.870750 3.968501 -0.069940 0.104001 0.992115 0.387040 -0.063960 1 5 1.000000 
human_commando_body.bmp
5 -2.000921 69.958366 3.146411 -0.638416 0.265453 0.722467 0.332640 -0.061340 1 5 1.000000 
5 -3.291101 70.620140 -0.013419 -0.703825 0.709675 0.031500 0.242680 -0.047470 1 5 1.000000 
5 -1.994611 69.409912 2.767211 -0.644092 -0.303941 0.701972 0.326350 -0.081740 1 5 1.000000 
human_commando_body.bmp
5 -3.291101 70.620140 -0.013419 -0.703825 0.709675 0.031500 0.242680 -0.047470 1 5 1.000000 
5 -3.683460 69.563789 0.027081 -0.866129 -0.494635 0.071811 0.245070 -0.073100 1 5 1.000000 
5 -1.994611 69.409912 2.767211 -0.644092 -0.303941 0.701972 0.326350 -0.081740 1 5 1.000000 
human_commando_body.bmp
5 -3.291101 70.620140 -0.013419 -0.703825 0.709675 0.031500 0.242680 -0.047470 1 5 1.000000 
5 -2.664080 69.550652 -2.070148 -0.674515 -0.274342 -0.685395 0.192210 -0.073500 1 5 1.000000 
5 -3.683460 69.563789 0.027081 -0.866129 -0.494635 0.071811 0.245070 -0.073100 1 5 1.000000 
human_commando_body.bmp
5 -2.017140 70.762909 -2.154378 -0.371583 0.664365 -0.648495 0.179510 -0.033310 1 5 1.000000 
5 -2.664080 69.550652 -2.070148 -0.674515 -0.274342 -0.685395 0.192210 -0.073500 1 5 1.000000 
5 -3.291101 70.620140 -0.013419 -0.703825 0.709675 0.031500 0.242680 -0.047470 1 5 1.000000 
human_commando_body.bmp
5 -2.017140 70.762909 -2.154378 -0.371583 0.664365 -0.648495 0.179510 -0.033310 1 5 1.000000 
5 -3.291101 70.620140 -0.013419 -0.703825 0.709675 0.031500 0.242680 -0.047470 1 5 1.000000 
5 2.191379 71.259071 -0.162688 0.250183 0.966070 0.064171 0.021640 -0.024390 1 5 1.000000 
human_commando_body.bmp
5 -0.000001 70.824623 3.033561 -0.000020 0.835870 0.548927 0.387050 -0.041390 1 5 1.000000 
5 2.191379 71.259071 -0.162688 0.250183 0.966070 0.064171 0.021640 -0.024390 1 5 1.000000 
5 -3.291101 70.620140 -0.013419 -0.703825 0.709675 0.031500 0.242680 -0.047470 1 5 1.000000 
human_commando_body.bmp
5 -2.000921 69.958366 3.146411 -0.638416 0.265453 0.722467 0.332640 -0.061340 1 5 1.000000 
5 -0.000001 70.824623 3.033561 -0.000020 0.835870 0.548927 0.387050 -0.041390 1 5 1.000000 
5 -3.291101 70.620140 -0.013419 -0.703825 0.709675 0.031500 0.242680 -0.047470 1 5 1.000000 
human_commando_body.bmp
5 -3.683460 69.563789 0.027081 -0.866129 -0.494635 0.071811 0.245070 -0.073100 1 5 1.000000 
5 -2.664080 69.550652 -2.070148 -0.674515 -0.274342 -0.685395 0.192210 -0.073500 1 5 1.000000 
5 -2.682621 69.356712 -0.977579 -0.723094 -0.665034 -0.186721 0.213800 -0.083330 1 5 1.000000 
human_commando_body.bmp
5 -2.664080 69.550652 -2.070148 -0.674515 -0.274342 -0.685395 0.192210 -0.073500 1 5 1.000000 
5 -0.000001 69.531570 -2.993908 -0.148530 -0.154390 -0.976782 0.126200 -0.074060 1 5 1.000000 
5 -2.682621 69.356712 -0.977579 -0.723094 -0.665034 -0.186721 0.213800 -0.083330 1 5 1.000000 
human_commando_body.bmp
5 -2.017140 70.762909 -2.154378 -0.371583 0.664365 -0.648495 0.179510 -0.033310 1 5 1.000000 
5 -0.000001 69.531570 -2.993908 -0.148530 -0.154390 -0.976782 0.126200 -0.074060 1 5 1.000000 
5 -2.664080 69.550652 -2.070148 -0.674515 -0.274342 -0.685395 0.192210 -0.073500 1 5 1.000000 
human_commando_body.bmp
5 -2.017140 70.762909 -2.154378 -0.371583 0.664365 -0.648495 0.179510 -0.033310 1 5 1.000000 
5 -0.000001 70.487213 -2.793968 0.043260 0.656886 -0.752747 0.126200 -0.045580 1 5 1.000000 
5 -0.000001 69.531570 -2.993908 -0.148530 -0.154390 -0.976782 0.126200 -0.074060 1 5 1.000000 
human_commando_body.bmp
5 2.191379 71.259071 -0.162688 0.250183 0.966070 0.064171 0.021640 -0.024390 1 5 1.000000 
5 -0.000001 70.487213 -2.793968 0.043260 0.656886 -0.752747 0.126200 -0.045580 1 5 1.000000 
5 -2.017140 70.762909 -2.154378 -0.371583 0.664365 -0.648495 0.179510 -0.033310 1 5 1.000000 
human_commando_body.bmp
5 -0.000001 70.487213 -2.793968 0.043260 0.656886 -0.752747 0.126200 -0.045580 1 5 1.000000 
5 2.191379 71.259071 -0.162688 0.250183 0.966070 0.064171 0.021640 -0.024390 1 5 1.000000 
5 2.178629 71.103043 -1.379178 0.495494 0.691036 -0.526265 0.055800 -0.029040 1 5 1.000000 
human_commando_body.bmp
5 2.191379 71.259071 -0.162688 0.250183 0.966070 0.064171 0.021640 -0.024390 1 5 1.000000 
5 3.683459 69.563789 0.027082 0.927587 -0.370893 -0.044940 0.007330 -0.073100 1 5 1.000000 
5 2.178629 71.103043 -1.379178 0.495494 0.691036 -0.526265 0.055800 -0.029040 1 5 1.000000 
human_commando_body.bmp
5 2.664079 69.550652 -2.070148 0.676364 -0.393522 -0.622633 0.060180 -0.073500 1 5 1.000000 
5 2.178629 71.103043 -1.379178 0.495494 0.691036 -0.526265 0.055800 -0.029040 1 5 1.000000 
5 3.683459 69.563789 0.027082 0.927587 -0.370893 -0.044940 0.007330 -0.073100 1 5 1.000000 
human_commando_body.bmp
5 2.664079 69.550652 -2.070148 0.676364 -0.393522 -0.622633 0.060180 -0.073500 1 5 1.000000 
5 3.683459 69.563789 0.027082 0.927587 -0.370893 -0.044940 0.007330 -0.073100 1 5 1.000000 
5 2.682619 69.356712 -0.977578 0.743224 -0.643834 -0.181921 0.038590 -0.083330 1 5 1.000000 
human_commando_body.bmp
5 1.172859 69.384361 -2.772208 0.380555 0.040500 -0.923871 0.097960 -0.082500 1 5 1.000000 
5 2.664079 69.550652 -2.070148 0.676364 -0.393522 -0.622633 0.060180 -0.073500 1 5 1.000000 
5 2.682619 69.356712 -0.977578 0.743224 -0.643834 -0.181921 0.038590 -0.083330 1 5 1.000000 
human_commando_body.bmp
5 1.172859 69.384361 -2.772208 0.380555 0.040500 -0.923871 0.097960 -0.082500 1 5 1.000000 
5 2.178629 71.103043 -1.379178 0.495494 0.691036 -0.526265 0.055800 -0.029040 1 5 1.000000 
5 2.664079 69.550652 -2.070148 0.676364 -0.393522 -0.622633 0.060180 -0.073500 1 5 1.000000 
human_commando_body.bmp
5 -0.000001 70.487213 -2.793968 0.043260 0.656886 -0.752747 0.126200 -0.045580 1 5 1.000000 
5 2.178629 71.103043 -1.379178 0.495494 0.691036 -0.526265 0.055800 -0.029040 1 5 1.000000 
5 1.172859 69.384361 -2.772208 0.380555 0.040500 -0.923871 0.097960 -0.082500 1 5 1.000000 
human_commando_body.bmp
5 -0.000001 70.487213 -2.793968 0.043260 0.656886 -0.752747 0.126200 -0.045580 1 5 1.000000 
5 1.172859 69.384361 -2.772208 0.380555 0.040500 -0.923871 0.097960 -0.082500 1 5 1.000000 
5 -0.000001 69.531570 -2.993908 -0.148530 -0.154390 -0.976782 0.126200 -0.074060 1 5 1.000000 
end
