$modelname "player/human_commando.mdl"

$bodygroup "studio"
{
	studio "human_commando_skeleton_body.smd"
}
$bodygroup "heads"
{
	studio "human_commando_skeleton_head_helmet.smd"
	studio "human_commando_skeleton_head_nohelmet.smd"
}

$lod 6
{
	replacemodel "human_commando_skeleton_body.smd" "human_commando_skeleton_body_lod1.smd"
	replacemodel "human_commando_skeleton_head_helmet.smd" "human_commando_skeleton_head_helmet_lod1.smd"
	replacemodel "human_commando_skeleton_head_nohelmet.smd" "human_commando_skeleton_head_nohelmet_lod1.smd"
}
$lod 11
{
	replacemodel "human_commando_skeleton_body.smd" "human_commando_skeleton_body_lod2.smd"
	replacemodel "human_commando_skeleton_head_helmet.smd" "human_commando_skeleton_head_helmet_lod2.smd"
	replacemodel "human_commando_skeleton_head_nohelmet.smd" "human_commando_skeleton_head_nohelmet_lod2.smd"
}
$lod 15
{
	replacemodel "human_commando_skeleton_body.smd" "human_commando_skeleton_body_lod3.smd"
	replacemodel "human_commando_skeleton_head_helmet.smd" "human_commando_skeleton_head_helmet_lod3.smd"
	replacemodel "human_commando_skeleton_head_nohelmet.smd" "human_commando_skeleton_head_nohelmet_lod3.smd"
}
$lod 22
{
	replacemodel "human_commando_skeleton_body.smd" "human_commando_skeleton_body_lod4.smd"
	replacemodel "human_commando_skeleton_head_helmet.smd" "human_commando_skeleton_head_helmet_lod4.smd"
	replacemodel "human_commando_skeleton_head_nohelmet.smd" "human_commando_skeleton_head_nohelmet_lod4.smd"
}
$lod 35
{
	replacemodel "human_commando_skeleton_body.smd" "human_commando_skeleton_body_lod5.smd"
	replacemodel "human_commando_skeleton_head_helmet.smd" "human_commando_skeleton_head_helmet_lod5.smd"
	replacemodel "human_commando_skeleton_head_nohelmet.smd" "human_commando_skeleton_head_nohelmet_lod5.smd"
}
$lod 80
{
	replacemodel "human_commando_skeleton_body.smd" "human_commando_skeleton_body_lod6.smd"
	replacemodel "human_commando_skeleton_head_helmet.smd" "human_commando_skeleton_head_helmet_lod6.smd"
	replacemodel "human_commando_skeleton_head_nohelmet.smd" "human_commando_skeleton_head_nohelmet_lod6.smd"
}
$shadowlod
{
	replacemodel "human_commando_skeleton_body.smd" "human_commando_skeleton_body_lod7.smd"
	replacemodel "human_commando_skeleton_head_helmet.smd" "human_commando_skeleton_head_helmet_lod7.smd"
	replacemodel "human_commando_skeleton_head_nohelmet.smd" "human_commando_skeleton_head_nohelmet_lod7.smd"
}

$surfaceprop "flesh"

$contents "solid"

$illumposition -0.447 -1.746 33.198

$cdmaterials "models\player\commando\"

$attachment "0" "w_combat_plasmarifle" 0 0 0 rotate 0 0 0
$attachment "1" "w_combat_shield" 0 0 0 rotate 0 0 0
$attachment "buffcablepoint" "w_combat_plasmarifle" 0 0 0 rotate 0 0 0

$cbox 0 0 0 0 0 0

$bbox -16.583 -14.726 -3.2 20.075 13.832 69.597

$hboxset "noshield"
$hbox 2 "Chest" -9 -7 -6.94 9 11 7.01 ""
$hbox 1 "Head" -3.13 -3.68 -3.33 4.96 3.68 5.62 ""
$hbox 5 "RightBicep" 0 -3.91 -4.52 12.04 2.59 3.79 ""
$hbox 5 "RightForearm" -2.16 -3.81 -3.74 9.82 3.37 4.08 ""
$hbox 5 "RightHand" -4 0 -3.4 2 7 3.04 ""
$hbox 4 "LeftBicep" 0 -2.64 -4.52 12.04 3.91 3.79 ""
$hbox 4 "LeftForearm" -2.16 -3.37 -3.74 9.82 3.81 4.08 ""
$hbox 4 "LeftHand" -2 -7 -3.04 4 0 3.4 ""
$hbox 3 "Hips" -8.59 -12.5 -6.85 8.41 2.5 8.15 ""
$hbox 7 "RightCalf" -1 -5.89 -4.83 17 4.11 5.17 ""
$hbox 7 "RightFoot" -4.85 -6.38 -4.29 8.83 3.74 3.82 ""
$hbox 7 "RightThigh_helper" -6.28 -10 -6 3.72 10 6 ""
$hbox 6 "LeftCalf" -1 -4.11 -4.83 17 5.89 5.17 ""
$hbox 6 "LeftFoot" -4.85 -3.74 -4.29 8.84 6.38 3.82 ""
$hbox 6 "LeftThigh_helper" -3.72 -10 -6 6.28 10 6 ""
$hboxset "shield"
$hbox 2 "Chest" -9 -7 -6.94 9 11 7.01 ""
$hbox 1 "Head" -3.13 -3.68 -3.33 4.96 3.68 5.62 ""
$hbox 5 "RightBicep" 0 -3.91 -4.52 12.04 2.59 3.79 ""
$hbox 5 "RightForearm" -2.16 -3.81 -3.74 9.82 3.37 4.08 ""
$hbox 5 "RightHand" -4 0 -3.4 2 7 3.04 ""
$hbox 4 "LeftBicep" 0 -2.64 -4.52 12.04 3.91 3.79 ""
$hbox 4 "LeftForearm" -2.16 -3.37 -3.74 9.82 3.81 4.08 ""
$hbox 4 "LeftHand" -2 -7 -3.04 4 0 3.4 ""
$hbox 3 "Hips" -8.59 -12.5 -6.85 8.41 2.5 8.15 ""
$hbox 7 "RightCalf" -1 -5.89 -4.83 17 4.11 5.17 ""
$hbox 7 "RightFoot" -4.85 -6.38 -4.29 8.83 3.74 3.82 ""
$hbox 7 "RightThigh_helper" -6.28 -10 -6 3.72 10 6 ""
$hbox 6 "LeftCalf" -1 -4.11 -4.83 17 5.89 5.17 ""
$hbox 6 "LeftFoot" -4.85 -3.74 -4.29 8.84 6.38 3.82 ""
$hbox 6 "LeftThigh_helper" -3.72 -10 -6 6.28 10 6 ""
$hbox 0 "w_combat_shield" -46 -70 24 34 30 26 ""
$hboxset "smallshield"
$hbox 2 "Chest" -9 -7 -6.94 9 11 7.01 ""
$hbox 1 "Head" -3.13 -3.68 -3.33 4.96 3.68 5.62 ""
$hbox 5 "RightBicep" 0 -3.91 -4.52 12.04 2.59 3.79 ""
$hbox 5 "RightForearm" -2.16 -3.81 -3.74 9.82 3.37 4.08 ""
$hbox 5 "RightHand" -4 0 -3.4 2 7 3.04 ""
$hbox 4 "LeftBicep" 0 -2.64 -4.52 12.04 3.91 3.79 ""
$hbox 4 "LeftHand" -2 -7 -3.04 4 0 3.4 ""
$hbox 3 "Hips" -8.59 -12.5 -6.85 8.41 2.5 8.15 ""
$hbox 7 "RightCalf" -1 -5.89 -4.83 17 4.11 5.17 ""
$hbox 7 "RightFoot" -4.85 -6.38 -4.29 8.83 3.74 3.82 ""
$hbox 7 "RightThigh_helper" -6.28 -10 -6 3.72 10 6 ""
$hbox 6 "LeftCalf" -1 -4.11 -4.83 17 5.89 5.17 ""
$hbox 6 "LeftFoot" -4.85 -3.74 -4.29 8.84 6.38 3.82 ""
$hbox 6 "LeftThigh_helper" -3.72 -10 -6 6.28 10 6 ""
$hbox 0 "w_combat_shield" -12 -6 -1 -2 4 1 ""
$skipboneinbbox

$definebone "Root" "" 0 46.8013 0 0 0 0 0 0 0 0 0 0
$definebone "Ab1" "Root" 0 0.845699 0.8418 -3.945524 90.000146 0 0 0 0 0 0 0
$definebone "Ab2" "Ab1" 3.1729 0 0 0 90.000003 -156.256054 0 0 0 0 0 0
$definebone "Chest" "Ab2" 0 2.9002 -0.000001 0 0 -8.597804 0 0 0 0 0 0
$definebone "Neck" "Chest" 0 11.238498 0 39.810827 90.000003 -180.000005 0 0 0 0 0 0
$definebone "Head" "Neck" 2.735302 0 0 2.960806 0 0 0 0 0 0 0 0
$definebone "RightClavicle" "Chest" 2.0358 7.890696 -1.483199 -23.321285 -20.804755 -101.069895 0 0 0 0 0 0
$definebone "RightBicep" "RightClavicle" 8.13015 0 0.000001 33.921455 18.965926 90.046448 0 0 0 0 0 0
$definebone "RightForearm" "RightBicep" 11.34811 0.000002 0 6.858795 -0.000001 0 0 0 0 0 0 0
$definebone "RightHand" "RightForearm" 9.822318 0 0 0 90.000003 179.37063 0 0 0 0 0 0
$definebone "RightKnuckles" "RightHand" -0.000001 3.212601 0 0 0.000001 -0.000001 0 0 0 0 0 0
$definebone "RightIndex1" "RightKnuckles" 0.074 1.578002 1.7051 5.003326 87.83096 -179.472591 0 0 0 0 0 0
$definebone "RightIndex2" "RightIndex1" 2.268902 0 0 0.326175 0.000016 0 0 0 0 0 0 0
$definebone "RightIndex3" "RightIndex2" 1.655882 0.000001 0 0 90.000003 -177.704419 0 0 0 0 0 0
$definebone "RightMiddleRingPinky1" "RightKnuckles" -0.0294 1.2827 -0.9083 7.44685 93.275543 179.889055 0 0 0 0 0 0
$definebone "RightMiddleRingPinky2" "RightMiddleRingPinky1" 2.618275 0.000001 0 -0.60154 -0.000043 0.000001 0 0 0 0 0 0
$definebone "RightMiddleRingPinky3" "RightMiddleRingPinky2" 1.574231 -0.000001 0 0 90.000037 -176.85096 0 0 0 0 0 0
$definebone "RightThumb1" "RightHand" -1.331001 0.879601 2.0903 -19.658599 94.750078 125.349175 0 0 0 0 0 0
$definebone "RightThumb2" "RightThumb1" 2.530889 0.000001 -0.000001 -9.742939 -0.000036 0.000005 0 0 0 0 0 0
$definebone "RightThumb3" "RightThumb2" 2.216637 0 0.000001 0 90.000037 177.788772 0 0 0 0 0 0
$definebone "w_combat_plasmarifle" "RightHand" -0.901001 3.304 -1.986 -3.392483 -178.904921 97.810768 0 0 0 0 0 0
$definebone "RightWrist_helper" "RightForearm" 8.583691 0 -0.013615 0 90.000003 179.37063 0 0 0 0 0 0
$definebone "RightShoulder_helper" "RightBicep" 2.769701 0.000001 -0.003612 0.045837 90.000057 -179.925283 0 0 0 0 0 0
$definebone "Grenade2" "Chest" 1.7278 2.258297 -6.608099 -21.960899 56.862045 175.585203 0 0 0 0 0 0
$definebone "Grenade3" "Chest" 4.4712 6.217797 -5.291699 -31.390641 55.601544 171.717745 0 0 0 0 0 0
$definebone "LeftClavicle" "Chest" -2.0357 7.890697 -1.4832 -23.321261 -159.19447 101.069676 0 0 0 0 0 0
$definebone "LeftBicep" "LeftClavicle" 8.130191 0 0.000001 33.920765 -18.965829 -90.046448 0 0 0 0 0 0
$definebone "LeftForearm" "LeftBicep" 11.348108 0.000001 0 6.858792 0.000009 0 0 0 0 0 0 0
$definebone "LeftHand" "LeftForearm" 9.822319 0.000002 0 0 90.000003 -0.629356 0 0 0 0 0 0
$definebone "LeftKnuckles" "LeftHand" -0.000002 -3.212499 0 0 0 0.000001 0 0 0 0 0 0
$definebone "LeftIndex1" "LeftKnuckles" -0.074101 -1.578098 -1.7051 -5.003324 -92.169052 -0.527413 0 0 0 0 0 0
$definebone "LeftIndex2" "LeftIndex1" 2.268899 0.000001 0 0.326173 -0.000004 0 0 0 0 0 0 0
$definebone "LeftIndex3" "LeftIndex2" 1.655882 0 0 0 90.000003 2.295576 0 0 0 0 0 0
$definebone "LeftMiddleRingPinky1" "LeftKnuckles" 0.029398 -1.282799 0.9083 -7.446867 -86.724449 0.110943 0 0 0 0 0 0
$definebone "LeftMiddleRingPinky2" "LeftMiddleRingPinky1" 2.618173 -0.000001 0 -0.597883 -0.000011 0 0 0 0 0 0 0
$definebone "LeftMiddleRingPinky3" "LeftMiddleRingPinky2" 1.574233 -0.000002 0 0 90.000009 3.145403 0 0 0 0 0 0
$definebone "LeftThumb1" "LeftHand" 1.334398 -0.877497 -2.0905 19.6599 -85.247987 54.651485 0 0 0 0 0 0
$definebone "LeftThumb2" "LeftThumb1" 2.53089 0 0.000001 -9.745281 0.000004 0.000002 0 0 0 0 0 0
$definebone "LeftThumb3" "LeftThumb2" 2.216537 0 0 0.000001 90.000003 -2.211134 0 0 0 0 0 0
$definebone "LeftWrist_helper" "LeftForearm" 8.583689 0 -0.013616 0 90.000003 -0.629356 0 0 0 0 0 0
$definebone "w_combat_shield" "LeftForearm" -2.371497 -3.379999 -0.244244 4.127845 -179.289433 -85.383027 0 0 0 0 0 0
$definebone "LeftShoulder_helper" "LeftBicep" 2.769597 0 -0.003612 -0.045837 89.999948 0.074724 0 0 0 0 0 0
$definebone "Grenade1" "Ab2" -0.9269 0.405499 -7.070301 3.819336 35.909556 167.630259 0 0 0 0 0 0
$definebone "Hips" "Root" 0 -0.813202 0 0 0 0 0 0 0 0 0 0
$definebone "RightThigh" "Hips" -6.2385 -6.566399 0.7764 1.248621 -93.220642 103.79902 0 0 0 0 0 0
$definebone "RightCalf" "RightThigh" 17.545603 0 0 0.000001 -1.914252 0.000001 0 0 0 0 0 0
$definebone "RightFoot" "RightCalf" 16.6476 0 0 -0.000002 71.697076 -0.000001 0 0 0 0 0 0
$definebone "RightToe" "RightFoot" 7.3256 0 0 -90.000003 -66.984294 0 0 0 0 0 0 0
$definebone "RightKnee_Helper" "RightThigh" 17.546 0 0 -90.000003 -88.714288 0 0 0 0 0 0 0
$definebone "RightHip_Helper" "RightThigh" 1.000001 0 0 -62.334629 91.285451 178.714277 0 0 0 0 0 0
$definebone "RightThigh_helper" "RightThigh" 10.000002 0 0 -72.736884 91.285212 178.714345 0 0 0 0 0 0
$definebone "SideArm" "Hips" -6.7333 1.444901 5.282 30.307752 -7.359644 5.443099 0 0 0 0 0 0
$definebone "Pouch" "Hips" 3.912 -1.063801 7.2528 27.838302 -5.886569 -2.7565 0 0 0 0 0 0
$definebone "LeftThigh" "Hips" 6.2385 -6.566399 0.7764 1.249317 -86.779534 -103.799027 0 0 0 0 0 0
$definebone "LeftCalf" "LeftThigh" 17.545502 0 0 -0.000001 1.914252 0 0 0 0 0 0 0
$definebone "LeftFoot" "LeftCalf" 16.6476 0 0 -0.000001 -71.697076 -0.000001 0 0 0 0 0 0
$definebone "LeftToe" "LeftFoot" 7.3256 0 0 90.000003 66.984294 0 0 0 0 0 0 0
$definebone "LeftKnee_Helper" "LeftThigh" 17.545502 0 0 90.000003 88.714288 0 0 0 0 0 0 0
$definebone "LeftHip_Helper" "LeftThigh" 1.000002 0 0 62.334629 88.714554 -1.285728 0 0 0 0 0 0
$definebone "LeftThigh_helper" "LeftThigh" 10.000002 0 0 72.736884 88.714786 -1.285656 0 0 0 0 0 0
$definebone "Front_Coat" "Hips" 0 -1.9002 4.992 0 0 0 0 0 0 0 0 0
$definebone "RightFrontCoat1" "Front_Coat" -5.7913 0.000198 0.0302 -10.091459 -93.660383 90.641904 0 0 0 0 0 0
$definebone "RightFrontCoat2" "RightFrontCoat1" 10.146999 0 0 -90.000003 -97.942345 0 0 0 0 0 0 0
$definebone "LeftFrontCoat1" "Front_Coat" 5.7913 0.000099 0.0302 -10.092183 -86.339609 -90.641904 0 0 0 0 0 0
$definebone "LeftFrontCoat2" "LeftFrontCoat1" 10.146998 0.000001 0 90.000003 97.942345 0 0 0 0 0 0 0
$definebone "Rear_Coat" "Hips" 0 -1.6488 -1.7447 0 0 0 0 0 0 0 0 0
$definebone "LeftRearCoat1" "Rear_Coat" 5.627 0.067001 0.0874 9.309463 -83.084573 1.422486 0 0 0 0 0 0
$definebone "LeftRearCoat2" "LeftRearCoat1" 12.354199 0 0 0 90.000003 -12.283642 0 0 0 0 0 0
$definebone "RightRearCoat1" "Rear_Coat" -5.627 0.067001 0.0874 9.31018 -96.915453 -91.422492 0 0 0 0 0 0
$definebone "RightRearCoat2" "RightRearCoat1" 12.3541 0 0 -90.000003 -102.283647 0 0 0 0 0 0 0
$definebone "Helmet" "Head" 3.372657 0 0 0.000131 -90.000057 -25.65055 0 0 0 0 0 0
$definebone "Human_Commando_Mesh01" "" 0 0 0 0 0 0 0 0 0 0 0 0
$definebone "Human_Commando_HeadHelmet01" "" 0 0 0 0 0 0 0 0 0 0 0 0
$definebone "Human_Commando_HeadNoHelmet01" "" 0 0 0 0 0 0 0 0 0 0 0 0

$poseparameter "move_yaw" -180 180 loop 360
$poseparameter "body_yaw" -90 90 loop 0
$poseparameter "body_pitch" -90 90 loop 0

$ikchain "ltfoot" "LeftFoot"
$ikchain "rtfoot" "RightFoot"
$ikchain "lhand" "LeftHand"
$ikchain "rhand" "RightHand"
$ikchain "larm" "LeftForearm"
$ikchain "rarm" "RightForearm"

$weightlist "weights_ShieldUpIdleOverlay_IKArms" {
	 "Root" 0
	 "Ab1" 0
	 "Ab2" 0
	 "Chest" 0
	 "Neck" 0
	 "Head" 0
	 "RightClavicle" 0
	 "RightBicep" 0
	 "RightForearm" 1
	 "RightHand" 1
	 "RightKnuckles" 1
	 "RightIndex1" 1
	 "RightIndex2" 1
	 "RightIndex3" 1
	 "RightMiddleRingPinky1" 1
	 "RightMiddleRingPinky2" 1
	 "RightMiddleRingPinky3" 1
	 "RightThumb1" 1
	 "RightThumb2" 1
	 "RightThumb3" 1
	 "w_combat_plasmarifle" 1
	 "RightWrist_helper" 1
	 "RightShoulder_helper" 0
	 "Grenade2" 0
	 "Grenade3" 0
	 "LeftClavicle" 0
	 "LeftBicep" 0
	 "LeftForearm" 1
	 "LeftHand" 1
	 "LeftKnuckles" 1
	 "LeftIndex1" 1
	 "LeftIndex2" 1
	 "LeftIndex3" 1
	 "LeftMiddleRingPinky1" 1
	 "LeftMiddleRingPinky2" 1
	 "LeftMiddleRingPinky3" 1
	 "LeftThumb1" 1
	 "LeftThumb2" 1
	 "LeftThumb3" 1
	 "LeftWrist_helper" 1
	 "w_combat_shield" 1
	 "LeftShoulder_helper" 0
	 "Grenade1" 0
	 "Hips" 0
	 "RightThigh" 0
	 "RightCalf" 0
	 "RightFoot" 0
	 "RightToe" 0
	 "RightKnee_Helper" 0
	 "RightHip_Helper" 0
	 "RightThigh_helper" 0
	 "SideArm" 0
	 "Pouch" 0
	 "LeftThigh" 0
	 "LeftCalf" 0
	 "LeftFoot" 0
	 "LeftToe" 0
	 "LeftKnee_Helper" 0
	 "LeftHip_Helper" 0
	 "LeftThigh_helper" 0
	 "Front_Coat" 0
	 "RightFrontCoat1" 0
	 "RightFrontCoat2" 0
	 "LeftFrontCoat1" 0
	 "LeftFrontCoat2" 0
	 "Rear_Coat" 0
	 "LeftRearCoat1" 0
	 "LeftRearCoat2" 0
	 "RightRearCoat1" 0
	 "RightRearCoat2" 0
	 "Helmet" 0
	 "Human_Commando_Mesh01" 0
	 "Human_Commando_HeadHelmet01" 0
	 "Human_Commando_HeadNoHelmet01" 0
}

$weightlist "weights_body_look_yaw" {
	 "Root" 1
	 "Ab1" 1
	 "Ab2" 1
	 "Chest" 1
	 "Neck" 1
	 "Head" 1
	 "RightClavicle" 1
	 "RightBicep" 1
	 "RightForearm" 1
	 "RightHand" 1
	 "RightKnuckles" 1
	 "RightIndex1" 1
	 "RightIndex2" 1
	 "RightIndex3" 1
	 "RightMiddleRingPinky1" 1
	 "RightMiddleRingPinky2" 1
	 "RightMiddleRingPinky3" 1
	 "RightThumb1" 1
	 "RightThumb2" 1
	 "RightThumb3" 1
	 "w_combat_plasmarifle" 1
	 "RightWrist_helper" 1
	 "RightShoulder_helper" 1
	 "Grenade2" 1
	 "Grenade3" 1
	 "LeftClavicle" 1
	 "LeftBicep" 1
	 "LeftForearm" 1
	 "LeftHand" 1
	 "LeftKnuckles" 1
	 "LeftIndex1" 1
	 "LeftIndex2" 1
	 "LeftIndex3" 1
	 "LeftMiddleRingPinky1" 1
	 "LeftMiddleRingPinky2" 1
	 "LeftMiddleRingPinky3" 1
	 "LeftThumb1" 1
	 "LeftThumb2" 1
	 "LeftThumb3" 1
	 "LeftWrist_helper" 1
	 "w_combat_shield" 1
	 "LeftShoulder_helper" 1
	 "Grenade1" 1
	 "Hips" 1
	 "RightThigh" 1
	 "RightCalf" 1
	 "RightFoot" 1
	 "RightToe" 1
	 "RightKnee_Helper" 1
	 "RightHip_Helper" 1
	 "RightThigh_helper" 1
	 "SideArm" 1
	 "Pouch" 1
	 "LeftThigh" 1
	 "LeftCalf" 1
	 "LeftFoot" 1
	 "LeftToe" 1
	 "LeftKnee_Helper" 1
	 "LeftHip_Helper" 1
	 "LeftThigh_helper" 1
	 "Front_Coat" 1
	 "RightFrontCoat1" 1
	 "RightFrontCoat2" 1
	 "LeftFrontCoat1" 1
	 "LeftFrontCoat2" 1
	 "Rear_Coat" 1
	 "LeftRearCoat1" 1
	 "LeftRearCoat2" 1
	 "RightRearCoat1" 1
	 "RightRearCoat2" 1
	 "Helmet" 1
	 "Human_Commando_Mesh01" 0
	 "Human_Commando_HeadHelmet01" 0
	 "Human_Commando_HeadNoHelmet01" 0
}

$weightlist "weights_ShieldUpIdleOverlayRun" {
	 "Root" 0
	 "Ab1" 0.5
	 "Ab2" 0.5
	 "Chest" 0.5
	 "Neck" 0.5
	 "Head" 0.5
	 "RightClavicle" 0.5
	 "RightBicep" 0.5
	 "RightForearm" 0.5
	 "RightHand" 0.5
	 "RightKnuckles" 0.5
	 "RightIndex1" 0.5
	 "RightIndex2" 0.5
	 "RightIndex3" 0.5
	 "RightMiddleRingPinky1" 0.5
	 "RightMiddleRingPinky2" 0.5
	 "RightMiddleRingPinky3" 0.5
	 "RightThumb1" 0.5
	 "RightThumb2" 0.5
	 "RightThumb3" 0.5
	 "w_combat_plasmarifle" 0.5
	 "RightWrist_helper" 0.5
	 "RightShoulder_helper" 0.5
	 "Grenade2" 0.5
	 "Grenade3" 0.5
	 "LeftClavicle" 0.5
	 "LeftBicep" 0.5
	 "LeftForearm" 0.5
	 "LeftHand" 0.5
	 "LeftKnuckles" 0.5
	 "LeftIndex1" 0.5
	 "LeftIndex2" 0.5
	 "LeftIndex3" 0.5
	 "LeftMiddleRingPinky1" 0.5
	 "LeftMiddleRingPinky2" 0.5
	 "LeftMiddleRingPinky3" 0.5
	 "LeftThumb1" 0.5
	 "LeftThumb2" 0.5
	 "LeftThumb3" 0.5
	 "LeftWrist_helper" 0.5
	 "w_combat_shield" 0.5
	 "LeftShoulder_helper" 0.5
	 "Grenade1" 0.5
	 "Hips" 0
	 "RightThigh" 0
	 "RightCalf" 0
	 "RightFoot" 0
	 "RightToe" 0
	 "RightKnee_Helper" 0
	 "RightHip_Helper" 0
	 "RightThigh_helper" 0
	 "SideArm" 0
	 "Pouch" 0
	 "LeftThigh" 0
	 "LeftCalf" 0
	 "LeftFoot" 0
	 "LeftToe" 0
	 "LeftKnee_Helper" 0
	 "LeftHip_Helper" 0
	 "LeftThigh_helper" 0
	 "Front_Coat" 0
	 "RightFrontCoat1" 0
	 "RightFrontCoat2" 0
	 "LeftFrontCoat1" 0
	 "LeftFrontCoat2" 0
	 "Rear_Coat" 0
	 "LeftRearCoat1" 0
	 "LeftRearCoat2" 0
	 "RightRearCoat1" 0
	 "RightRearCoat2" 0
	 "Helmet" 0.5
	 "Human_Commando_Mesh01" 0
	 "Human_Commando_HeadHelmet01" 0
	 "Human_Commando_HeadNoHelmet01" 0
}

$weightlist "weights_run_all_shield" {
	 "Root" 0
	 "Ab1" 0
	 "Ab2" 0
	 "Chest" 0
	 "Neck" 0
	 "Head" 0
	 "RightClavicle" 1
	 "RightBicep" 1
	 "RightForearm" 1
	 "RightHand" 1
	 "RightKnuckles" 1
	 "RightIndex1" 1
	 "RightIndex2" 1
	 "RightIndex3" 1
	 "RightMiddleRingPinky1" 1
	 "RightMiddleRingPinky2" 1
	 "RightMiddleRingPinky3" 1
	 "RightThumb1" 1
	 "RightThumb2" 1
	 "RightThumb3" 1
	 "w_combat_plasmarifle" 1
	 "RightWrist_helper" 1
	 "RightShoulder_helper" 1
	 "Grenade2" 1
	 "Grenade3" 1
	 "LeftClavicle" 1
	 "LeftBicep" 1
	 "LeftForearm" 1
	 "LeftHand" 1
	 "LeftKnuckles" 1
	 "LeftIndex1" 1
	 "LeftIndex2" 1
	 "LeftIndex3" 1
	 "LeftMiddleRingPinky1" 1
	 "LeftMiddleRingPinky2" 1
	 "LeftMiddleRingPinky3" 1
	 "LeftThumb1" 1
	 "LeftThumb2" 1
	 "LeftThumb3" 1
	 "LeftWrist_helper" 1
	 "w_combat_shield" 1
	 "LeftShoulder_helper" 1
	 "Grenade1" 1
	 "Hips" 1
	 "RightThigh" 1
	 "RightCalf" 1
	 "RightFoot" 1
	 "RightToe" 1
	 "RightKnee_Helper" 1
	 "RightHip_Helper" 1
	 "RightThigh_helper" 1
	 "SideArm" 1
	 "Pouch" 1
	 "LeftThigh" 1
	 "LeftCalf" 1
	 "LeftFoot" 1
	 "LeftToe" 1
	 "LeftKnee_Helper" 1
	 "LeftHip_Helper" 1
	 "LeftThigh_helper" 1
	 "Front_Coat" 1
	 "RightFrontCoat1" 1
	 "RightFrontCoat2" 1
	 "LeftFrontCoat1" 1
	 "LeftFrontCoat2" 1
	 "Rear_Coat" 1
	 "LeftRearCoat1" 1
	 "LeftRearCoat2" 1
	 "RightRearCoat1" 1
	 "RightRearCoat2" 1
	 "Helmet" 1
	 "Human_Commando_Mesh01" 1
	 "Human_Commando_HeadHelmet01" 1
	 "Human_Commando_HeadNoHelmet01" 1
}


// run_all/run_all_shield/walk_all = RunS
// run_all_2/run_all_shield_2/walk_all_2 = RunSE
// run_all_3/run_all_shield_3/walk_all_3 = RunE
// run_all_4/run_all_shield_4/walk_all_4 = RunNE
// run_all_5/run_all_shield_5/walk_all_5 = RunN
// run_all_6/run_all_shield_6/walk_all_6 = RunNW
// run_all_7/run_all_shield_7/walk_all_7 = RunW
// run_all_8/run_all_shield_8/walk_all_8 = RunSW
// run_all_9/run_all_shield_9/walk_all_9 = RunS
//
// run_all_5/run_all_shield_5/walk_all_5 ~~ Run/Walk

// Original model contains 33 sequences

$animation "a_Idle" "human_commando_anims\Idle.smd" {
	fps 30
	loop
}

$animation "a_Idle2" "human_commando_anims\Idle2.smd" {
	fps 30
	loop
}

$animation "a_Idle3" "human_commando_anims\Idle3.smd" {
	fps 30
	loop
}

$animation "a_Idle4" "human_commando_anims\Idle4.smd" {
	fps 30
}

$animation "a_TurnFeetIK" "human_commando_anims\TurnFeetIK.smd" {
	fps 30
	loop
}

$animation "a_Run" "human_commando_anims\Run.smd" {
	fps 30
	loop
	walkframe 20 LX
}

$animation "a_Walk" "human_commando_anims\Walk.smd" {
	fps 30
	loop
	walkframe 20 LX
}

$animation "a_RunS" "human_commando_anims\RunS.smd" {
	fps 30
	walkframe 20 LX
}

$animation "a_RunSE" "human_commando_anims\RunSE.smd" {
	fps 30
	walkframe 20 LX LY
}

$animation "a_RunE" "human_commando_anims\RunE.smd" {
	fps 30
	walkframe 20 LY
}

$animation "a_RunNE" "human_commando_anims\RunNE.smd" {
	fps 30
	walkframe 20 LX LY
}

$animation "a_RunN" "human_commando_anims\RunN.smd" {
	fps 30
	walkframe 20 LX
}

$animation "a_RunNW" "human_commando_anims\RunNW.smd" {
	fps 30
	walkframe 20 LX LY
}

$animation "a_RunW" "human_commando_anims\RunW.smd" {
	fps 30
	walkframe 20 LY
}

$animation "a_RunSW" "human_commando_anims\RunSW.smd" {
	fps 30
	walkframe 20 LX LY
}

/*
$animation "a_run_all" "human_commando_anims\run_all.smd" {
	fps 30
	loop
}

$animation "a_run_all" "human_commando_anims\run_all_2.smd" {
	fps 30
}

$animation "a_run_all" "human_commando_anims\run_all_3.smd" {
	fps 30
}

$animation "a_run_all" "human_commando_anims\run_all_4.smd" {
	fps 30
}

$animation "a_run_all" "human_commando_anims\run_all_5.smd" {
	fps 30
}

$animation "a_run_all" "human_commando_anims\run_all_6.smd" {
	fps 30
}

$animation "a_run_all" "human_commando_anims\run_all_7.smd" {
	fps 30
}

$animation "a_run_all" "human_commando_anims\run_all_8.smd" {
	fps 30
}

$animation "a_run_all" "human_commando_anims\run_all_9.smd" {
	fps 30
}

$animation "a_walk_all" "human_commando_anims\walk_all.smd" {
	fps 30
	loop
}

$animation "a_walk_all" "human_commando_anims\walk_all_2.smd" {
	fps 30
}

$animation "a_walk_all" "human_commando_anims\walk_all_3.smd" {
	fps 30
}

$animation "a_walk_all" "human_commando_anims\walk_all_4.smd" {
	fps 30
}

$animation "a_walk_all" "human_commando_anims\walk_all_5.smd" {
	fps 30
}

$animation "a_walk_all" "human_commando_anims\walk_all_6.smd" {
	fps 30
}

$animation "a_walk_all" "human_commando_anims\walk_all_7.smd" {
	fps 30
}

$animation "a_walk_all" "human_commando_anims\walk_all_8.smd" {
	fps 30
}

$animation "a_walk_all" "human_commando_anims\walk_all_9.smd" {
	fps 30
}
*/

$animation "a_CrouchIdle" "human_commando_anims\CrouchIdle.smd" {
	fps 30
	loop
}

$animation "a_CrouchRun" "human_commando_anims\CrouchRun.smd" {
	fps 30
	loop
	walkframe 20 LX
}

$animation "a_ManningGunPose" "human_commando_anims\ManningGunPose.smd" {
	fps 30
}

$animation "a_IdleAims" "human_commando_anims\IdleAims.smd" {
	fps 30
}

$animation "a_ShieldUpIdleOverlay_IKArms" "human_commando_anims\ShieldUpIdleOverlay_IKArms.smd" {
	fps 30
}

$animation "a_ShieldUpOverlay_IKArms" "human_commando_anims\ShieldUpOverlay_IKArms.smd" {
	fps 30
}

$animation "a_ShieldDownOverlay_IKArms" "human_commando_anims\ShieldDownOverlay_IKArms.smd" {
	fps 30
}

$animation "a_ShieldUp" "human_commando_anims\ShieldUp.smd" {
	fps 30
}

$animation "a_ShieldDown" "human_commando_anims\ShieldDown.smd" {
	fps 30
}

$animation "a_ShieldUpIdle" "human_commando_anims\ShieldUpIdle.smd" {
	fps 30
	loop
}

$animation "a_ShieldParry" "human_commando_anims\ShieldParry.smd" {
	fps 30
	loop
}

$animation "a_body_neutral" "human_commando_anims\a_body_neutral.smd" {
	fps 30
}

$animation "a_body_L" "human_commando_anims\a_body_L.smd" {
	fps 30
}

$animation "a_body_M" "human_commando_anims\a_body_M.smd" {
	fps 30
}

$animation "a_body_R" "human_commando_anims\a_body_R.smd" {
	fps 30
}

$animation "a_body_LU" "human_commando_anims\a_body_LU.smd" {
	fps 30
}

$animation "a_body_U" "human_commando_anims\a_body_U.smd" {
	fps 30
}

$animation "a_body_RU" "human_commando_anims\a_body_RU.smd" {
	fps 30
}

$animation "a_body_LD" "human_commando_anims\a_body_LD.smd" {
	fps 30
}

$animation "a_body_D" "human_commando_anims\a_body_D.smd" {
	fps 30
}

$animation "a_body_RD" "human_commando_anims\a_body_RD.smd" {
	fps 30
}

$animation "a_ShieldUpIdleOverlayRun" "human_commando_anims\ShieldUpIdleOverlayRun.smd" {
	fps 30
}

/*
$animation "a_run_all_shield" "human_commando_anims\run_all_shield.smd" {
	fps 30
	loop
}

$animation "a_run_all_shield" "human_commando_anims\run_all_shield_2.smd" {
	fps 30
}

$animation "a_run_all_shield" "human_commando_anims\run_all_shield_3.smd" {
	fps 30
}

$animation "a_run_all_shield" "human_commando_anims\run_all_shield_4.smd" {
	fps 30
}
*/
/*
$animation "a_run_all_shield" "human_commando_anims\run_all_shield_5.smd" {
	fps 30
	walkframe 20 LX
}
*/
/*
$animation "a_run_all_shield" "human_commando_anims\run_all_shield_6.smd" {
	fps 30
}

$animation "a_run_all_shield" "human_commando_anims\run_all_shield_7.smd" {
	fps 30
}

$animation "a_run_all_shield" "human_commando_anims\run_all_shield_8.smd" {
	fps 30
}

$animation "a_run_all_shield" "human_commando_anims\run_all_shield_9.smd" {
	fps 30
}
*/

$animation "a_ragdoll" "human_commando_anims\ragdoll.smd" {
	fps 30
}

$sequence "Idle" {
	a_Idle
	activity "ACT_IDLE" 1
	fadein 0
	fadeout 0
}

$sequence "Idle2" {
	a_Idle2
	activity "ACT_IDLE" 1
	fadein 0
	fadeout 0
}

$sequence "Idle3" {
	a_Idle3
	activity "ACT_IDLE" 1
	fadein 0
	fadeout 0
}

$sequence "Idle4" {
	a_Idle4
	activity "ACT_IDLE" 1
	fadein 0
	fadeout 0
}

$sequence "TurnFeetIK" {
	a_TurnFeetIK
	activity "ACT_TURN" 1
//	blend "move_yaw" 0 0
//	blend "move_yaw" 0 0
	fadein 0
	fadeout 0
}

$sequence "Run" {
	a_Run
	activity "ACT_RUN" 1
	fadein 0
	fadeout 0
}

$sequence "Walk" {
	a_Walk
	activity "ACT_WALK" 1
	fadein 0
	fadeout 0
}

$sequence "RunS" {
	a_RunS
	fadein 0
	fadeout 0
}

$sequence "RunSE" {
	a_RunSE
	fadein 0
	fadeout 0
}

$sequence "RunE" {
	a_RunE
	fadein 0
	fadeout 0
}

$sequence "RunNE" {
	a_RunNE
	fadein 0
	fadeout 0
}

$sequence "RunN" {
	a_RunN
	fadein 0
	fadeout 0
}

$sequence "RunNW" {
	a_RunNW
	fadein 0
	fadeout 0
}

$sequence "RunW" {
	a_RunW
	fadein 0
	fadeout 0
}

$sequence "RunSW" {
	a_RunSW
	fadein 0
	fadeout 0
}

$sequence "run_all" {
	a_RunSW a_RunS a_RunSE
	a_RunW  a_Run  a_RunE
	a_RunNW a_RunN a_RunNE
	activity "ACT_RUN" 1
//	blendwidth 3
	blendwidth 9
	blend "move_yaw" -180 180
	fadein 0
	fadeout 0
}

$sequence "walk_all" {
	a_RunSW a_RunS a_RunSE
	a_RunW  a_Run  a_RunE
	a_RunNW a_RunN a_RunNE
	activity "ACT_WALK" 1
//	blendwidth 3
	blendwidth 9
	blend "move_yaw" -180 180
	fadein 0
	fadeout 0
}

$sequence "CrouchIdle" {
	"human_commando_anims\CrouchIdle.smd"
	activity "ACT_CROUCHIDLE" 1
	fadein 0
	fadeout 0
}

$sequence "CrouchRun" {
	"human_commando_anims\CrouchRun.smd"
	activity "ACT_CROUCH" 1
	fadein 0
	fadeout 0
}

$sequence "ManningGunPose" {
	"human_commando_anims\ManningGunPose.smd"
	activity "ACT_RIDE_MANNED_GUN" 1
	fadein 0
	fadeout 0
}

$sequence "IdleAims" {
	"human_commando_anims\IdleAims.smd"
	fadein 0
	fadeout 0
}

$sequence "ShieldUpIdleOverlay_IKArms" {
	"human_commando_anims\ShieldUpIdleOverlay_IKArms.smd"
	activity "ACT_OVERLAY_SHIELD_UP_IDLE" 1
	fadein 0
	fadeout 0
}

$sequence "ShieldUpOverlay_IKArms" {
	"human_commando_anims\ShieldUpOverlay_IKArms.smd"
	activity "ACT_OVERLAY_SHIELD_UP" 1
	fadein 0
	fadeout 0
}

$sequence "ShieldDownOverlay_IKArms" {
	"human_commando_anims\ShieldDownOverlay_IKArms.smd"
	activity "ACT_OVERLAY_SHIELD_DOWN" 1
	fadein 0
	fadeout 0
}

$sequence "ShieldUp" {
	"human_commando_anims\ShieldUp.smd"
	activity "ACT_SHIELD_UP" 1
	fadein 0
	fadeout 0
}

$sequence "ShieldDown" {
	"human_commando_anims\ShieldDown.smd"
	activity "ACT_SHIELD_DOWN" 1
	fadein 0
	fadeout 0
}

$sequence "ShieldUpIdle" {
	"human_commando_anims\ShieldUpIdle.smd"
	activity "ACT_SHIELD_UP_IDLE" 1
	fadein 0
	fadeout 0
}

$sequence "ShieldParry" {
	"human_commando_anims\ShieldParry.smd"
	activity "ACT_SHIELD_ATTACK" 1
	fadein 0
	fadeout 0
}

$sequence "body_look_yaw" {
	a_body_R a_body_M a_body_L
	autoplay
	blend "body_yaw" -90 90
	delta
	fadein 0
	fadeout 0
}

$sequence "body_pitch" {
	a_body_U a_body_M a_body_D
	autoplay
	blend "body_pitch" -90 90
	delta
	fadein 0
	fadeout 0
}

$sequence "ShieldUpIdleOverlayRun" {
	"human_commando_anims\ShieldUpIdleOverlayRun.smd"
	activity "ACT_PERF_OVERLAY_SHIELD_UP_IDLE" 1
	fadein 0
	fadeout 0
}

// VXP: FIXME: Unfortunatelly, Crowbar cannot properly decompile
// animations for that sequence. Too bad
$sequence "run_all_shield" {
	a_RunSW a_RunS a_RunSE
	a_RunW  a_Run  a_RunE
	a_RunNW a_RunN a_RunNE
	activity "ACT_RUN_PROTECTED" 1
//	blendwidth 3
	blendwidth 9
	blend "move_yaw" -180 180
	fadein 0
	fadeout 0
}

$sequence "ragdoll" {
	"human_commando_anims\ragdoll.smd"
	activity "ACT_DIERAGDOLL" 1
	fadein 0
	fadeout 0
}


$collisionjoints "human_commando_physics.smd"
{
	$mass 100
	$inertia 5
	$damping 0.01
	$rotdamping 1.5
	$rootbone "hips"


	$jointrotdamping "LeftThigh" 10
	$jointconstrain "LeftThigh" x limit -15 15 1
	$jointconstrain "LeftThigh" y limit -17 11 1
	$jointconstrain "LeftThigh" z limit -55 15 1

	$jointrotdamping "LeftCalf" 10
	$jointconstrain "LeftCalf" x limit 0 0 1
	$jointconstrain "LeftCalf" y limit 0 0 1
	$jointconstrain "LeftCalf" z limit 0 100 1

	$jointrotdamping "LeftFoot" 10
	$jointconstrain "LeftFoot" x limit -20 20 1
	$jointconstrain "LeftFoot" y limit -10 10 1
	$jointconstrain "LeftFoot" z limit -10 10 1

	$jointrotdamping "RightThigh" 10
	$jointconstrain "RightThigh" x limit -15 15 1
	$jointconstrain "RightThigh" y limit -17 11 1
	$jointconstrain "RightThigh" z limit -15 55 1

	$jointrotdamping "RightCalf" 10
	$jointconstrain "RightCalf" x limit 0 0 1
	$jointconstrain "RightCalf" y limit 0 0 1
	$jointconstrain "RightCalf" z limit -100 0 1

	$jointrotdamping "RightFoot" 10
	$jointconstrain "RightFoot" x limit -20 20 1
	$jointconstrain "RightFoot" y limit -10 10 1
	$jointconstrain "RightFoot" z limit -10 10 1

	$jointconstrain "Ab1" x limit -41 10 1
	$jointconstrain "Ab1" y limit -30 30 1
	$jointconstrain "Ab1" z limit -10 10 1

	$jointdamping "LeftBicep" 1
	$jointconstrain "LeftBicep" x limit -25 50 1
	$jointconstrain "LeftBicep" y limit -20 20 1
	$jointconstrain "LeftBicep" z limit -30 20 1

	$jointdamping "LeftForearm" 1
	$jointconstrain "LeftForearm" x limit 0 100 1
	$jointconstrain "LeftForearm" y limit -20 20 1
	$jointconstrain "LeftForearm" z limit 0 0 1

	$jointdamping "RightBicep" 1
	$jointconstrain "RightBicep" x limit -25 50 1
	$jointconstrain "RightBicep" y limit -20 20 1
	$jointconstrain "RightBicep" z limit -30 20 1

	$jointdamping "RightForearm" 1
	$jointconstrain "RightForearm" x limit 0 100 1
	$jointconstrain "RightForearm" y limit -20 20 1
	$jointconstrain "RightForearm" z limit 0 0 1

	$jointdamping "RightHand" 1
	$jointconstrain "RightHand" x limit -20 10 1
	$jointconstrain "RightHand" y limit -15 15 1
	$jointconstrain "RightHand" z limit -25 25 1

	$jointconstrain "Head" x limit -15 15 1
	$jointconstrain "Head" y limit -20 20 1
	$jointconstrain "Head" z limit -60 60 1

	$jointdamping "LeftHand" 1
	$jointconstrain "LeftHand" x limit -20 10 1
	$jointconstrain "LeftHand" y limit -15 15 1
	$jointconstrain "LeftHand" z limit -25 25 1

	$jointrotdamping "Front_Coat" 10
	$jointconstrain "Front_Coat" x limit 0 70 1
	$jointconstrain "Front_Coat" y limit -21 21 1
	$jointconstrain "Front_Coat" z limit -10 10 1
}
