version 1
nodes
  0 "Bip01" -1
  1 "ValveBiped.Bip01_Pelvis" 0
  2 "ValveBiped.Bip01_Spine" 1
  3 "ValveBiped.Bip01_Spine1" 2
  4 "ValveBiped.Bip01_Spine2" 3
  5 "ValveBiped.Bip01_Spine3" 4
  6 "ValveBiped.Bip01_Neck1" 5
  7 "ValveBiped.Bip01_R_Clavicle" 6
  8 "ValveBiped.Bip01_R_UpperArm" 7
  9 "ValveBiped.Bip01_R_Forearm" 8
  10 "ValveBiped.Bip01_R_Hand" 9
  11 "ValveBiped.Bip01_R_Finger0" 10
  12 "ValveBiped.Bip01_R_Finger01" 11
  13 "ValveBiped.Bip01_R_Finger02" 12
  14 "ValveBiped.Bip01_R_Finger1" 10
  15 "ValveBiped.Bip01_R_Finger11" 14
  16 "ValveBiped.Bip01_R_Finger12" 15
  17 "ValveBiped.Bip01_R_Finger2" 10
  18 "ValveBiped.Bip01_R_Finger21" 17
  19 "ValveBiped.Bip01_R_Finger22" 18
  20 "ValveBiped.Bip01_R_Finger3" 10
  21 "ValveBiped.Bip01_R_Finger31" 20
  22 "ValveBiped.Bip01_R_Finger32" 21
  23 "ValveBiped.Bip01_R_Finger4" 10
  24 "ValveBiped.Bip01_R_Finger41" 23
  25 "ValveBiped.Bip01_R_Finger42" 24
  26 "Dummy22" 10
  27 "Box03" 26
  28 "ValveBiped.Bip01_L_Clavicle" 6
  29 "ValveBiped.Bip01_L_UpperArm" 28
  30 "ValveBiped.Bip01_L_Forearm" 29
  31 "ValveBiped.Bip01_L_Hand" 30
  32 "ValveBiped.Bip01_L_Finger0" 31
  33 "ValveBiped.Bip01_L_Finger01" 32
  34 "ValveBiped.Bip01_L_Finger02" 33
  35 "ValveBiped.Bip01_L_Finger1" 31
  36 "ValveBiped.Bip01_L_Finger11" 35
  37 "ValveBiped.Bip01_L_Finger12" 36
  38 "ValveBiped.Bip01_L_Finger2" 31
  39 "ValveBiped.Bip01_L_Finger21" 38
  40 "ValveBiped.Bip01_L_Finger22" 39
  41 "ValveBiped.Bip01_L_Finger3" 31
  42 "ValveBiped.Bip01_L_Finger31" 41
  43 "ValveBiped.Bip01_L_Finger32" 42
  44 "ValveBiped.Bip01_L_Finger4" 31
  45 "ValveBiped.Bip01_L_Finger41" 44
  46 "ValveBiped.Bip01_L_Finger42" 45
  47 "Dummy22 shield" -1
  48 "Group02" 47
  49 "MESH_Leftarm07" 48
  50 "shield03" 48
end
skeleton
  time 0
    0 -1.066439 2.402959 -14.154867 0.000000 0.000000 -1.570795
    1 0.000000 0.000000 0.000000 -1.570795 -1.570451 0.000000
    2 3.435066 -0.003090 0.000005 -0.000004 -0.000001 0.000796
    3 3.883118 -0.003092 0.000000 0.000000 0.000000 0.000000
    4 3.883117 -0.003092 0.000000 0.000000 0.000000 0.000000
    5 3.883116 -0.003092 0.000000 0.000000 0.000000 0.000000
    6 3.883120 -0.001784 0.000000 0.000000 0.000000 0.000000
    7 -0.000004 0.001787 -1.045454 -0.000014 1.370796 3.140783
    8 3.883118 0.000000 0.000002 0.046582 -1.279056 -0.112261
    9 8.961040 0.000000 0.000000 0.000000 0.000000 -0.175395
    10 8.961037 -0.000003 -0.000001 2.104005 -0.232726 -0.150645
    11 0.642857 0.500634 1.160049 0.885801 -0.544499 0.437221
    12 1.164114 0.000000 0.000000 0.000000 0.000000 -0.183260
    13 0.947481 0.000000 0.000002 0.000000 0.000000 -1.082104
    14 2.889327 -0.168189 1.032871 0.017995 -0.074317 1.349524
    15 1.200779 0.000000 0.000000 0.000000 0.000000 1.256617
    16 0.740581 0.000000 0.000001 0.000000 0.000000 1.029733
    17 2.985631 -0.166489 0.361957 0.000176 -0.000776 1.361331
    18 1.223182 -0.000001 -0.000002 0.000000 0.000000 1.518435
    19 0.950414 0.000002 0.000002 0.000000 0.000000 0.715585
    20 2.848550 -0.167755 -0.254626 0.031233 -0.013999 1.364732
    21 1.263505 -0.000001 0.000001 0.000000 0.000000 1.335173
    22 0.753029 -0.000001 0.000001 0.000000 0.000000 0.890118
    23 2.575171 -0.170754 -0.868188 0.107652 0.017413 1.355104
    24 1.008117 0.000000 0.000003 0.000000 0.000000 0.881391
    25 0.643753 0.000000 -0.000003 0.000000 0.000000 1.335176
    26 2.146242 0.592750 0.023151 1.557892 0.060258 -3.096330
    27 0.387148 -0.498516 0.349054 3.054178 -0.183253 0.141167
    28 -0.000004 0.001781 1.045454 -0.000014 -1.370796 3.140810
    29 3.883118 0.000000 -0.000001 -0.010387 1.358063 0.000000
    30 8.961039 0.000000 0.000000 0.000000 0.000000 -0.009588
    31 8.961033 0.000000 0.000001 -1.570000 0.000000 0.061087
    32 0.642856 0.500634 -1.160048 -1.571868 0.733038 -0.000717
    33 1.164114 0.000001 0.000000 0.000000 0.000000 -0.034907
    34 0.947481 0.000001 0.000000 0.000000 0.000000 -0.226893
    35 2.889326 -0.168189 -1.032868 0.006493 0.165682 0.044106
    36 1.200780 0.000000 0.000000 0.000000 0.000000 0.000000
    37 0.740581 0.000000 0.000000 0.000000 0.000000 0.000000
    38 2.985631 -0.166489 -0.361957 -0.000795 0.000049 0.061086
    39 1.223182 0.000000 0.000000 0.000000 0.000000 0.000000
    40 0.950413 0.000000 0.000000 0.000000 0.000000 0.000000
    41 2.848550 -0.167755 0.254626 -0.007323 -0.148176 0.044236
    42 1.263504 0.000000 0.000000 0.000000 0.000000 0.000000
    43 0.753029 0.000000 0.000000 0.000000 0.000000 0.000000
    44 2.575171 -0.170754 0.868192 -0.010835 -0.279049 0.036540
    45 1.008116 0.000000 0.000001 0.000000 0.000000 0.000000
    46 0.643754 -0.000001 -0.000001 0.000000 0.000000 0.000000
    47 14.847582 -3.388041 -2.031404 1.285763 -0.260785 2.420014
    48 0.454796 -0.563540 0.294497 -1.570796 -1.570796 0.000000
    49 -8.172240 -11.120867 3.084627 -0.022793 -0.144156 1.041569
    50 -2.585006 0.708454 4.100227 -0.022793 -0.144156 1.041569
  time 1
    0 -1.066439 2.402959 -14.154867 0.000000 0.000000 -1.570795
    1 0.000000 0.000000 0.000000 -1.570795 -1.570451 0.000000
    2 3.435066 -0.003090 0.000005 -0.000004 -0.000001 0.000796
    3 3.883118 -0.003092 0.000000 0.000000 0.000000 0.000000
    4 3.883117 -0.003092 0.000000 0.000000 0.000000 0.000000
    5 3.883116 -0.003092 0.000000 0.000000 0.000000 0.000000
    6 3.883120 -0.001784 0.000000 0.000000 0.000000 0.000000
    7 -0.000004 0.001787 -1.045454 -0.000014 1.370796 3.140783
    8 3.883118 0.000000 0.000002 0.117345 -1.274034 -0.186575
    9 8.961040 0.000000 0.000000 0.000000 0.000000 -0.277834
    10 8.961037 -0.000003 -0.000001 2.040597 -0.255450 -0.151987
    11 0.642857 0.500634 1.160049 0.885801 -0.544499 0.437221
    12 1.164114 0.000000 0.000000 0.000000 0.000000 -0.183260
    13 0.947481 0.000000 0.000002 0.000000 0.000000 -1.082104
    14 2.889327 -0.168189 1.032871 0.017995 -0.074317 1.349524
    15 1.200779 0.000000 0.000000 0.000000 0.000000 1.256617
    16 0.740581 0.000000 0.000001 0.000000 0.000000 1.029733
    17 2.985631 -0.166489 0.361957 0.000176 -0.000776 1.361331
    18 1.223182 -0.000001 -0.000002 0.000000 0.000000 1.518435
    19 0.950414 0.000002 0.000002 0.000000 0.000000 0.715585
    20 2.848550 -0.167755 -0.254626 0.031233 -0.013999 1.364732
    21 1.263505 -0.000001 0.000001 0.000000 0.000000 1.335173
    22 0.753029 -0.000001 0.000001 0.000000 0.000000 0.890118
    23 2.575171 -0.170754 -0.868188 0.107652 0.017413 1.355104
    24 1.008117 0.000000 0.000003 0.000000 0.000000 0.881391
    25 0.643753 0.000000 -0.000003 0.000000 0.000000 1.335176
    26 2.146242 0.592750 0.023151 1.557892 0.060258 -3.096330
    27 0.387148 -0.498516 0.349054 3.054178 -0.183253 0.141167
    28 -0.000004 0.001781 1.045454 -0.000014 -1.370796 3.140810
    29 3.883118 0.000000 -0.000001 -0.010387 1.358063 0.000000
    30 8.961039 0.000000 0.000000 0.000000 0.000000 -0.009588
    31 8.961033 0.000000 0.000001 -1.570000 0.000000 0.061087
    32 0.642856 0.500634 -1.160048 -1.571868 0.733038 -0.000717
    33 1.164114 0.000001 0.000000 0.000000 0.000000 -0.034907
    34 0.947481 0.000001 0.000000 0.000000 0.000000 -0.226893
    35 2.889326 -0.168189 -1.032868 0.006493 0.165682 0.044106
    36 1.200780 0.000000 0.000000 0.000000 0.000000 0.000000
    37 0.740581 0.000000 0.000000 0.000000 0.000000 0.000000
    38 2.985631 -0.166489 -0.361957 -0.000795 0.000049 0.061086
    39 1.223182 0.000000 0.000000 0.000000 0.000000 0.000000
    40 0.950413 0.000000 0.000000 0.000000 0.000000 0.000000
    41 2.848550 -0.167755 0.254626 -0.007323 -0.148176 0.044236
    42 1.263504 0.000000 0.000000 0.000000 0.000000 0.000000
    43 0.753029 0.000000 0.000000 0.000000 0.000000 0.000000
    44 2.575171 -0.170754 0.868192 -0.010835 -0.279049 0.036540
    45 1.008116 0.000000 0.000001 0.000000 0.000000 0.000000
    46 0.643754 -0.000001 -0.000001 0.000000 0.000000 0.000000
    47 14.410069 -3.891963 -2.031404 1.311745 -0.251676 2.359157
    48 0.454796 -0.563540 0.294497 -1.570796 -1.570796 0.000000
    49 -8.172240 -11.120867 3.084627 -0.022793 -0.144156 1.041569
    50 -2.585006 0.708454 4.100227 -0.022793 -0.144156 1.041569
  time 2
    0 -1.066439 2.402959 -14.154867 0.000000 0.000000 -1.570795
    1 0.000000 0.000000 0.000000 -1.570795 -1.570451 0.000000
    2 3.435066 -0.003090 0.000005 -0.000004 -0.000001 0.000796
    3 3.883118 -0.003092 0.000000 0.000000 0.000000 0.000000
    4 3.883117 -0.003092 0.000000 0.000000 0.000000 0.000000
    5 3.883116 -0.003092 0.000000 0.000000 0.000000 0.000000
    6 3.883120 -0.001784 0.000000 0.000000 0.000000 0.000000
    7 -0.000004 0.001787 -1.045454 -0.000014 1.370796 3.140783
    8 3.883118 0.000000 0.000002 0.187630 -1.267302 -0.260583
    9 8.961040 0.000000 0.000000 0.000000 0.000000 -0.384151
    10 8.961037 -0.000003 -0.000001 1.970886 -0.281003 -0.151771
    11 0.642857 0.500634 1.160049 0.885801 -0.544499 0.437221
    12 1.164114 0.000000 0.000000 0.000000 0.000000 -0.183260
    13 0.947481 0.000000 0.000002 0.000000 0.000000 -1.082104
    14 2.889327 -0.168189 1.032871 0.017995 -0.074317 1.349524
    15 1.200779 0.000000 0.000000 0.000000 0.000000 1.256617
    16 0.740581 0.000000 0.000001 0.000000 0.000000 1.029745
    17 2.985631 -0.166489 0.361957 0.000176 -0.000776 1.361331
    18 1.223182 -0.000001 -0.000002 0.000000 0.000000 1.518435
    19 0.950414 0.000002 0.000002 0.000000 0.000000 0.715585
    20 2.848550 -0.167755 -0.254626 0.031233 -0.013999 1.364732
    21 1.263505 -0.000001 0.000001 0.000000 0.000000 1.335173
    22 0.753029 -0.000001 0.000001 0.000000 0.000000 0.890118
    23 2.575171 -0.170754 -0.868188 0.107652 0.017413 1.355104
    24 1.008117 0.000000 0.000003 0.000000 0.000000 0.881391
    25 0.643753 0.000000 -0.000003 0.000000 0.000000 1.335176
    26 2.146242 0.592750 0.023151 1.557892 0.060258 -3.096330
    27 0.387148 -0.498516 0.349054 3.054178 -0.183253 0.141167
    28 -0.000004 0.001781 1.045454 -0.000014 -1.370796 3.140810
    29 3.883118 0.000000 -0.000001 -0.010387 1.358063 0.000000
    30 8.961039 0.000000 0.000000 0.000000 0.000000 -0.009588
    31 8.961033 0.000000 0.000001 -1.570000 0.000000 0.061087
    32 0.642856 0.500634 -1.160048 -1.571868 0.733038 -0.000717
    33 1.164114 0.000001 0.000000 0.000000 0.000000 -0.034907
    34 0.947481 0.000001 0.000000 0.000000 0.000000 -0.226893
    35 2.889326 -0.168189 -1.032868 0.006493 0.165682 0.044106
    36 1.200780 0.000000 0.000000 0.000000 0.000000 0.000000
    37 0.740581 0.000000 0.000000 0.000000 0.000000 0.000000
    38 2.985631 -0.166489 -0.361957 -0.000795 0.000049 0.061086
    39 1.223182 0.000000 0.000000 0.000000 0.000000 0.000000
    40 0.950413 0.000000 0.000000 0.000000 0.000000 0.000000
    41 2.848550 -0.167755 0.254626 -0.007323 -0.148176 0.044236
    42 1.263504 0.000000 0.000000 0.000000 0.000000 0.000000
    43 0.753029 0.000000 0.000000 0.000000 0.000000 0.000000
    44 2.575171 -0.170754 0.868192 -0.010835 -0.279049 0.036540
    45 1.008116 0.000000 0.000001 0.000000 0.000000 0.000000
    46 0.643754 -0.000001 -0.000001 0.000000 0.000000 0.000000
    47 14.003807 -4.372446 -2.031404 1.337727 -0.240842 2.297119
    48 0.454796 -0.563540 0.294497 -1.570796 -1.570796 0.000000
    49 -8.172240 -11.120867 3.084627 -0.022793 -0.144156 1.041569
    50 -2.585006 0.708454 4.100227 -0.022793 -0.144156 1.041569
  time 3
    0 -1.066439 2.402959 -14.154867 0.000000 0.000000 -1.570795
    1 0.000000 0.000000 0.000000 -1.570795 -1.570451 0.000000
    2 3.435066 -0.003090 0.000005 -0.000004 -0.000001 0.000796
    3 3.883118 -0.003092 0.000000 0.000000 0.000000 0.000000
    4 3.883117 -0.003092 0.000000 0.000000 0.000000 0.000000
    5 3.883116 -0.003092 0.000000 0.000000 0.000000 0.000000
    6 3.883120 -0.001784 0.000000 0.000000 0.000000 0.000000
    7 -0.000004 0.001787 -1.045454 -0.000014 1.370796 3.140783
    8 3.883118 0.000000 0.000002 0.255848 -1.258860 -0.332562
    9 8.961040 0.000000 0.000000 0.000000 0.000000 -0.492896
    10 8.961037 -0.000003 -0.000001 1.896848 -0.308234 -0.149506
    11 0.642857 0.500634 1.160049 0.885801 -0.544499 0.437221
    12 1.164114 0.000000 0.000000 0.000000 0.000000 -0.183260
    13 0.947481 0.000000 0.000002 0.000000 0.000000 -1.082104
    14 2.889327 -0.168189 1.032871 0.017995 -0.074317 1.349524
    15 1.200779 0.000000 0.000000 0.000000 0.000000 1.256617
    16 0.740581 0.000000 0.000001 0.000000 0.000000 1.029733
    17 2.985631 -0.166489 0.361957 0.000176 -0.000776 1.361331
    18 1.223182 -0.000001 -0.000002 0.000000 0.000000 1.518435
    19 0.950414 0.000002 0.000002 0.000000 0.000000 0.715585
    20 2.848550 -0.167755 -0.254626 0.031233 -0.013999 1.364732
    21 1.263505 -0.000001 0.000001 0.000000 0.000000 1.335173
    22 0.753029 -0.000001 0.000001 0.000000 0.000000 0.890118
    23 2.575171 -0.170754 -0.868188 0.107652 0.017413 1.355104
    24 1.008117 0.000000 0.000003 0.000000 0.000000 0.881391
    25 0.643753 0.000000 -0.000003 0.000000 0.000000 1.335176
    26 2.146242 0.592750 0.023151 1.557892 0.060258 -3.096330
    27 0.387148 -0.498516 0.349054 3.054178 -0.183253 0.141167
    28 -0.000004 0.001781 1.045454 -0.000014 -1.370796 3.140810
    29 3.883118 0.000000 -0.000001 -0.010387 1.358063 0.000000
    30 8.961039 0.000000 0.000000 0.000000 0.000000 -0.009588
    31 8.961033 0.000000 0.000001 -1.570000 0.000000 0.061087
    32 0.642856 0.500634 -1.160048 -1.571868 0.733038 -0.000717
    33 1.164114 0.000001 0.000000 0.000000 0.000000 -0.034907
    34 0.947481 0.000001 0.000000 0.000000 0.000000 -0.226893
    35 2.889326 -0.168189 -1.032868 0.006493 0.165682 0.044106
    36 1.200780 0.000000 0.000000 0.000000 0.000000 0.000000
    37 0.740581 0.000000 0.000000 0.000000 0.000000 0.000000
    38 2.985631 -0.166489 -0.361957 -0.000795 0.000049 0.061086
    39 1.223182 0.000000 0.000000 0.000000 0.000000 0.000000
    40 0.950413 0.000000 0.000000 0.000000 0.000000 0.000000
    41 2.848550 -0.167755 0.254626 -0.007323 -0.148176 0.044236
    42 1.263504 0.000000 0.000000 0.000000 0.000000 0.000000
    43 0.753029 0.000000 0.000000 0.000000 0.000000 0.000000
    44 2.575171 -0.170754 0.868192 -0.010835 -0.279049 0.036540
    45 1.008116 0.000000 0.000001 0.000000 0.000000 0.000000
    46 0.643754 -0.000001 -0.000001 0.000000 0.000000 0.000000
    47 13.620982 -4.817773 -2.031404 1.363325 -0.228187 2.234416
    48 0.454796 -0.563540 0.294497 -1.570796 -1.570796 0.000000
    49 -8.172240 -11.120867 3.084627 -0.022793 -0.144156 1.041569
    50 -2.585006 0.708454 4.100227 -0.022793 -0.144156 1.041569
  time 4
    0 -1.066439 2.402959 -14.154867 0.000000 0.000000 -1.570795
    1 0.000000 0.000000 0.000000 -1.570795 -1.570451 0.000000
    2 3.435066 -0.003090 0.000005 -0.000004 -0.000001 0.000796
    3 3.883118 -0.003092 0.000000 0.000000 0.000000 0.000000
    4 3.883117 -0.003092 0.000000 0.000000 0.000000 0.000000
    5 3.883116 -0.003092 0.000000 0.000000 0.000000 0.000000
    6 3.883120 -0.001784 0.000000 0.000000 0.000000 0.000000
    7 -0.000004 0.001787 -1.045454 -0.000014 1.370796 3.140783
    8 3.883118 0.000000 0.000002 0.320608 -1.248957 -0.401145
    9 8.961040 0.000000 0.000000 0.000000 0.000000 -0.602622
    10 8.961037 -0.000003 -0.000001 1.820572 -0.335896 -0.144976
    11 0.642857 0.500634 1.160049 0.885801 -0.544499 0.437221
    12 1.164114 0.000000 0.000000 0.000000 0.000000 -0.183260
    13 0.947481 0.000000 0.000002 0.000000 0.000000 -1.082104
    14 2.889327 -0.168189 1.032871 0.017995 -0.074317 1.349524
    15 1.200779 0.000000 0.000000 0.000000 0.000000 1.256617
    16 0.740581 0.000000 0.000001 0.000000 0.000000 1.029733
    17 2.985631 -0.166489 0.361957 0.000176 -0.000776 1.361331
    18 1.223182 -0.000001 -0.000002 0.000000 0.000000 1.518435
    19 0.950414 0.000002 0.000002 0.000000 0.000000 0.715585
    20 2.848550 -0.167755 -0.254626 0.031233 -0.013999 1.364732
    21 1.263505 -0.000001 0.000001 0.000000 0.000000 1.335173
    22 0.753029 -0.000001 0.000001 0.000000 0.000000 0.890118
    23 2.575171 -0.170754 -0.868188 0.107652 0.017413 1.355104
    24 1.008117 0.000000 0.000003 0.000000 0.000000 0.881391
    25 0.643753 0.000000 -0.000003 0.000000 0.000000 1.335176
    26 2.146242 0.592750 0.023151 1.557892 0.060258 -3.096330
    27 0.387148 -0.498516 0.349054 3.054178 -0.183253 0.141167
    28 -0.000004 0.001781 1.045454 -0.000014 -1.370796 3.140810
    29 3.883118 0.000000 -0.000001 -0.010387 1.358063 0.000000
    30 8.961039 0.000000 0.000000 0.000000 0.000000 -0.009588
    31 8.961033 0.000000 0.000001 -1.570000 0.000000 0.061087
    32 0.642856 0.500634 -1.160048 -1.571868 0.733038 -0.000717
    33 1.164114 0.000001 0.000000 0.000000 0.000000 -0.034907
    34 0.947481 0.000001 0.000000 0.000000 0.000000 -0.226893
    35 2.889326 -0.168189 -1.032868 0.006493 0.165682 0.044106
    36 1.200780 0.000000 0.000000 0.000000 0.000000 0.000000
    37 0.740581 0.000000 0.000000 0.000000 0.000000 0.000000
    38 2.985631 -0.166489 -0.361957 -0.000795 0.000049 0.061086
    39 1.223182 0.000000 0.000000 0.000000 0.000000 0.000000
    40 0.950413 0.000000 0.000000 0.000000 0.000000 0.000000
    41 2.848550 -0.167755 0.254626 -0.007323 -0.148176 0.044236
    42 1.263504 0.000000 0.000000 0.000000 0.000000 0.000000
    43 0.753029 0.000000 0.000000 0.000000 0.000000 0.000000
    44 2.575171 -0.170754 0.868192 -0.010835 -0.279049 0.036540
    45 1.008116 0.000000 0.000001 0.000000 0.000000 0.000000
    46 0.643754 -0.000001 -0.000001 0.000000 0.000000 0.000000
    47 13.261596 -5.235754 -2.031404 1.388252 -0.213805 2.171491
    48 0.454796 -0.563540 0.294497 -1.570796 -1.570796 0.000000
    49 -8.172240 -11.120867 3.084627 -0.022793 -0.144156 1.041569
    50 -2.585006 0.708454 4.100227 -0.022793 -0.144156 1.041569
  time 5
    0 -1.066439 2.402959 -14.154867 0.000000 0.000000 -1.570795
    1 0.000000 0.000000 0.000000 -1.570795 -1.570451 0.000000
    2 3.435066 -0.003090 0.000005 -0.000004 -0.000001 0.000796
    3 3.883118 -0.003092 0.000000 0.000000 0.000000 0.000000
    4 3.883117 -0.003092 0.000000 0.000000 0.000000 0.000000
    5 3.883116 -0.003092 0.000000 0.000000 0.000000 0.000000
    6 3.883120 -0.001784 0.000000 0.000000 0.000000 0.000000
    7 -0.000004 0.001787 -1.045454 -0.000014 1.370796 3.140783
    8 3.883118 0.000000 0.000002 0.380915 -1.237737 -0.465271
    9 8.961040 0.000000 0.000000 0.000000 0.000000 -0.711878
    10 8.961037 -0.000003 -0.000001 1.744147 -0.362815 -0.138241
    11 0.642857 0.500634 1.160049 0.885801 -0.544499 0.437221
    12 1.164114 0.000000 0.000000 0.000000 0.000000 -0.183260
    13 0.947481 0.000000 0.000002 0.000000 0.000000 -1.082104
    14 2.889327 -0.168189 1.032871 0.017995 -0.074317 1.349524
    15 1.200779 0.000000 0.000000 0.000000 0.000000 1.256617
    16 0.740581 0.000000 0.000001 0.000000 0.000000 1.029745
    17 2.985631 -0.166489 0.361957 0.000176 -0.000776 1.361331
    18 1.223182 -0.000001 -0.000002 0.000000 0.000000 1.518435
    19 0.950414 0.000002 0.000002 0.000000 0.000000 0.715585
    20 2.848550 -0.167755 -0.254626 0.031233 -0.013999 1.364732
    21 1.263505 -0.000001 0.000001 0.000000 0.000000 1.335173
    22 0.753029 -0.000001 0.000001 0.000000 0.000000 0.890118
    23 2.575171 -0.170754 -0.868188 0.107652 0.017413 1.355104
    24 1.008117 0.000000 0.000003 0.000000 0.000000 0.881391
    25 0.643753 0.000000 -0.000003 0.000000 0.000000 1.335176
    26 2.146242 0.592750 0.023151 1.557892 0.060258 -3.096330
    27 0.387148 -0.498516 0.349054 3.054178 -0.183253 0.141167
    28 -0.000004 0.001781 1.045454 -0.000014 -1.370796 3.140810
    29 3.883118 0.000000 -0.000001 -0.010387 1.358063 0.000000
    30 8.961039 0.000000 0.000000 0.000000 0.000000 -0.009588
    31 8.961033 0.000000 0.000001 -1.570000 0.000000 0.061087
    32 0.642856 0.500634 -1.160048 -1.571868 0.733038 -0.000717
    33 1.164114 0.000001 0.000000 0.000000 0.000000 -0.034907
    34 0.947481 0.000001 0.000000 0.000000 0.000000 -0.226893
    35 2.889326 -0.168189 -1.032868 0.006493 0.165682 0.044106
    36 1.200780 0.000000 0.000000 0.000000 0.000000 0.000000
    37 0.740581 0.000000 0.000000 0.000000 0.000000 0.000000
    38 2.985631 -0.166489 -0.361957 -0.000795 0.000049 0.061086
    39 1.223182 0.000000 0.000000 0.000000 0.000000 0.000000
    40 0.950413 0.000000 0.000000 0.000000 0.000000 0.000000
    41 2.848550 -0.167755 0.254626 -0.007323 -0.148176 0.044236
    42 1.263504 0.000000 0.000000 0.000000 0.000000 0.000000
    43 0.753029 0.000000 0.000000 0.000000 0.000000 0.000000
    44 2.575171 -0.170754 0.868192 -0.010835 -0.279049 0.036540
    45 1.008116 0.000000 0.000001 0.000000 0.000000 0.000000
    46 0.643754 -0.000001 -0.000001 0.000000 0.000000 0.000000
    47 12.929555 -5.622485 -2.031404 1.412317 -0.197794 2.108714
    48 0.454796 -0.563540 0.294497 -1.570796 -1.570796 0.000000
    49 -8.172240 -11.120867 3.084627 -0.022793 -0.144156 1.041569
    50 -2.585006 0.708454 4.100227 -0.022793 -0.144156 1.041569
  time 6
    0 -1.066439 2.402959 -14.154867 0.000000 0.000000 -1.570795
    1 0.000000 0.000000 0.000000 -1.570795 -1.570451 0.000000
    2 3.435066 -0.003090 0.000005 -0.000004 -0.000001 0.000796
    3 3.883118 -0.003092 0.000000 0.000000 0.000000 0.000000
    4 3.883117 -0.003092 0.000000 0.000000 0.000000 0.000000
    5 3.883116 -0.003092 0.000000 0.000000 0.000000 0.000000
    6 3.883120 -0.001784 0.000000 0.000000 0.000000 0.000000
    7 -0.000004 0.001787 -1.045454 -0.000014 1.370796 3.140783
    8 3.883118 0.000000 0.000002 0.436134 -1.225590 -0.524232
    9 8.961040 0.000000 0.000000 0.000000 0.000000 -0.819175
    10 8.961037 -0.000003 -0.000001 1.669886 -0.387841 -0.129684
    11 0.642857 0.500634 1.160049 0.885801 -0.544499 0.437221
    12 1.164114 0.000000 0.000000 0.000000 0.000000 -0.183260
    13 0.947481 0.000000 0.000002 0.000000 0.000000 -1.082104
    14 2.889327 -0.168189 1.032871 0.017995 -0.074317 1.349524
    15 1.200779 0.000000 0.000000 0.000000 0.000000 1.256617
    16 0.740581 0.000000 0.000001 0.000000 0.000000 1.029733
    17 2.985631 -0.166489 0.361957 0.000176 -0.000776 1.361331
    18 1.223182 -0.000001 -0.000002 0.000000 0.000000 1.518435
    19 0.950414 0.000002 0.000002 0.000000 0.000000 0.715585
    20 2.848550 -0.167755 -0.254626 0.031233 -0.013999 1.364732
    21 1.263505 -0.000001 0.000001 0.000000 0.000000 1.335173
    22 0.753029 -0.000001 0.000001 0.000000 0.000000 0.890118
    23 2.575171 -0.170754 -0.868188 0.107652 0.017413 1.355104
    24 1.008117 0.000000 0.000003 0.000000 0.000000 0.881391
    25 0.643753 0.000000 -0.000003 0.000000 0.000000 1.335176
    26 2.146242 0.592750 0.023151 1.557892 0.060258 -3.096330
    27 0.387148 -0.498516 0.349054 3.054178 -0.183253 0.141167
    28 -0.000004 0.001781 1.045454 -0.000014 -1.370796 3.140810
    29 3.883118 0.000000 -0.000001 -0.010387 1.358063 0.000000
    30 8.961039 0.000000 0.000000 0.000000 0.000000 -0.009588
    31 8.961033 0.000000 0.000001 -1.570000 0.000000 0.061087
    32 0.642856 0.500634 -1.160048 -1.571868 0.733038 -0.000717
    33 1.164114 0.000001 0.000000 0.000000 0.000000 -0.034907
    34 0.947481 0.000001 0.000000 0.000000 0.000000 -0.226893
    35 2.889326 -0.168189 -1.032868 0.006493 0.165682 0.044106
    36 1.200780 0.000000 0.000000 0.000000 0.000000 0.000000
    37 0.740581 0.000000 0.000000 0.000000 0.000000 0.000000
    38 2.985631 -0.166489 -0.361957 -0.000795 0.000049 0.061086
    39 1.223182 0.000000 0.000000 0.000000 0.000000 0.000000
    40 0.950413 0.000000 0.000000 0.000000 0.000000 0.000000
    41 2.848550 -0.167755 0.254626 -0.007323 -0.148176 0.044236
    42 1.263504 0.000000 0.000000 0.000000 0.000000 0.000000
    43 0.753029 0.000000 0.000000 0.000000 0.000000 0.000000
    44 2.575171 -0.170754 0.868192 -0.010835 -0.279049 0.036540
    45 1.008116 0.000000 0.000001 0.000000 0.000000 0.000000
    46 0.643754 -0.000001 -0.000001 0.000000 0.000000 0.000000
    47 12.620952 -5.981871 -2.031404 1.435230 -0.180440 2.046602
    48 0.454796 -0.563540 0.294497 -1.570796 -1.570796 0.000000
    49 -8.172240 -11.120867 3.084627 -0.022793 -0.144156 1.041569
    50 -2.585006 0.708454 4.100227 -0.022793 -0.144156 1.041569
  time 7
    0 -1.066439 2.402959 -14.154867 0.000000 0.000000 -1.570795
    1 0.000000 0.000000 0.000000 -1.570795 -1.570451 0.000000
    2 3.435066 -0.003090 0.000005 -0.000004 -0.000001 0.000796
    3 3.883118 -0.003092 0.000000 0.000000 0.000000 0.000000
    4 3.883117 -0.003092 0.000000 0.000000 0.000000 0.000000
    5 3.883116 -0.003092 0.000000 0.000000 0.000000 0.000000
    6 3.883120 -0.001784 0.000000 0.000000 0.000000 0.000000
    7 -0.000004 0.001787 -1.045454 -0.000014 1.370796 3.140783
    8 3.883118 0.000000 0.000002 0.485906 -1.212766 -0.577674
    9 8.961040 0.000000 0.000000 0.000000 0.000000 -0.923020
    10 8.961037 -0.000003 -0.000001 1.600137 -0.409918 -0.119988
    11 0.642857 0.500634 1.160049 0.885801 -0.544499 0.437221
    12 1.164114 0.000000 0.000000 0.000000 0.000000 -0.183260
    13 0.947481 0.000000 0.000002 0.000000 0.000000 -1.082104
    14 2.889327 -0.168189 1.032871 0.017995 -0.074317 1.349524
    15 1.200779 0.000000 0.000000 0.000000 0.000000 1.256617
    16 0.740581 0.000000 0.000001 0.000000 0.000000 1.029733
    17 2.985631 -0.166489 0.361957 0.000176 -0.000776 1.361331
    18 1.223182 -0.000001 -0.000002 0.000000 0.000000 1.518435
    19 0.950414 0.000002 0.000002 0.000000 0.000000 0.715585
    20 2.848550 -0.167755 -0.254626 0.031233 -0.013999 1.364732
    21 1.263505 -0.000001 0.000001 0.000000 0.000000 1.335173
    22 0.753029 -0.000001 0.000001 0.000000 0.000000 0.890118
    23 2.575171 -0.170754 -0.868188 0.107652 0.017413 1.355104
    24 1.008117 0.000000 0.000003 0.000000 0.000000 0.881391
    25 0.643753 0.000000 -0.000003 0.000000 0.000000 1.335176
    26 2.146242 0.592750 0.023151 1.557892 0.060258 -3.096330
    27 0.387148 -0.498516 0.349054 3.054178 -0.183253 0.141167
    28 -0.000004 0.001781 1.045454 -0.000014 -1.370796 3.140810
    29 3.883118 0.000000 -0.000001 -0.010387 1.358063 0.000000
    30 8.961039 0.000000 0.000000 0.000000 0.000000 -0.009588
    31 8.961033 0.000000 0.000001 -1.570000 0.000000 0.061087
    32 0.642856 0.500634 -1.160048 -1.571868 0.733038 -0.000717
    33 1.164114 0.000001 0.000000 0.000000 0.000000 -0.034907
    34 0.947481 0.000001 0.000000 0.000000 0.000000 -0.226893
    35 2.889326 -0.168189 -1.032868 0.006493 0.165682 0.044106
    36 1.200780 0.000000 0.000000 0.000000 0.000000 0.000000
    37 0.740581 0.000000 0.000000 0.000000 0.000000 0.000000
    38 2.985631 -0.166489 -0.361957 -0.000795 0.000049 0.061086
    39 1.223182 0.000000 0.000000 0.000000 0.000000 0.000000
    40 0.950413 0.000000 0.000000 0.000000 0.000000 0.000000
    41 2.848550 -0.167755 0.254626 -0.007323 -0.148176 0.044236
    42 1.263504 0.000000 0.000000 0.000000 0.000000 0.000000
    43 0.753029 0.000000 0.000000 0.000000 0.000000 0.000000
    44 2.575171 -0.170754 0.868192 -0.010835 -0.279049 0.036540
    45 1.008116 0.000000 0.000001 0.000000 0.000000 0.000000
    46 0.643754 -0.000001 -0.000001 0.000000 0.000000 0.000000
    47 12.339693 -6.310006 -2.031404 1.456898 -0.161744 1.985450
    48 0.454796 -0.563540 0.294497 -1.570796 -1.570796 0.000000
    49 -8.172240 -11.120867 3.084627 -0.022793 -0.144156 1.041569
    50 -2.585006 0.708454 4.100227 -0.022793 -0.144156 1.041569
  time 8
    0 -1.066439 2.402959 -14.154867 0.000000 0.000000 -1.570795
    1 0.000000 0.000000 0.000000 -1.570795 -1.570451 0.000000
    2 3.435066 -0.003090 0.000005 -0.000004 -0.000001 0.000796
    3 3.883118 -0.003092 0.000000 0.000000 0.000000 0.000000
    4 3.883117 -0.003092 0.000000 0.000000 0.000000 0.000000
    5 3.883116 -0.003092 0.000000 0.000000 0.000000 0.000000
    6 3.883120 -0.001784 0.000000 0.000000 0.000000 0.000000
    7 -0.000004 0.001787 -1.045454 -0.000014 1.370796 3.140783
    8 3.883118 0.000000 0.000002 0.530152 -1.199729 -0.625432
    9 8.961040 0.000000 0.000000 0.000000 0.000000 -1.022008
    10 8.961037 -0.000003 -0.000001 1.537625 -0.428136 -0.110077
    11 0.642857 0.500634 1.160049 0.885801 -0.544499 0.437221
    12 1.164114 0.000000 0.000000 0.000000 0.000000 -0.183260
    13 0.947481 0.000000 0.000002 0.000000 0.000000 -1.082104
    14 2.889327 -0.168189 1.032871 0.017995 -0.074317 1.349524
    15 1.200779 0.000000 0.000000 0.000000 0.000000 1.256617
    16 0.740581 0.000000 0.000001 0.000000 0.000000 1.029733
    17 2.985631 -0.166489 0.361957 0.000176 -0.000776 1.361331
    18 1.223182 -0.000001 -0.000002 0.000000 0.000000 1.518435
    19 0.950414 0.000002 0.000002 0.000000 0.000000 0.715585
    20 2.848550 -0.167755 -0.254626 0.031233 -0.013999 1.364732
    21 1.263505 -0.000001 0.000001 0.000000 0.000000 1.335173
    22 0.753029 -0.000001 0.000001 0.000000 0.000000 0.890118
    23 2.575171 -0.170754 -0.868188 0.107652 0.017413 1.355104
    24 1.008117 0.000000 0.000003 0.000000 0.000000 0.881391
    25 0.643753 0.000000 -0.000003 0.000000 0.000000 1.335176
    26 2.146242 0.592750 0.023151 1.557892 0.060258 -3.096330
    27 0.387148 -0.498516 0.349054 3.054178 -0.183253 0.141167
    28 -0.000004 0.001781 1.045454 -0.000014 -1.370796 3.140810
    29 3.883118 0.000000 -0.000001 -0.010387 1.358063 0.000000
    30 8.961039 0.000000 0.000000 0.000000 0.000000 -0.009588
    31 8.961033 0.000000 0.000001 -1.570000 0.000000 0.061087
    32 0.642856 0.500634 -1.160048 -1.571868 0.733038 -0.000717
    33 1.164114 0.000001 0.000000 0.000000 0.000000 -0.034907
    34 0.947481 0.000001 0.000000 0.000000 0.000000 -0.226893
    35 2.889326 -0.168189 -1.032868 0.006493 0.165682 0.044106
    36 1.200780 0.000000 0.000000 0.000000 0.000000 0.000000
    37 0.740581 0.000000 0.000000 0.000000 0.000000 0.000000
    38 2.985631 -0.166489 -0.361957 -0.000795 0.000049 0.061086
    39 1.223182 0.000000 0.000000 0.000000 0.000000 0.000000
    40 0.950413 0.000000 0.000000 0.000000 0.000000 0.000000
    41 2.848550 -0.167755 0.254626 -0.007323 -0.148176 0.044236
    42 1.263504 0.000000 0.000000 0.000000 0.000000 0.000000
    43 0.753029 0.000000 0.000000 0.000000 0.000000 0.000000
    44 2.575171 -0.170754 0.868192 -0.010835 -0.279049 0.036540
    45 1.008116 0.000000 0.000001 0.000000 0.000000 0.000000
    46 0.643754 -0.000001 -0.000001 0.000000 0.000000 0.000000
    47 12.085779 -6.606890 -2.031404 1.476936 -0.142089 1.925701
    48 0.454796 -0.563540 0.294497 -1.570796 -1.570796 0.000000
    49 -8.172240 -11.120867 3.084627 -0.022793 -0.144156 1.041569
    50 -2.585006 0.708454 4.100227 -0.022793 -0.144156 1.041569
  time 9
    0 -1.066439 2.402959 -14.154867 0.000000 0.000000 -1.570795
    1 0.000000 0.000000 0.000000 -1.570795 -1.570451 0.000000
    2 3.435066 -0.003090 0.000005 -0.000004 -0.000001 0.000796
    3 3.883118 -0.003092 0.000000 0.000000 0.000000 0.000000
    4 3.883117 -0.003092 0.000000 0.000000 0.000000 0.000000
    5 3.883116 -0.003092 0.000000 0.000000 0.000000 0.000000
    6 3.883120 -0.001784 0.000000 0.000000 0.000000 0.000000
    7 -0.000004 0.001787 -1.045454 -0.000014 1.370796 3.140783
    8 3.883118 0.000000 0.000002 0.568933 -1.186763 -0.667506
    9 8.961040 0.000000 0.000000 0.000000 0.000000 -1.114646
    10 8.961037 -0.000003 -0.000001 1.484922 -0.441727 -0.101076
    11 0.642857 0.500634 1.160049 0.885801 -0.544499 0.437221
    12 1.164114 0.000000 0.000000 0.000000 0.000000 -0.183260
    13 0.947481 0.000000 0.000002 0.000000 0.000000 -1.082104
    14 2.889327 -0.168189 1.032871 0.017995 -0.074317 1.349524
    15 1.200779 0.000000 0.000000 0.000000 0.000000 1.256617
    16 0.740581 0.000000 0.000001 0.000000 0.000000 1.029733
    17 2.985631 -0.166489 0.361957 0.000176 -0.000776 1.361331
    18 1.223182 -0.000001 -0.000002 0.000000 0.000000 1.518435
    19 0.950414 0.000002 0.000002 0.000000 0.000000 0.715585
    20 2.848550 -0.167755 -0.254626 0.031233 -0.013999 1.364732
    21 1.263505 -0.000001 0.000001 0.000000 0.000000 1.335173
    22 0.753029 -0.000001 0.000001 0.000000 0.000000 0.890118
    23 2.575171 -0.170754 -0.868188 0.107652 0.017413 1.355104
    24 1.008117 0.000000 0.000003 0.000000 0.000000 0.881391
    25 0.643753 0.000000 -0.000003 0.000000 0.000000 1.335176
    26 2.146242 0.592750 0.023151 1.557892 0.060258 -3.096330
    27 0.387148 -0.498516 0.349054 3.054178 -0.183253 0.141167
    28 -0.000004 0.001781 1.045454 -0.000014 -1.370796 3.140810
    29 3.883118 0.000000 -0.000001 -0.010387 1.358063 0.000000
    30 8.961039 0.000000 0.000000 0.000000 0.000000 -0.009588
    31 8.961033 0.000000 0.000001 -1.570000 0.000000 0.061087
    32 0.642856 0.500634 -1.160048 -1.571868 0.733038 -0.000717
    33 1.164114 0.000001 0.000000 0.000000 0.000000 -0.034907
    34 0.947481 0.000001 0.000000 0.000000 0.000000 -0.226893
    35 2.889326 -0.168189 -1.032868 0.006493 0.165682 0.044106
    36 1.200780 0.000000 0.000000 0.000000 0.000000 0.000000
    37 0.740581 0.000000 0.000000 0.000000 0.000000 0.000000
    38 2.985631 -0.166489 -0.361957 -0.000795 0.000049 0.061086
    39 1.223182 0.000000 0.000000 0.000000 0.000000 0.000000
    40 0.950413 0.000000 0.000000 0.000000 0.000000 0.000000
    41 2.848550 -0.167755 0.254626 -0.007323 -0.148176 0.044236
    42 1.263504 0.000000 0.000000 0.000000 0.000000 0.000000
    43 0.753029 0.000000 0.000000 0.000000 0.000000 0.000000
    44 2.575171 -0.170754 0.868192 -0.010835 -0.279049 0.036540
    45 1.008116 0.000000 0.000001 0.000000 0.000000 0.000000
    46 0.643754 -0.000001 -0.000001 0.000000 0.000000 0.000000
    47 11.855304 -6.876429 -2.031404 1.495439 -0.121668 1.867577
    48 0.454796 -0.563540 0.294497 -1.570796 -1.570796 0.000000
    49 -8.172240 -11.120867 3.084627 -0.022793 -0.144156 1.041569
    50 -2.585006 0.708454 4.100227 -0.022793 -0.144156 1.041569
  time 10
    0 -1.066439 2.402959 -14.154867 0.000000 0.000000 -1.570795
    1 0.000000 0.000000 0.000000 -1.570795 -1.570451 0.000000
    2 3.435066 -0.003090 0.000005 -0.000004 -0.000001 0.000796
    3 3.883118 -0.003092 0.000000 0.000000 0.000000 0.000000
    4 3.883117 -0.003092 0.000000 0.000000 0.000000 0.000000
    5 3.883116 -0.003092 0.000000 0.000000 0.000000 0.000000
    6 3.883120 -0.001784 0.000000 0.000000 0.000000 0.000000
    7 -0.000004 0.001787 -1.045454 -0.000014 1.370796 3.140783
    8 3.883118 0.000000 0.000002 0.602406 -1.174261 -0.704062
    9 8.961040 0.000000 0.000000 0.000000 0.000000 -1.199443
    10 8.961037 -0.000003 -0.000001 1.444975 -0.450069 -0.094185
    11 0.642857 0.500634 1.160049 0.885801 -0.544499 0.437221
    12 1.164114 0.000000 0.000000 0.000000 0.000000 -0.183260
    13 0.947481 0.000000 0.000002 0.000000 0.000000 -1.082104
    14 2.889327 -0.168189 1.032871 0.017995 -0.074317 1.349524
    15 1.200779 0.000000 0.000000 0.000000 0.000000 1.256617
    16 0.740581 0.000000 0.000001 0.000000 0.000000 1.029733
    17 2.985631 -0.166489 0.361957 0.000176 -0.000776 1.361331
    18 1.223182 -0.000001 -0.000002 0.000000 0.000000 1.518435
    19 0.950414 0.000002 0.000002 0.000000 0.000000 0.715585
    20 2.848550 -0.167755 -0.254626 0.031233 -0.013999 1.364732
    21 1.263505 -0.000001 0.000001 0.000000 0.000000 1.335173
    22 0.753029 -0.000001 0.000001 0.000000 0.000000 0.890118
    23 2.575171 -0.170754 -0.868188 0.107652 0.017413 1.355104
    24 1.008117 0.000000 0.000003 0.000000 0.000000 0.881391
    25 0.643753 0.000000 -0.000003 0.000000 0.000000 1.335176
    26 2.146242 0.592750 0.023151 1.557892 0.060258 -3.096330
    27 0.387148 -0.498516 0.349054 3.054178 -0.183253 0.141167
    28 -0.000004 0.001781 1.045454 -0.000014 -1.370796 3.140810
    29 3.883118 0.000000 -0.000001 -0.010387 1.358063 0.000000
    30 8.961039 0.000000 0.000000 0.000000 0.000000 -0.009588
    31 8.961033 0.000000 0.000001 -1.570000 0.000000 0.061087
    32 0.642856 0.500634 -1.160048 -1.571868 0.733038 -0.000717
    33 1.164114 0.000001 0.000000 0.000000 0.000000 -0.034907
    34 0.947481 0.000001 0.000000 0.000000 0.000000 -0.226893
    35 2.889326 -0.168189 -1.032868 0.006493 0.165682 0.044106
    36 1.200780 0.000000 0.000000 0.000000 0.000000 0.000000
    37 0.740581 0.000000 0.000000 0.000000 0.000000 0.000000
    38 2.985631 -0.166489 -0.361957 -0.000795 0.000049 0.061086
    39 1.223182 0.000000 0.000000 0.000000 0.000000 0.000000
    40 0.950413 0.000000 0.000000 0.000000 0.000000 0.000000
    41 2.848550 -0.167755 0.254626 -0.007323 -0.148176 0.044236
    42 1.263504 0.000000 0.000000 0.000000 0.000000 0.000000
    43 0.753029 0.000000 0.000000 0.000000 0.000000 0.000000
    44 2.575171 -0.170754 0.868192 -0.010835 -0.279049 0.036540
    45 1.008116 0.000000 0.000001 0.000000 0.000000 0.000000
    46 0.643754 -0.000001 -0.000001 0.000000 0.000000 0.000000
    47 11.648266 -7.114718 -2.031404 1.512217 -0.100862 1.811447
    48 0.454796 -0.563540 0.294497 -1.570796 -1.570796 0.000000
    49 -8.172240 -11.120867 3.084627 -0.022793 -0.144156 1.041569
    50 -2.585006 0.708454 4.100227 -0.022793 -0.144156 1.041569
  time 11
    0 -1.066439 2.402959 -14.154867 0.000000 0.000000 -1.570795
    1 0.000000 0.000000 0.000000 -1.570795 -1.570451 0.000000
    2 3.435066 -0.003090 0.000005 -0.000004 -0.000001 0.000796
    3 3.883118 -0.003092 0.000000 0.000000 0.000000 0.000000
    4 3.883117 -0.003092 0.000000 0.000000 0.000000 0.000000
    5 3.883116 -0.003092 0.000000 0.000000 0.000000 0.000000
    6 3.883120 -0.001784 0.000000 0.000000 0.000000 0.000000
    7 -0.000004 0.001787 -1.045454 -0.000014 1.370796 3.140783
    8 3.883118 0.000000 0.000002 0.630770 -1.162577 -0.735217
    9 8.961040 0.000000 0.000000 0.000000 0.000000 -1.274994
    10 8.961037 -0.000003 -0.000001 1.420470 -0.452466 -0.090518
    11 0.642857 0.500634 1.160049 0.885801 -0.544499 0.437221
    12 1.164114 0.000000 0.000000 0.000000 0.000000 -0.183260
    13 0.947481 0.000000 0.000002 0.000000 0.000000 -1.082104
    14 2.889327 -0.168189 1.032871 0.017995 -0.074317 1.349524
    15 1.200779 0.000000 0.000000 0.000000 0.000000 1.256617
    16 0.740581 0.000000 0.000001 0.000000 0.000000 1.029733
    17 2.985631 -0.166489 0.361957 0.000176 -0.000776 1.361331
    18 1.223182 -0.000001 -0.000002 0.000000 0.000000 1.518435
    19 0.950414 0.000002 0.000002 0.000000 0.000000 0.715585
    20 2.848550 -0.167755 -0.254626 0.031233 -0.013999 1.364732
    21 1.263505 -0.000001 0.000001 0.000000 0.000000 1.335173
    22 0.753029 -0.000001 0.000001 0.000000 0.000000 0.890118
    23 2.575171 -0.170754 -0.868188 0.107652 0.017413 1.355104
    24 1.008117 0.000000 0.000003 0.000000 0.000000 0.881391
    25 0.643753 0.000000 -0.000003 0.000000 0.000000 1.335176
    26 2.146242 0.592750 0.023151 1.557892 0.060258 -3.096330
    27 0.387148 -0.498516 0.349054 3.054178 -0.183253 0.141167
    28 -0.000004 0.001781 1.045454 -0.000014 -1.370796 3.140810
    29 3.883118 0.000000 -0.000001 -0.010387 1.358063 0.000000
    30 8.961039 0.000000 0.000000 0.000000 0.000000 -0.009588
    31 8.961033 0.000000 0.000001 -1.570000 0.000000 0.061087
    32 0.642856 0.500634 -1.160048 -1.571868 0.733038 -0.000717
    33 1.164114 0.000001 0.000000 0.000000 0.000000 -0.034907
    34 0.947481 0.000001 0.000000 0.000000 0.000000 -0.226893
    35 2.889326 -0.168189 -1.032868 0.006493 0.165682 0.044106
    36 1.200780 0.000000 0.000000 0.000000 0.000000 0.000000
    37 0.740581 0.000000 0.000000 0.000000 0.000000 0.000000
    38 2.985631 -0.166489 -0.361957 -0.000795 0.000049 0.061086
    39 1.223182 0.000000 0.000000 0.000000 0.000000 0.000000
    40 0.950413 0.000000 0.000000 0.000000 0.000000 0.000000
    41 2.848550 -0.167755 0.254626 -0.007323 -0.148176 0.044236
    42 1.263504 0.000000 0.000000 0.000000 0.000000 0.000000
    43 0.753029 0.000000 0.000000 0.000000 0.000000 0.000000
    44 2.575171 -0.170754 0.868192 -0.010835 -0.279049 0.036540
    45 1.008116 0.000000 0.000001 0.000000 0.000000 0.000000
    46 0.643754 -0.000001 -0.000001 0.000000 0.000000 0.000000
    47 11.472479 -7.321755 -2.031404 1.527269 -0.079769 1.757607
    48 0.454796 -0.563540 0.294497 -1.570796 -1.570796 0.000000
    49 -8.172240 -11.120867 3.084627 -0.022793 -0.144156 1.041569
    50 -2.585006 0.708454 4.100227 -0.022793 -0.144156 1.041569
  time 12
    0 -1.066439 2.402959 -14.154867 0.000000 0.000000 -1.570795
    1 0.000000 0.000000 0.000000 -1.570795 -1.570451 0.000000
    2 3.435066 -0.003090 0.000005 -0.000004 -0.000001 0.000796
    3 3.883118 -0.003092 0.000000 0.000000 0.000000 0.000000
    4 3.883117 -0.003092 0.000000 0.000000 0.000000 0.000000
    5 3.883116 -0.003092 0.000000 0.000000 0.000000 0.000000
    6 3.883120 -0.001784 0.000000 0.000000 0.000000 0.000000
    7 -0.000004 0.001787 -1.045454 -0.000014 1.370796 3.140783
    8 3.883118 0.000000 0.000002 0.645121 -1.156272 -0.751018
    9 8.961040 0.000000 0.000000 0.000000 0.000000 -1.309808
    10 8.961037 -0.000003 -0.000001 1.464333 -0.429622 -0.101796
    11 0.642857 0.500634 1.160049 0.885801 -0.544499 0.437221
    12 1.164114 0.000000 0.000000 0.000000 0.000000 -0.183260
    13 0.947481 0.000000 0.000002 0.000000 0.000000 -1.082104
    14 2.889327 -0.168189 1.032871 0.017995 -0.074317 1.349524
    15 1.200779 0.000000 0.000000 0.000000 0.000000 1.256617
    16 0.740581 0.000000 0.000001 0.000000 0.000000 1.029745
    17 2.985631 -0.166489 0.361957 0.000176 -0.000776 1.361331
    18 1.223182 -0.000001 -0.000002 0.000000 0.000000 1.518435
    19 0.950414 0.000002 0.000002 0.000000 0.000000 0.715585
    20 2.848550 -0.167755 -0.254626 0.031233 -0.013999 1.364732
    21 1.263505 -0.000001 0.000001 0.000000 0.000000 1.335173
    22 0.753029 -0.000001 0.000001 0.000000 0.000000 0.890118
    23 2.575171 -0.170754 -0.868188 0.107652 0.017413 1.355104
    24 1.008117 0.000000 0.000003 0.000000 0.000000 0.881391
    25 0.643753 0.000000 -0.000003 0.000000 0.000000 1.335176
    26 2.146242 0.592750 0.023151 1.557892 0.060258 -3.096330
    27 0.387148 -0.498516 0.349054 3.054178 -0.183253 0.141167
    28 -0.000004 0.001781 1.045454 -0.000014 -1.370796 3.140810
    29 3.883118 0.000000 -0.000001 -0.010387 1.358063 0.000000
    30 8.961039 0.000000 0.000000 0.000000 0.000000 -0.009588
    31 8.961033 0.000000 0.000001 -1.570000 0.000000 0.061087
    32 0.642856 0.500634 -1.160048 -1.571868 0.733038 -0.000717
    33 1.164114 0.000001 0.000000 0.000000 0.000000 -0.034907
    34 0.947481 0.000001 0.000000 0.000000 0.000000 -0.226893
    35 2.889326 -0.168189 -1.032868 0.006493 0.165682 0.044106
    36 1.200780 0.000000 0.000000 0.000000 0.000000 0.000000
    37 0.740581 0.000000 0.000000 0.000000 0.000000 0.000000
    38 2.985631 -0.166489 -0.361957 -0.000795 0.000049 0.061086
    39 1.223182 0.000000 0.000000 0.000000 0.000000 0.000000
    40 0.950413 0.000000 0.000000 0.000000 0.000000 0.000000
    41 2.848550 -0.167755 0.254626 -0.007323 -0.148176 0.044236
    42 1.263504 0.000000 0.000000 0.000000 0.000000 0.000000
    43 0.753029 0.000000 0.000000 0.000000 0.000000 0.000000
    44 2.575171 -0.170754 0.868192 -0.010835 -0.279049 0.036540
    45 1.008116 0.000000 0.000001 0.000000 0.000000 0.000000
    46 0.643754 -0.000001 -0.000001 0.000000 0.000000 0.000000
    47 11.316225 -7.501448 -2.031404 1.540596 -0.058868 1.706351
    48 0.454796 -0.563540 0.294497 -1.570796 -1.570796 0.000000
    49 -8.172240 -11.120867 3.084627 -0.022793 -0.144156 1.041569
    50 -2.585006 0.708454 4.100227 -0.022793 -0.144156 1.041569
  time 13
    0 -1.066439 2.402959 -14.154867 0.000000 0.000000 -1.570795
    1 0.000000 0.000000 0.000000 -1.570795 -1.570451 0.000000
    2 3.435066 -0.003090 0.000005 -0.000004 -0.000001 0.000796
    3 3.883118 -0.003092 0.000000 0.000000 0.000000 0.000000
    4 3.883117 -0.003092 0.000000 0.000000 0.000000 0.000000
    5 3.883116 -0.003092 0.000000 0.000000 0.000000 0.000000
    6 3.883120 -0.001784 0.000000 0.000000 0.000000 0.000000
    7 -0.000004 0.001787 -1.045454 -0.000014 1.370796 3.140783
    8 3.883118 0.000000 0.000002 0.643551 -1.156985 -0.749273
    9 8.961040 0.000000 0.000000 0.000000 0.000000 -1.293829
    10 8.961037 -0.000003 -0.000001 1.590029 -0.373075 -0.125729
    11 0.642857 0.500634 1.160049 0.885801 -0.544499 0.437221
    12 1.164114 0.000000 0.000000 0.000000 0.000000 -0.183260
    13 0.947481 0.000000 0.000002 0.000000 0.000000 -1.082104
    14 2.889327 -0.168189 1.032871 0.017995 -0.074317 1.349524
    15 1.200779 0.000000 0.000000 0.000000 0.000000 1.256617
    16 0.740581 0.000000 0.000001 0.000000 0.000000 1.029733
    17 2.985631 -0.166489 0.361957 0.000176 -0.000776 1.361331
    18 1.223182 -0.000001 -0.000002 0.000000 0.000000 1.518435
    19 0.950414 0.000002 0.000002 0.000000 0.000000 0.715585
    20 2.848550 -0.167755 -0.254626 0.031233 -0.013999 1.364732
    21 1.263505 -0.000001 0.000001 0.000000 0.000000 1.335173
    22 0.753029 -0.000001 0.000001 0.000000 0.000000 0.890118
    23 2.575171 -0.170754 -0.868188 0.107652 0.017413 1.355104
    24 1.008117 0.000000 0.000003 0.000000 0.000000 0.881391
    25 0.643753 0.000000 -0.000003 0.000000 0.000000 1.335176
    26 2.146242 0.592750 0.023151 1.557892 0.060258 -3.096330
    27 0.387148 -0.498516 0.349054 3.054178 -0.183253 0.141167
    28 -0.000004 0.001781 1.045454 -0.000014 -1.370796 3.140810
    29 3.883118 0.000000 -0.000001 -0.010387 1.358063 0.000000
    30 8.961039 0.000000 0.000000 0.000000 0.000000 -0.009588
    31 8.961033 0.000000 0.000001 -1.570000 0.000000 0.061087
    32 0.642856 0.500634 -1.160048 -1.571868 0.733038 -0.000717
    33 1.164114 0.000001 0.000000 0.000000 0.000000 -0.034907
    34 0.947481 0.000001 0.000000 0.000000 0.000000 -0.226893
    35 2.889326 -0.168189 -1.032868 0.006493 0.165682 0.044106
    36 1.200780 0.000000 0.000000 0.000000 0.000000 0.000000
    37 0.740581 0.000000 0.000000 0.000000 0.000000 0.000000
    38 2.985631 -0.166489 -0.361957 -0.000795 0.000049 0.061086
    39 1.223182 0.000000 0.000000 0.000000 0.000000 0.000000
    40 0.950413 0.000000 0.000000 0.000000 0.000000 0.000000
    41 2.848550 -0.167755 0.254626 -0.007323 -0.148176 0.044236
    42 1.263504 0.000000 0.000000 0.000000 0.000000 0.000000
    43 0.753029 0.000000 0.000000 0.000000 0.000000 0.000000
    44 2.575171 -0.170754 0.868192 -0.010835 -0.279049 0.036540
    45 1.008116 0.000000 0.000001 0.000000 0.000000 0.000000
    46 0.643754 -0.000001 -0.000001 0.000000 0.000000 0.000000
    47 11.191221 -7.649890 -2.031404 1.552292 -0.038447 1.657902
    48 0.454796 -0.563540 0.294497 -1.570796 -1.570796 0.000000
    49 -8.172240 -11.120867 3.084627 -0.022793 -0.144156 1.041569
    50 -2.585006 0.708454 4.100227 -0.022793 -0.144156 1.041569
  time 14
    0 -1.066439 2.402959 -14.154867 0.000000 0.000000 -1.570795
    1 0.000000 0.000000 0.000000 -1.570795 -1.570451 0.000000
    2 3.435066 -0.003090 0.000005 -0.000004 -0.000001 0.000796
    3 3.883118 -0.003092 0.000000 0.000000 0.000000 0.000000
    4 3.883117 -0.003092 0.000000 0.000000 0.000000 0.000000
    5 3.883116 -0.003092 0.000000 0.000000 0.000000 0.000000
    6 3.883120 -0.001784 0.000000 0.000000 0.000000 0.000000
    7 -0.000004 0.001787 -1.045454 -0.000014 1.370796 3.140783
    8 3.883118 0.000000 0.000002 0.635600 -1.160511 -0.740523
    9 8.961040 0.000000 0.000000 0.000000 0.000000 -1.257481
    10 8.961037 -0.000003 -0.000001 1.743551 -0.300228 -0.144245
    11 0.642857 0.500634 1.160049 0.885801 -0.544499 0.437221
    12 1.164114 0.000000 0.000000 0.000000 0.000000 -0.183260
    13 0.947481 0.000000 0.000002 0.000000 0.000000 -1.082104
    14 2.889327 -0.168189 1.032871 0.017995 -0.074317 1.349524
    15 1.200779 0.000000 0.000000 0.000000 0.000000 1.256617
    16 0.740581 0.000000 0.000001 0.000000 0.000000 1.029733
    17 2.985631 -0.166489 0.361957 0.000176 -0.000776 1.361331
    18 1.223182 -0.000001 -0.000002 0.000000 0.000000 1.518435
    19 0.950414 0.000002 0.000002 0.000000 0.000000 0.715585
    20 2.848550 -0.167755 -0.254626 0.031233 -0.013999 1.364732
    21 1.263505 -0.000001 0.000001 0.000000 0.000000 1.335173
    22 0.753029 -0.000001 0.000001 0.000000 0.000000 0.890118
    23 2.575171 -0.170754 -0.868188 0.107652 0.017413 1.355104
    24 1.008117 0.000000 0.000003 0.000000 0.000000 0.881391
    25 0.643753 0.000000 -0.000003 0.000000 0.000000 1.335176
    26 2.146242 0.592750 0.023151 1.557892 0.060258 -3.096330
    27 0.387148 -0.498516 0.349054 3.054178 -0.183253 0.141167
    28 -0.000004 0.001781 1.045454 -0.000014 -1.370796 3.140810
    29 3.883118 0.000000 -0.000001 -0.010387 1.358063 0.000000
    30 8.961039 0.000000 0.000000 0.000000 0.000000 -0.009588
    31 8.961033 0.000000 0.000001 -1.570000 0.000000 0.061087
    32 0.642856 0.500634 -1.160048 -1.571868 0.733038 -0.000717
    33 1.164114 0.000001 0.000000 0.000000 0.000000 -0.034907
    34 0.947481 0.000001 0.000000 0.000000 0.000000 -0.226893
    35 2.889326 -0.168189 -1.032868 0.006493 0.165682 0.044106
    36 1.200780 0.000000 0.000000 0.000000 0.000000 0.000000
    37 0.740581 0.000000 0.000000 0.000000 0.000000 0.000000
    38 2.985631 -0.166489 -0.361957 -0.000795 0.000049 0.061086
    39 1.223182 0.000000 0.000000 0.000000 0.000000 0.000000
    40 0.950413 0.000000 0.000000 0.000000 0.000000 0.000000
    41 2.848550 -0.167755 0.254626 -0.007323 -0.148176 0.044236
    42 1.263504 0.000000 0.000000 0.000000 0.000000 0.000000
    43 0.753029 0.000000 0.000000 0.000000 0.000000 0.000000
    44 2.575171 -0.170754 0.868192 -0.010835 -0.279049 0.036540
    45 1.008116 0.000000 0.000001 0.000000 0.000000 0.000000
    46 0.643754 -0.000001 -0.000001 0.000000 0.000000 0.000000
    47 11.085749 -7.770988 -2.031404 1.562359 -0.018696 1.612629
    48 0.454796 -0.563540 0.294497 -1.570796 -1.570796 0.000000
    49 -8.172240 -11.120867 3.084627 -0.022793 -0.144156 1.041569
    50 -2.585006 0.708454 4.100227 -0.022793 -0.144156 1.041569
  time 15
    0 -1.066439 2.402959 -14.154867 0.000000 0.000000 -1.570795
    1 0.000000 0.000000 0.000000 -1.570795 -1.570451 0.000000
    2 3.435066 -0.003090 0.000005 -0.000004 -0.000001 0.000796
    3 3.883118 -0.003092 0.000000 0.000000 0.000000 0.000000
    4 3.883117 -0.003092 0.000000 0.000000 0.000000 0.000000
    5 3.883116 -0.003092 0.000000 0.000000 0.000000 0.000000
    6 3.883120 -0.001784 0.000000 0.000000 0.000000 0.000000
    7 -0.000004 0.001787 -1.045454 -0.000014 1.370796 3.140783
    8 3.883118 0.000000 0.000002 0.630770 -1.162577 -0.735217
    9 8.961040 0.000000 0.000000 0.000000 0.000000 -1.231360
    10 8.961037 -0.000003 -0.000001 1.877117 -0.232726 -0.150645
    11 0.642857 0.500634 1.160049 0.885801 -0.544499 0.437221
    12 1.164114 0.000000 0.000000 0.000000 0.000000 -0.183260
    13 0.947481 0.000000 0.000002 0.000000 0.000000 -1.082104
    14 2.889327 -0.168189 1.032871 0.017995 -0.074317 1.349524
    15 1.200779 0.000000 0.000000 0.000000 0.000000 1.256617
    16 0.740581 0.000000 0.000001 0.000000 0.000000 1.029733
    17 2.985631 -0.166489 0.361957 0.000176 -0.000776 1.361331
    18 1.223182 -0.000001 -0.000002 0.000000 0.000000 1.518435
    19 0.950414 0.000002 0.000002 0.000000 0.000000 0.715585
    20 2.848550 -0.167755 -0.254626 0.031233 -0.013999 1.364732
    21 1.263505 -0.000001 0.000001 0.000000 0.000000 1.335173
    22 0.753029 -0.000001 0.000001 0.000000 0.000000 0.890118
    23 2.575171 -0.170754 -0.868188 0.107652 0.017413 1.355104
    24 1.008117 0.000000 0.000003 0.000000 0.000000 0.881391
    25 0.643753 0.000000 -0.000003 0.000000 0.000000 1.335176
    26 2.146242 0.592750 0.023151 1.557892 0.060258 -3.096330
    27 0.387148 -0.498516 0.349054 3.054178 -0.183253 0.141167
    28 -0.000004 0.001781 1.045454 -0.000014 -1.370796 3.140810
    29 3.883118 0.000000 -0.000001 -0.010387 1.358063 0.000000
    30 8.961039 0.000000 0.000000 0.000000 0.000000 -0.009588
    31 8.961033 0.000000 0.000001 -1.570000 0.000000 0.061087
    32 0.642856 0.500634 -1.160048 -1.571868 0.733038 -0.000717
    33 1.164114 0.000001 0.000000 0.000000 0.000000 -0.034907
    34 0.947481 0.000001 0.000000 0.000000 0.000000 -0.226893
    35 2.889326 -0.168189 -1.032868 0.006493 0.165682 0.044106
    36 1.200780 0.000000 0.000000 0.000000 0.000000 0.000000
    37 0.740581 0.000000 0.000000 0.000000 0.000000 0.000000
    38 2.985631 -0.166489 -0.361957 -0.000795 0.000049 0.061086
    39 1.223182 0.000000 0.000000 0.000000 0.000000 0.000000
    40 0.950413 0.000000 0.000000 0.000000 0.000000 0.000000
    41 2.848550 -0.167755 0.254626 -0.007323 -0.148176 0.044236
    42 1.263504 0.000000 0.000000 0.000000 0.000000 0.000000
    43 0.753029 0.000000 0.000000 0.000000 0.000000 0.000000
    44 2.575171 -0.170754 0.868192 -0.010835 -0.279049 0.036540
    45 1.008116 0.000000 0.000001 0.000000 0.000000 0.000000
    46 0.643754 -0.000001 -0.000001 0.000000 0.000000 0.000000
    47 11.011528 -7.860834 -2.031404 -1.570796 -3.141592 -1.570753
    48 0.454796 -0.563540 0.294497 -1.570796 -1.570796 0.000000
    49 -8.172240 -11.120867 3.084627 -0.022793 -0.144156 1.041569
    50 -2.585006 0.708454 4.100227 -0.022793 -0.144156 1.041569
end
