version 1
nodes
  0 "Bip01" -1
  1 "ValveBiped.Bip01_Pelvis" 0
  2 "ValveBiped.Bip01_Spine" 1
  3 "ValveBiped.Bip01_Spine1" 2
  4 "ValveBiped.Bip01_Spine2" 3
  5 "ValveBiped.Bip01_Spine3" 4
  6 "ValveBiped.Bip01_Neck1" 5
  7 "ValveBiped.Bip01_R_Clavicle" 6
  8 "ValveBiped.Bip01_R_UpperArm" 7
  9 "ValveBiped.Bip01_R_Forearm" 8
  10 "ValveBiped.Bip01_R_Hand" 9
  11 "ValveBiped.Bip01_R_Finger0" 10
  12 "ValveBiped.Bip01_R_Finger01" 11
  13 "ValveBiped.Bip01_R_Finger02" 12
  14 "ValveBiped.Bip01_R_Finger1" 10
  15 "ValveBiped.Bip01_R_Finger11" 14
  16 "ValveBiped.Bip01_R_Finger12" 15
  17 "ValveBiped.Bip01_R_Finger2" 10
  18 "ValveBiped.Bip01_R_Finger21" 17
  19 "ValveBiped.Bip01_R_Finger22" 18
  20 "ValveBiped.Bip01_R_Finger3" 10
  21 "ValveBiped.Bip01_R_Finger31" 20
  22 "ValveBiped.Bip01_R_Finger32" 21
  23 "ValveBiped.Bip01_R_Finger4" 10
  24 "ValveBiped.Bip01_R_Finger41" 23
  25 "ValveBiped.Bip01_R_Finger42" 24
  26 "Dummy22" 10
  27 "Box03" 26
  28 "ValveBiped.Bip01_L_Clavicle" 6
  29 "ValveBiped.Bip01_L_UpperArm" 28
  30 "ValveBiped.Bip01_L_Forearm" 29
  31 "ValveBiped.Bip01_L_Hand" 30
  32 "ValveBiped.Bip01_L_Finger0" 31
  33 "ValveBiped.Bip01_L_Finger01" 32
  34 "ValveBiped.Bip01_L_Finger02" 33
  35 "ValveBiped.Bip01_L_Finger1" 31
  36 "ValveBiped.Bip01_L_Finger11" 35
  37 "ValveBiped.Bip01_L_Finger12" 36
  38 "ValveBiped.Bip01_L_Finger2" 31
  39 "ValveBiped.Bip01_L_Finger21" 38
  40 "ValveBiped.Bip01_L_Finger22" 39
  41 "ValveBiped.Bip01_L_Finger3" 31
  42 "ValveBiped.Bip01_L_Finger31" 41
  43 "ValveBiped.Bip01_L_Finger32" 42
  44 "ValveBiped.Bip01_L_Finger4" 31
  45 "ValveBiped.Bip01_L_Finger41" 44
  46 "ValveBiped.Bip01_L_Finger42" 45
  47 "Dummy22 shield" -1
  48 "Group02" 47
  49 "MESH_Leftarm07" 48
  50 "shield03" 48
end
skeleton
  time 0
    0 -1.066439 2.402959 -14.154867 0.000000 0.000000 -1.570795
    1 0.000000 0.000000 0.000000 -1.570795 -1.570451 0.000000
    2 3.435066 -0.003090 0.000005 -0.000004 -0.000001 0.000796
    3 3.883118 -0.003092 0.000000 0.000000 0.000000 0.000000
    4 3.883117 -0.003092 0.000000 0.000000 0.000000 0.000000
    5 3.883116 -0.003092 0.000000 0.000000 0.000000 0.000000
    6 3.883120 -0.001784 0.000000 0.000000 0.000000 0.000000
    7 -0.000004 0.001787 -1.045454 -0.000014 1.370796 3.140783
    8 3.883118 0.000000 0.000002 0.254417 -1.008518 -0.360604
    9 8.961040 0.000000 0.000000 0.000000 0.000000 -0.280135
    10 8.961037 -0.000003 -0.000001 2.072077 -0.196339 0.261565
    11 0.642857 0.500634 1.160049 0.885801 -0.544499 0.437221
    12 1.164114 0.000000 0.000000 0.000000 0.000000 -0.183260
    13 0.947481 0.000000 0.000002 0.000000 0.000000 -1.082104
    14 2.889327 -0.168189 1.032871 0.017995 -0.074317 1.349524
    15 1.200779 0.000000 0.000000 0.000000 0.000000 1.256617
    16 0.740581 0.000000 0.000001 0.000000 0.000000 1.029733
    17 2.985631 -0.166489 0.361957 0.000176 -0.000776 1.361331
    18 1.223182 -0.000001 -0.000002 0.000000 0.000000 1.518435
    19 0.950414 0.000002 0.000002 0.000000 0.000000 0.715585
    20 2.848550 -0.167755 -0.254626 0.031233 -0.013999 1.364732
    21 1.263505 -0.000001 0.000001 0.000000 0.000000 1.335173
    22 0.753029 -0.000001 0.000001 0.000000 0.000000 0.890118
    23 2.575171 -0.170754 -0.868188 0.107652 0.017413 1.355104
    24 1.008117 0.000000 0.000003 0.000000 0.000000 0.881391
    25 0.643753 0.000000 -0.000003 0.000000 0.000000 1.335176
    26 2.146242 0.592750 0.023151 1.557892 0.060258 -3.096330
    27 0.387148 -0.498516 0.349054 3.054178 -0.183253 0.141167
    28 -0.000004 0.001781 1.045454 -0.000014 -1.370796 3.140810
    29 3.883118 0.000000 -0.000001 -0.010387 1.358063 0.000000
    30 8.961039 0.000000 0.000000 0.000000 0.000000 -0.009588
    31 8.961033 0.000000 0.000001 -1.570000 0.000000 0.061087
    32 0.642856 0.500634 -1.160048 -1.571868 0.733038 -0.000717
    33 1.164114 0.000001 0.000000 0.000000 0.000000 -0.034907
    34 0.947481 0.000001 0.000000 0.000000 0.000000 -0.226893
    35 2.889326 -0.168189 -1.032868 0.006493 0.165682 0.044106
    36 1.200780 0.000000 0.000000 0.000000 0.000000 0.000000
    37 0.740581 0.000000 0.000000 0.000000 0.000000 0.000000
    38 2.985631 -0.166489 -0.361957 -0.000795 0.000049 0.061086
    39 1.223182 0.000000 0.000000 0.000000 0.000000 0.000000
    40 0.950413 0.000000 0.000000 0.000000 0.000000 0.000000
    41 2.848550 -0.167755 0.254626 -0.007323 -0.148176 0.044236
    42 1.263504 0.000000 0.000000 0.000000 0.000000 0.000000
    43 0.753029 0.000000 0.000000 0.000000 0.000000 0.000000
    44 2.575171 -0.170754 0.868192 -0.010835 -0.279049 0.036540
    45 1.008116 0.000000 0.000001 0.000000 0.000000 0.000000
    46 0.643754 -0.000001 -0.000001 0.000000 0.000000 0.000000
    47 -0.250535 -7.860834 -2.871274 1.656411 0.117353 0.560635
    48 0.454796 -0.563540 0.294497 -1.570796 -1.570796 0.000000
    49 -8.172240 -11.120867 3.084627 -0.022793 -0.144156 1.041569
    50 -2.585006 0.708454 4.100227 -0.022793 -0.144156 1.041569
  time 1
    0 -1.066439 2.402959 -14.154867 0.000000 0.000000 -1.570795
    1 0.000000 0.000000 0.000000 -1.570795 -1.570451 0.000000
    2 3.435066 -0.003090 0.000005 -0.000004 -0.000001 0.000796
    3 3.883118 -0.003092 0.000000 0.000000 0.000000 0.000000
    4 3.883117 -0.003092 0.000000 0.000000 0.000000 0.000000
    5 3.883116 -0.003092 0.000000 0.000000 0.000000 0.000000
    6 3.883120 -0.001784 0.000000 0.000000 0.000000 0.000000
    7 -0.000004 0.001787 -1.045454 -0.000014 1.370796 3.140783
    8 3.883118 0.000000 0.000002 0.254417 -1.008518 -0.360604
    9 8.961040 0.000000 0.000000 0.000000 0.000000 -0.280135
    10 8.961037 -0.000003 -0.000001 2.072077 -0.196339 0.261565
    11 0.642857 0.500634 1.160049 0.885801 -0.544499 0.437221
    12 1.164114 0.000000 0.000000 0.000000 0.000000 -0.183260
    13 0.947481 0.000000 0.000002 0.000000 0.000000 -1.082104
    14 2.889327 -0.168189 1.032871 0.017995 -0.074317 1.349524
    15 1.200779 0.000000 0.000000 0.000000 0.000000 1.256617
    16 0.740581 0.000000 0.000001 0.000000 0.000000 1.029733
    17 2.985631 -0.166489 0.361957 0.000176 -0.000776 1.361331
    18 1.223182 -0.000001 -0.000002 0.000000 0.000000 1.518435
    19 0.950414 0.000002 0.000002 0.000000 0.000000 0.715585
    20 2.848550 -0.167755 -0.254626 0.031233 -0.013999 1.364732
    21 1.263505 -0.000001 0.000001 0.000000 0.000000 1.335173
    22 0.753029 -0.000001 0.000001 0.000000 0.000000 0.890118
    23 2.575171 -0.170754 -0.868188 0.107652 0.017413 1.355104
    24 1.008117 0.000000 0.000003 0.000000 0.000000 0.881391
    25 0.643753 0.000000 -0.000003 0.000000 0.000000 1.335176
    26 2.146242 0.592750 0.023151 1.557892 0.060258 -3.096330
    27 0.387148 -0.498516 0.349054 3.054178 -0.183253 0.141167
    28 -0.000004 0.001781 1.045454 -0.000014 -1.370796 3.140810
    29 3.883118 0.000000 -0.000001 -0.010387 1.358063 0.000000
    30 8.961039 0.000000 0.000000 0.000000 0.000000 -0.009588
    31 8.961033 0.000000 0.000001 -1.570000 0.000000 0.061087
    32 0.642856 0.500634 -1.160048 -1.571868 0.733038 -0.000717
    33 1.164114 0.000001 0.000000 0.000000 0.000000 -0.034907
    34 0.947481 0.000001 0.000000 0.000000 0.000000 -0.226893
    35 2.889326 -0.168189 -1.032868 0.006493 0.165682 0.044106
    36 1.200780 0.000000 0.000000 0.000000 0.000000 0.000000
    37 0.740581 0.000000 0.000000 0.000000 0.000000 0.000000
    38 2.985631 -0.166489 -0.361957 -0.000795 0.000049 0.061086
    39 1.223182 0.000000 0.000000 0.000000 0.000000 0.000000
    40 0.950413 0.000000 0.000000 0.000000 0.000000 0.000000
    41 2.848550 -0.167755 0.254626 -0.007323 -0.148176 0.044236
    42 1.263504 0.000000 0.000000 0.000000 0.000000 0.000000
    43 0.753029 0.000000 0.000000 0.000000 0.000000 0.000000
    44 2.575171 -0.170754 0.868192 -0.010835 -0.279049 0.036540
    45 1.008116 0.000000 0.000001 0.000000 0.000000 0.000000
    46 0.643754 -0.000001 -0.000001 0.000000 0.000000 0.000000
    47 -0.250535 -7.860834 -2.871274 1.656411 0.117353 0.560635
    48 0.454796 -0.563540 0.294497 -1.570796 -1.570796 0.000000
    49 -8.172240 -11.120867 3.084627 -0.022793 -0.144156 1.041569
    50 -2.585006 0.708454 4.100227 -0.022793 -0.144156 1.041569
end
